%!PS-Adobe-3.0 EPSF-3.0
%%Title: Sample/Figures/cdfpdfcomparison.eps
%%Creator: matplotlib version 3.0.2, http://matplotlib.org/
%%CreationDate: Fri Jan 18 11:15:02 2019
%%Orientation: portrait
%%BoundingBox: 75 223 536 568
%%EndComments
%%BeginProlog
/mpldict 8 dict def
mpldict begin
/m { moveto } bind def
/l { lineto } bind def
/r { rlineto } bind def
/c { curveto } bind def
/cl { closepath } bind def
/box {
m
1 index 0 r
0 exch r
neg 0 r
cl
} bind def
/clipbox {
box
clip
newpath
} bind def
%!PS-Adobe-3.0 Resource-Font
%%Title: DejaVu Sans
%%Copyright: Copyright (c) 2003 by Bitstream, Inc. All Rights Reserved. Copyright (c) 2006 by Tavmjong Bah. All Rights Reserved. DejaVu changes are in public domain 
%%Creator: Converted from TrueType to type 3 by PPR
25 dict begin
/_d{bind def}bind def
/_m{moveto}_d
/_l{lineto}_d
/_cl{closepath eofill}_d
/_c{curveto}_d
/_sc{7 -1 roll{setcachedevice}{pop pop pop pop pop pop}ifelse}_d
/_e{exec}_d
/FontName /DejaVuSans def
/PaintType 0 def
/FontMatrix[.001 0 0 .001 0 0]def
/FontBBox[-1021 -463 1793 1232]def
/FontType 3 def
/Encoding [ /space /period /zero /one /two /three /four /five /six /seven /eight /B /C /D /E /F /N /O /P /a /b /c /d /e /f /h /i /l /m /n /o /p /r /s /t /u /v /w /x /y ] def
/FontInfo 10 dict dup begin
/FamilyName (DejaVu Sans) def
/FullName (DejaVu Sans) def
/Notice (Copyright (c) 2003 by Bitstream, Inc. All Rights Reserved. Copyright (c) 2006 by Tavmjong Bah. All Rights Reserved. DejaVu changes are in public domain ) def
/Weight (Book) def
/Version (Version 2.35) def
/ItalicAngle 0.0 def
/isFixedPitch false def
/UnderlinePosition -130 def
/UnderlineThickness 90 def
end readonly def
/CharStrings 41 dict dup begin
/.notdef 0 def
/space{318 0 0 0 0 0 _sc
}_d
/period{318 0 107 0 210 124 _sc
107 124 _m
210 124 _l
210 0 _l
107 0 _l
107 124 _l
_cl}_d
/zero{636 0 66 -13 570 742 _sc
318 664 _m
267 664 229 639 203 589 _c
177 539 165 464 165 364 _c
165 264 177 189 203 139 _c
229 89 267 64 318 64 _c
369 64 407 89 433 139 _c
458 189 471 264 471 364 _c
471 464 458 539 433 589 _c
407 639 369 664 318 664 _c
318 742 _m
399 742 461 709 505 645 _c
548 580 570 486 570 364 _c
570 241 548 147 505 83 _c
461 19 399 -13 318 -13 _c
236 -13 173 19 130 83 _c
87 147 66 241 66 364 _c
66 486 87 580 130 645 _c
173 709 236 742 318 742 _c
_cl}_d
/one{636 0 110 0 544 729 _sc
124 83 _m
285 83 _l
285 639 _l
110 604 _l
110 694 _l
284 729 _l
383 729 _l
383 83 _l
544 83 _l
544 0 _l
124 0 _l
124 83 _l
_cl}_d
/two{{636 0 73 0 536 742 _sc
192 83 _m
536 83 _l
536 0 _l
73 0 _l
73 83 _l
110 121 161 173 226 239 _c
290 304 331 346 348 365 _c
380 400 402 430 414 455 _c
426 479 433 504 433 528 _c
433 566 419 598 392 622 _c
365 646 330 659 286 659 _c
255 659 222 653 188 643 _c
154 632 117 616 78 594 _c
78 694 _l
118 710 155 722 189 730 _c
223 738 255 742 284 742 _c
}_e{359 742 419 723 464 685 _c
509 647 532 597 532 534 _c
532 504 526 475 515 449 _c
504 422 484 390 454 354 _c
446 344 420 317 376 272 _c
332 227 271 164 192 83 _c
_cl}_e}_d
/three{{636 0 76 -13 556 742 _sc
406 393 _m
453 383 490 362 516 330 _c
542 298 556 258 556 212 _c
556 140 531 84 482 45 _c
432 6 362 -13 271 -13 _c
240 -13 208 -10 176 -4 _c
144 1 110 10 76 22 _c
76 117 _l
103 101 133 89 166 81 _c
198 73 232 69 268 69 _c
330 69 377 81 409 105 _c
441 129 458 165 458 212 _c
458 254 443 288 413 312 _c
383 336 341 349 287 349 _c
}_e{202 349 _l
202 430 _l
291 430 _l
339 430 376 439 402 459 _c
428 478 441 506 441 543 _c
441 580 427 609 401 629 _c
374 649 336 659 287 659 _c
260 659 231 656 200 650 _c
169 644 135 635 98 623 _c
98 711 _l
135 721 170 729 203 734 _c
235 739 266 742 296 742 _c
370 742 429 725 473 691 _c
517 657 539 611 539 553 _c
539 513 527 479 504 451 _c
481 423 448 403 406 393 _c
_cl}_e}_d
/four{636 0 49 0 580 729 _sc
378 643 _m
129 254 _l
378 254 _l
378 643 _l
352 729 _m
476 729 _l
476 254 _l
580 254 _l
580 172 _l
476 172 _l
476 0 _l
378 0 _l
378 172 _l
49 172 _l
49 267 _l
352 729 _l
_cl}_d
/five{{636 0 77 -13 549 729 _sc
108 729 _m
495 729 _l
495 646 _l
198 646 _l
198 467 _l
212 472 227 476 241 478 _c
255 480 270 482 284 482 _c
365 482 429 459 477 415 _c
525 370 549 310 549 234 _c
549 155 524 94 475 51 _c
426 8 357 -13 269 -13 _c
238 -13 207 -10 175 -6 _c
143 -1 111 6 77 17 _c
77 116 _l
106 100 136 88 168 80 _c
199 72 232 69 267 69 _c
}_e{323 69 368 83 401 113 _c
433 143 450 183 450 234 _c
450 284 433 324 401 354 _c
368 384 323 399 267 399 _c
241 399 214 396 188 390 _c
162 384 135 375 108 363 _c
108 729 _l
_cl}_e}_d
/six{{636 0 70 -13 573 742 _sc
330 404 _m
286 404 251 388 225 358 _c
199 328 186 286 186 234 _c
186 181 199 139 225 109 _c
251 79 286 64 330 64 _c
374 64 409 79 435 109 _c
461 139 474 181 474 234 _c
474 286 461 328 435 358 _c
409 388 374 404 330 404 _c
526 713 _m
526 623 _l
501 635 476 644 451 650 _c
425 656 400 659 376 659 _c
310 659 260 637 226 593 _c
}_e{192 549 172 482 168 394 _c
187 422 211 444 240 459 _c
269 474 301 482 336 482 _c
409 482 467 459 509 415 _c
551 371 573 310 573 234 _c
573 159 550 99 506 54 _c
462 9 403 -13 330 -13 _c
246 -13 181 19 137 83 _c
92 147 70 241 70 364 _c
70 479 97 571 152 639 _c
206 707 280 742 372 742 _c
396 742 421 739 447 735 _c
472 730 498 723 526 713 _c
_cl}_e}_d
/seven{636 0 82 0 551 729 _sc
82 729 _m
551 729 _l
551 687 _l
286 0 _l
183 0 _l
432 646 _l
82 646 _l
82 729 _l
_cl}_d
/eight{{636 0 68 -13 568 742 _sc
318 346 _m
271 346 234 333 207 308 _c
180 283 167 249 167 205 _c
167 161 180 126 207 101 _c
234 76 271 64 318 64 _c
364 64 401 76 428 102 _c
455 127 469 161 469 205 _c
469 249 455 283 429 308 _c
402 333 365 346 318 346 _c
219 388 _m
177 398 144 418 120 447 _c
96 476 85 511 85 553 _c
85 611 105 657 147 691 _c
188 725 245 742 318 742 _c
}_e{390 742 447 725 489 691 _c
530 657 551 611 551 553 _c
551 511 539 476 515 447 _c
491 418 459 398 417 388 _c
464 377 501 355 528 323 _c
554 291 568 251 568 205 _c
568 134 546 80 503 43 _c
459 5 398 -13 318 -13 _c
237 -13 175 5 132 43 _c
89 80 68 134 68 205 _c
68 251 81 291 108 323 _c
134 355 171 377 219 388 _c
183 544 _m
183 506 194 476 218 455 _c
}_e{242 434 275 424 318 424 _c
360 424 393 434 417 455 _c
441 476 453 506 453 544 _c
453 582 441 611 417 632 _c
393 653 360 664 318 664 _c
275 664 242 653 218 632 _c
194 611 183 582 183 544 _c
_cl}_e}_d
/B{{686 0 98 0 615 729 _sc
197 348 _m
197 81 _l
355 81 _l
408 81 447 92 473 114 _c
498 136 511 169 511 215 _c
511 260 498 293 473 315 _c
447 337 408 348 355 348 _c
197 348 _l
197 648 _m
197 428 _l
343 428 _l
391 428 426 437 450 455 _c
474 473 486 500 486 538 _c
486 574 474 602 450 620 _c
426 638 391 648 343 648 _c
197 648 _l
98 729 _m
350 729 _l
}_e{425 729 483 713 524 682 _c
564 650 585 606 585 549 _c
585 504 574 468 553 442 _c
532 416 502 399 462 393 _c
510 382 548 360 575 327 _c
601 294 615 253 615 204 _c
615 138 592 88 548 53 _c
504 17 441 0 360 0 _c
98 0 _l
98 729 _l
_cl}_e}_d
/C{{698 0 56 -13 644 742 _sc
644 673 _m
644 569 _l
610 599 575 622 537 638 _c
499 653 460 661 418 661 _c
334 661 270 635 226 584 _c
182 533 160 460 160 364 _c
160 268 182 194 226 143 _c
270 92 334 67 418 67 _c
460 67 499 74 537 90 _c
575 105 610 128 644 159 _c
644 56 _l
609 32 572 15 534 4 _c
496 -7 455 -13 412 -13 _c
302 -13 215 20 151 87 _c
}_e{87 154 56 246 56 364 _c
56 481 87 573 151 641 _c
215 708 302 742 412 742 _c
456 742 497 736 535 725 _c
573 713 610 696 644 673 _c
_cl}_e}_d
/D{770 0 98 0 711 729 _sc
197 648 _m
197 81 _l
316 81 _l
416 81 490 103 537 149 _c
583 195 607 267 607 365 _c
607 463 583 534 537 580 _c
490 625 416 648 316 648 _c
197 648 _l
98 729 _m
301 729 _l
442 729 546 699 612 641 _c
678 582 711 490 711 365 _c
711 239 677 147 611 88 _c
545 29 441 0 301 0 _c
98 0 _l
98 729 _l
_cl}_d
/E{632 0 98 0 568 729 _sc
98 729 _m
559 729 _l
559 646 _l
197 646 _l
197 430 _l
544 430 _l
544 347 _l
197 347 _l
197 83 _l
568 83 _l
568 0 _l
98 0 _l
98 729 _l
_cl}_d
/F{575 0 98 0 517 729 _sc
98 729 _m
517 729 _l
517 646 _l
197 646 _l
197 431 _l
486 431 _l
486 348 _l
197 348 _l
197 0 _l
98 0 _l
98 729 _l
_cl}_d
/N{748 0 98 0 650 729 _sc
98 729 _m
231 729 _l
554 119 _l
554 729 _l
650 729 _l
650 0 _l
517 0 _l
194 610 _l
194 0 _l
98 0 _l
98 729 _l
_cl}_d
/O{787 0 56 -13 731 742 _sc
394 662 _m
322 662 265 635 223 582 _c
181 528 160 456 160 364 _c
160 272 181 199 223 146 _c
265 92 322 66 394 66 _c
465 66 522 92 564 146 _c
606 199 627 272 627 364 _c
627 456 606 528 564 582 _c
522 635 465 662 394 662 _c
394 742 _m
496 742 577 707 639 639 _c
700 571 731 479 731 364 _c
731 248 700 157 639 89 _c
577 21 496 -13 394 -13 _c
291 -13 209 21 148 89 _c
86 157 56 248 56 364 _c
56 479 86 571 148 639 _c
209 707 291 742 394 742 _c
_cl}_d
/P{603 0 98 0 569 729 _sc
197 648 _m
197 374 _l
321 374 _l
367 374 402 385 427 409 _c
452 433 465 467 465 511 _c
465 555 452 588 427 612 _c
402 636 367 648 321 648 _c
197 648 _l
98 729 _m
321 729 _l
402 729 464 710 506 673 _c
548 636 569 582 569 511 _c
569 439 548 384 506 348 _c
464 311 402 293 321 293 _c
197 293 _l
197 0 _l
98 0 _l
98 729 _l
_cl}_d
/a{{613 0 60 -13 522 560 _sc
343 275 _m
270 275 220 266 192 250 _c
164 233 150 205 150 165 _c
150 133 160 107 181 89 _c
202 70 231 61 267 61 _c
317 61 357 78 387 114 _c
417 149 432 196 432 255 _c
432 275 _l
343 275 _l
522 312 _m
522 0 _l
432 0 _l
432 83 _l
411 49 385 25 355 10 _c
325 -5 287 -13 243 -13 _c
187 -13 142 2 109 33 _c
76 64 60 106 60 159 _c
}_e{60 220 80 266 122 298 _c
163 329 224 345 306 345 _c
432 345 _l
432 354 _l
432 395 418 427 391 450 _c
364 472 326 484 277 484 _c
245 484 215 480 185 472 _c
155 464 127 453 100 439 _c
100 522 _l
132 534 164 544 195 550 _c
226 556 256 560 286 560 _c
365 560 424 539 463 498 _c
502 457 522 395 522 312 _c
_cl}_e}_d
/b{{635 0 91 -13 580 760 _sc
487 273 _m
487 339 473 390 446 428 _c
418 466 381 485 334 485 _c
286 485 249 466 222 428 _c
194 390 181 339 181 273 _c
181 207 194 155 222 117 _c
249 79 286 61 334 61 _c
381 61 418 79 446 117 _c
473 155 487 207 487 273 _c
181 464 _m
199 496 223 520 252 536 _c
281 552 316 560 356 560 _c
422 560 476 533 518 481 _c
559 428 580 359 580 273 _c
}_e{580 187 559 117 518 65 _c
476 13 422 -13 356 -13 _c
316 -13 281 -5 252 10 _c
223 25 199 49 181 82 _c
181 0 _l
91 0 _l
91 760 _l
181 760 _l
181 464 _l
_cl}_e}_d
/c{{550 0 55 -13 488 560 _sc
488 526 _m
488 442 _l
462 456 437 466 411 473 _c
385 480 360 484 334 484 _c
276 484 230 465 198 428 _c
166 391 150 339 150 273 _c
150 206 166 154 198 117 _c
230 80 276 62 334 62 _c
360 62 385 65 411 72 _c
437 79 462 90 488 104 _c
488 21 _l
462 9 436 0 410 -5 _c
383 -10 354 -13 324 -13 _c
242 -13 176 12 128 64 _c
}_e{79 115 55 185 55 273 _c
55 362 79 432 128 483 _c
177 534 244 560 330 560 _c
358 560 385 557 411 551 _c
437 545 463 537 488 526 _c
_cl}_e}_d
/d{{635 0 55 -13 544 760 _sc
454 464 _m
454 760 _l
544 760 _l
544 0 _l
454 0 _l
454 82 _l
435 49 411 25 382 10 _c
353 -5 319 -13 279 -13 _c
213 -13 159 13 117 65 _c
75 117 55 187 55 273 _c
55 359 75 428 117 481 _c
159 533 213 560 279 560 _c
319 560 353 552 382 536 _c
411 520 435 496 454 464 _c
148 273 _m
148 207 161 155 188 117 _c
215 79 253 61 301 61 _c
}_e{348 61 385 79 413 117 _c
440 155 454 207 454 273 _c
454 339 440 390 413 428 _c
385 466 348 485 301 485 _c
253 485 215 466 188 428 _c
161 390 148 339 148 273 _c
_cl}_e}_d
/e{{615 0 55 -13 562 560 _sc
562 296 _m
562 252 _l
149 252 _l
153 190 171 142 205 110 _c
238 78 284 62 344 62 _c
378 62 412 66 444 74 _c
476 82 509 95 541 113 _c
541 28 _l
509 14 476 3 442 -3 _c
408 -9 373 -13 339 -13 _c
251 -13 182 12 131 62 _c
80 112 55 181 55 268 _c
55 357 79 428 127 481 _c
175 533 241 560 323 560 _c
397 560 455 536 498 489 _c
}_e{540 441 562 377 562 296 _c
472 322 _m
471 371 457 410 431 440 _c
404 469 368 484 324 484 _c
274 484 234 469 204 441 _c
174 413 156 373 152 322 _c
472 322 _l
_cl}_e}_d
/f{352 0 23 0 371 760 _sc
371 760 _m
371 685 _l
285 685 _l
253 685 230 678 218 665 _c
205 652 199 629 199 595 _c
199 547 _l
347 547 _l
347 477 _l
199 477 _l
199 0 _l
109 0 _l
109 477 _l
23 477 _l
23 547 _l
109 547 _l
109 585 _l
109 645 123 690 151 718 _c
179 746 224 760 286 760 _c
371 760 _l
_cl}_d
/h{634 0 91 0 549 760 _sc
549 330 _m
549 0 _l
459 0 _l
459 327 _l
459 379 448 417 428 443 _c
408 469 378 482 338 482 _c
289 482 251 466 223 435 _c
195 404 181 362 181 309 _c
181 0 _l
91 0 _l
91 760 _l
181 760 _l
181 462 _l
202 494 227 519 257 535 _c
286 551 320 560 358 560 _c
420 560 468 540 500 501 _c
532 462 549 405 549 330 _c
_cl}_d
/i{278 0 94 0 184 760 _sc
94 547 _m
184 547 _l
184 0 _l
94 0 _l
94 547 _l
94 760 _m
184 760 _l
184 646 _l
94 646 _l
94 760 _l
_cl}_d
/l{278 0 94 0 184 760 _sc
94 760 _m
184 760 _l
184 0 _l
94 0 _l
94 760 _l
_cl}_d
/m{{974 0 91 0 889 560 _sc
520 442 _m
542 482 569 511 600 531 _c
631 550 668 560 711 560 _c
767 560 811 540 842 500 _c
873 460 889 403 889 330 _c
889 0 _l
799 0 _l
799 327 _l
799 379 789 418 771 444 _c
752 469 724 482 686 482 _c
639 482 602 466 575 435 _c
548 404 535 362 535 309 _c
535 0 _l
445 0 _l
445 327 _l
445 379 435 418 417 444 _c
398 469 369 482 331 482 _c
}_e{285 482 248 466 221 435 _c
194 404 181 362 181 309 _c
181 0 _l
91 0 _l
91 547 _l
181 547 _l
181 462 _l
201 495 226 520 255 536 _c
283 552 317 560 357 560 _c
397 560 430 550 458 530 _c
486 510 506 480 520 442 _c
_cl}_e}_d
/n{634 0 91 0 549 560 _sc
549 330 _m
549 0 _l
459 0 _l
459 327 _l
459 379 448 417 428 443 _c
408 469 378 482 338 482 _c
289 482 251 466 223 435 _c
195 404 181 362 181 309 _c
181 0 _l
91 0 _l
91 547 _l
181 547 _l
181 462 _l
202 494 227 519 257 535 _c
286 551 320 560 358 560 _c
420 560 468 540 500 501 _c
532 462 549 405 549 330 _c
_cl}_d
/o{612 0 55 -13 557 560 _sc
306 484 _m
258 484 220 465 192 427 _c
164 389 150 338 150 273 _c
150 207 163 156 191 118 _c
219 80 257 62 306 62 _c
354 62 392 80 420 118 _c
448 156 462 207 462 273 _c
462 337 448 389 420 427 _c
392 465 354 484 306 484 _c
306 560 _m
384 560 445 534 490 484 _c
534 433 557 363 557 273 _c
557 183 534 113 490 63 _c
445 12 384 -13 306 -13 _c
227 -13 165 12 121 63 _c
77 113 55 183 55 273 _c
55 363 77 433 121 484 _c
165 534 227 560 306 560 _c
_cl}_d
/p{{635 0 91 -207 580 560 _sc
181 82 _m
181 -207 _l
91 -207 _l
91 547 _l
181 547 _l
181 464 _l
199 496 223 520 252 536 _c
281 552 316 560 356 560 _c
422 560 476 533 518 481 _c
559 428 580 359 580 273 _c
580 187 559 117 518 65 _c
476 13 422 -13 356 -13 _c
316 -13 281 -5 252 10 _c
223 25 199 49 181 82 _c
487 273 _m
487 339 473 390 446 428 _c
418 466 381 485 334 485 _c
}_e{286 485 249 466 222 428 _c
194 390 181 339 181 273 _c
181 207 194 155 222 117 _c
249 79 286 61 334 61 _c
381 61 418 79 446 117 _c
473 155 487 207 487 273 _c
_cl}_e}_d
/r{411 0 91 0 411 560 _sc
411 463 _m
401 469 390 473 378 476 _c
366 478 353 480 339 480 _c
288 480 249 463 222 430 _c
194 397 181 350 181 288 _c
181 0 _l
91 0 _l
91 547 _l
181 547 _l
181 462 _l
199 495 224 520 254 536 _c
284 552 321 560 365 560 _c
371 560 378 559 386 559 _c
393 558 401 557 411 555 _c
411 463 _l
_cl}_d
/s{{521 0 54 -13 472 560 _sc
443 531 _m
443 446 _l
417 458 391 468 364 475 _c
336 481 308 485 279 485 _c
234 485 200 478 178 464 _c
156 450 145 430 145 403 _c
145 382 153 366 169 354 _c
185 342 217 330 265 320 _c
296 313 _l
360 299 405 279 432 255 _c
458 230 472 195 472 151 _c
472 100 452 60 412 31 _c
372 1 316 -13 246 -13 _c
216 -13 186 -10 154 -5 _c
}_e{122 0 89 8 54 20 _c
54 113 _l
87 95 120 82 152 74 _c
184 65 216 61 248 61 _c
290 61 323 68 346 82 _c
368 96 380 117 380 144 _c
380 168 371 187 355 200 _c
339 213 303 226 247 238 _c
216 245 _l
160 257 119 275 95 299 _c
70 323 58 356 58 399 _c
58 450 76 490 112 518 _c
148 546 200 560 268 560 _c
301 560 332 557 362 552 _c
391 547 418 540 443 531 _c
}_e{_cl}_e}_d
/t{392 0 27 0 368 702 _sc
183 702 _m
183 547 _l
368 547 _l
368 477 _l
183 477 _l
183 180 _l
183 135 189 106 201 94 _c
213 81 238 75 276 75 _c
368 75 _l
368 0 _l
276 0 _l
206 0 158 13 132 39 _c
106 65 93 112 93 180 _c
93 477 _l
27 477 _l
27 547 _l
93 547 _l
93 702 _l
183 702 _l
_cl}_d
/u{634 0 85 -13 543 560 _sc
85 216 _m
85 547 _l
175 547 _l
175 219 _l
175 167 185 129 205 103 _c
225 77 255 64 296 64 _c
344 64 383 79 411 110 _c
439 141 453 183 453 237 _c
453 547 _l
543 547 _l
543 0 _l
453 0 _l
453 84 _l
431 50 405 26 377 10 _c
348 -5 315 -13 277 -13 _c
214 -13 166 6 134 45 _c
101 83 85 140 85 216 _c
311 560 _m
311 560 _l
_cl}_d
/v{592 0 30 0 562 547 _sc
30 547 _m
125 547 _l
296 88 _l
467 547 _l
562 547 _l
357 0 _l
235 0 _l
30 547 _l
_cl}_d
/w{818 0 42 0 776 547 _sc
42 547 _m
132 547 _l
244 120 _l
356 547 _l
462 547 _l
574 120 _l
686 547 _l
776 547 _l
633 0 _l
527 0 _l
409 448 _l
291 0 _l
185 0 _l
42 547 _l
_cl}_d
/x{592 0 29 0 559 547 _sc
549 547 _m
351 281 _l
559 0 _l
453 0 _l
294 215 _l
135 0 _l
29 0 _l
241 286 _l
47 547 _l
153 547 _l
298 352 _l
443 547 _l
549 547 _l
_cl}_d
/y{592 0 30 -207 562 547 _sc
322 -50 _m
296 -114 271 -157 247 -177 _c
223 -197 191 -207 151 -207 _c
79 -207 _l
79 -132 _l
132 -132 _l
156 -132 175 -126 189 -114 _c
203 -102 218 -75 235 -31 _c
251 9 _l
30 547 _l
125 547 _l
296 119 _l
467 547 _l
562 547 _l
322 -50 _l
_cl}_d
end readonly def

/BuildGlyph
 {exch begin
 CharStrings exch
 2 copy known not{pop /.notdef}if
 true 3 1 roll get exec
 end}_d

/BuildChar {
 1 index /Encoding get exch get
 1 index /BuildGlyph get exec
}_d

FontName currentdict end definefont pop
end
%%EndProlog
mpldict begin
75.6 223.2 translate
460.8 345.6 0 0 clipbox
gsave
0 0 m
460.8 0 l
460.8 345.6 l
0 345.6 l
cl
1.000 setgray
fill
grestore
gsave
57.6 38.016 m
414.72 38.016 l
414.72 304.128 l
57.6 304.128 l
cl
0.898 setgray
fill
grestore
0.800 setlinewidth
1 setlinejoin
2 setlinecap
[] 0 setdash
1.000 setgray
gsave
357.1 266.1 57.6 38.02 clipbox
70.553388 38.016 m
70.553388 304.128 l
stroke
grestore
0 setlinecap
0.333 setgray
gsave
/o {
gsave
newpath
translate
0.8 setlinewidth
1 setlinejoin
0 setlinecap
0 0 m
0 -3.5 l

gsave
0.333 setgray
fill
grestore
stroke
grestore
} bind def
70.5534 38.016 o
grestore
/DejaVuSans findfont
10.000 scalefont
setfont
gsave
67.373701 23.422250 translate
0.000000 rotate
0.000000 0.000000 m /zero glyphshow
grestore
2 setlinecap
1.000 setgray
gsave
357.1 266.1 57.6 38.02 clipbox
136.140165 38.016 m
136.140165 304.128 l
stroke
grestore
0 setlinecap
0.333 setgray
gsave
/o {
gsave
newpath
translate
0.8 setlinewidth
1 setlinejoin
0 setlinecap
0 0 m
0 -3.5 l

gsave
0.333 setgray
fill
grestore
stroke
grestore
} bind def
136.14 38.016 o
grestore
gsave
129.780790 23.422250 translate
0.000000 rotate
0.000000 0.000000 m /two glyphshow
6.362305 0.000000 m /zero glyphshow
grestore
2 setlinecap
1.000 setgray
gsave
357.1 266.1 57.6 38.02 clipbox
201.726942 38.016 m
201.726942 304.128 l
stroke
grestore
0 setlinecap
0.333 setgray
gsave
/o {
gsave
newpath
translate
0.8 setlinewidth
1 setlinejoin
0 setlinecap
0 0 m
0 -3.5 l

gsave
0.333 setgray
fill
grestore
stroke
grestore
} bind def
201.727 38.016 o
grestore
gsave
195.367567 23.422250 translate
0.000000 rotate
0.000000 0.000000 m /four glyphshow
6.362305 0.000000 m /zero glyphshow
grestore
2 setlinecap
1.000 setgray
gsave
357.1 266.1 57.6 38.02 clipbox
267.313719 38.016 m
267.313719 304.128 l
stroke
grestore
0 setlinecap
0.333 setgray
gsave
/o {
gsave
newpath
translate
0.8 setlinewidth
1 setlinejoin
0 setlinecap
0 0 m
0 -3.5 l

gsave
0.333 setgray
fill
grestore
stroke
grestore
} bind def
267.314 38.016 o
grestore
gsave
260.954344 23.422250 translate
0.000000 rotate
0.000000 0.000000 m /six glyphshow
6.362305 0.000000 m /zero glyphshow
grestore
2 setlinecap
1.000 setgray
gsave
357.1 266.1 57.6 38.02 clipbox
332.900496 38.016 m
332.900496 304.128 l
stroke
grestore
0 setlinecap
0.333 setgray
gsave
/o {
gsave
newpath
translate
0.8 setlinewidth
1 setlinejoin
0 setlinecap
0 0 m
0 -3.5 l

gsave
0.333 setgray
fill
grestore
stroke
grestore
} bind def
332.9 38.016 o
grestore
gsave
326.541121 23.422250 translate
0.000000 rotate
0.000000 0.000000 m /eight glyphshow
6.362305 0.000000 m /zero glyphshow
grestore
2 setlinecap
1.000 setgray
gsave
357.1 266.1 57.6 38.02 clipbox
398.487273 38.016 m
398.487273 304.128 l
stroke
grestore
0 setlinecap
0.333 setgray
gsave
/o {
gsave
newpath
translate
0.8 setlinewidth
1 setlinejoin
0 setlinecap
0 0 m
0 -3.5 l

gsave
0.333 setgray
fill
grestore
stroke
grestore
} bind def
398.487 38.016 o
grestore
gsave
388.948210 23.422250 translate
0.000000 rotate
0.000000 0.000000 m /one glyphshow
6.362305 0.000000 m /zero glyphshow
12.724609 0.000000 m /zero glyphshow
grestore
/DejaVuSans findfont
16.000 scalefont
setfont
gsave
164.683437 5.187875 translate
0.000000 rotate
0.000000 0.000000 m /N glyphshow
11.968750 0.000000 m /u glyphshow
22.109375 0.000000 m /m glyphshow
37.695312 0.000000 m /b glyphshow
47.851562 0.000000 m /e glyphshow
57.695312 0.000000 m /r glyphshow
64.273438 0.000000 m /space glyphshow
69.359375 0.000000 m /o glyphshow
79.148438 0.000000 m /f glyphshow
84.781250 0.000000 m /space glyphshow
89.867188 0.000000 m /m glyphshow
105.453125 0.000000 m /o glyphshow
115.242188 0.000000 m /v glyphshow
124.710938 0.000000 m /e glyphshow
134.554688 0.000000 m /s glyphshow
grestore
2 setlinecap
1.000 setgray
gsave
357.1 266.1 57.6 38.02 clipbox
57.6 50.112 m
414.72 50.112 l
stroke
grestore
0 setlinecap
0.333 setgray
gsave
/o {
gsave
newpath
translate
0.8 setlinewidth
1 setlinejoin
0 setlinecap
0 0 m
-3.5 0 l

gsave
0.333 setgray
fill
grestore
stroke
grestore
} bind def
57.6 50.112 o
grestore
/DejaVuSans findfont
10.000 scalefont
setfont
gsave
28.334375 46.315125 translate
0.000000 rotate
0.000000 0.000000 m /zero glyphshow
6.362305 0.000000 m /period glyphshow
9.541016 0.000000 m /zero glyphshow
15.903320 0.000000 m /zero glyphshow
grestore
2 setlinecap
1.000 setgray
gsave
357.1 266.1 57.6 38.02 clipbox
57.6 80.499827 m
414.72 80.499827 l
stroke
grestore
0 setlinecap
0.333 setgray
gsave
/o {
gsave
newpath
translate
0.8 setlinewidth
1 setlinejoin
0 setlinecap
0 0 m
-3.5 0 l

gsave
0.333 setgray
fill
grestore
stroke
grestore
} bind def
57.6 80.4998 o
grestore
gsave
28.334375 76.702952 translate
0.000000 rotate
0.000000 0.000000 m /zero glyphshow
6.362305 0.000000 m /period glyphshow
9.541016 0.000000 m /zero glyphshow
15.903320 0.000000 m /one glyphshow
grestore
2 setlinecap
1.000 setgray
gsave
357.1 266.1 57.6 38.02 clipbox
57.6 110.887655 m
414.72 110.887655 l
stroke
grestore
0 setlinecap
0.333 setgray
gsave
/o {
gsave
newpath
translate
0.8 setlinewidth
1 setlinejoin
0 setlinecap
0 0 m
-3.5 0 l

gsave
0.333 setgray
fill
grestore
stroke
grestore
} bind def
57.6 110.888 o
grestore
gsave
28.334375 107.090780 translate
0.000000 rotate
0.000000 0.000000 m /zero glyphshow
6.362305 0.000000 m /period glyphshow
9.541016 0.000000 m /zero glyphshow
15.903320 0.000000 m /two glyphshow
grestore
2 setlinecap
1.000 setgray
gsave
357.1 266.1 57.6 38.02 clipbox
57.6 141.275482 m
414.72 141.275482 l
stroke
grestore
0 setlinecap
0.333 setgray
gsave
/o {
gsave
newpath
translate
0.8 setlinewidth
1 setlinejoin
0 setlinecap
0 0 m
-3.5 0 l

gsave
0.333 setgray
fill
grestore
stroke
grestore
} bind def
57.6 141.275 o
grestore
gsave
28.334375 137.478607 translate
0.000000 rotate
0.000000 0.000000 m /zero glyphshow
6.362305 0.000000 m /period glyphshow
9.541016 0.000000 m /zero glyphshow
15.903320 0.000000 m /three glyphshow
grestore
2 setlinecap
1.000 setgray
gsave
357.1 266.1 57.6 38.02 clipbox
57.6 171.66331 m
414.72 171.66331 l
stroke
grestore
0 setlinecap
0.333 setgray
gsave
/o {
gsave
newpath
translate
0.8 setlinewidth
1 setlinejoin
0 setlinecap
0 0 m
-3.5 0 l

gsave
0.333 setgray
fill
grestore
stroke
grestore
} bind def
57.6 171.663 o
grestore
gsave
28.334375 167.866435 translate
0.000000 rotate
0.000000 0.000000 m /zero glyphshow
6.362305 0.000000 m /period glyphshow
9.541016 0.000000 m /zero glyphshow
15.903320 0.000000 m /four glyphshow
grestore
2 setlinecap
1.000 setgray
gsave
357.1 266.1 57.6 38.02 clipbox
57.6 202.051137 m
414.72 202.051137 l
stroke
grestore
0 setlinecap
0.333 setgray
gsave
/o {
gsave
newpath
translate
0.8 setlinewidth
1 setlinejoin
0 setlinecap
0 0 m
-3.5 0 l

gsave
0.333 setgray
fill
grestore
stroke
grestore
} bind def
57.6 202.051 o
grestore
gsave
28.334375 198.254262 translate
0.000000 rotate
0.000000 0.000000 m /zero glyphshow
6.362305 0.000000 m /period glyphshow
9.541016 0.000000 m /zero glyphshow
15.903320 0.000000 m /five glyphshow
grestore
2 setlinecap
1.000 setgray
gsave
357.1 266.1 57.6 38.02 clipbox
57.6 232.438965 m
414.72 232.438965 l
stroke
grestore
0 setlinecap
0.333 setgray
gsave
/o {
gsave
newpath
translate
0.8 setlinewidth
1 setlinejoin
0 setlinecap
0 0 m
-3.5 0 l

gsave
0.333 setgray
fill
grestore
stroke
grestore
} bind def
57.6 232.439 o
grestore
gsave
28.334375 228.642090 translate
0.000000 rotate
0.000000 0.000000 m /zero glyphshow
6.362305 0.000000 m /period glyphshow
9.541016 0.000000 m /zero glyphshow
15.903320 0.000000 m /six glyphshow
grestore
2 setlinecap
1.000 setgray
gsave
357.1 266.1 57.6 38.02 clipbox
57.6 262.826792 m
414.72 262.826792 l
stroke
grestore
0 setlinecap
0.333 setgray
gsave
/o {
gsave
newpath
translate
0.8 setlinewidth
1 setlinejoin
0 setlinecap
0 0 m
-3.5 0 l

gsave
0.333 setgray
fill
grestore
stroke
grestore
} bind def
57.6 262.827 o
grestore
gsave
28.334375 259.029917 translate
0.000000 rotate
0.000000 0.000000 m /zero glyphshow
6.362305 0.000000 m /period glyphshow
9.541016 0.000000 m /zero glyphshow
15.903320 0.000000 m /seven glyphshow
grestore
2 setlinecap
1.000 setgray
gsave
357.1 266.1 57.6 38.02 clipbox
57.6 293.21462 m
414.72 293.21462 l
stroke
grestore
0 setlinecap
0.333 setgray
gsave
/o {
gsave
newpath
translate
0.8 setlinewidth
1 setlinejoin
0 setlinecap
0 0 m
-3.5 0 l

gsave
0.333 setgray
fill
grestore
stroke
grestore
} bind def
57.6 293.215 o
grestore
gsave
28.334375 289.417745 translate
0.000000 rotate
0.000000 0.000000 m /zero glyphshow
6.362305 0.000000 m /period glyphshow
9.541016 0.000000 m /zero glyphshow
15.903320 0.000000 m /eight glyphshow
grestore
/DejaVuSans findfont
16.000 scalefont
setfont
gsave
21.006250 61.306375 translate
90.000000 rotate
0.000000 0.000000 m /P glyphshow
9.648438 0.000000 m /r glyphshow
16.226562 0.000000 m /o glyphshow
26.015625 0.000000 m /b glyphshow
36.171875 0.000000 m /a glyphshow
45.976562 0.000000 m /b glyphshow
56.132812 0.000000 m /i glyphshow
60.578125 0.000000 m /l glyphshow
65.023438 0.000000 m /i glyphshow
69.468750 0.000000 m /t glyphshow
75.742188 0.000000 m /y glyphshow
85.210938 0.000000 m /space glyphshow
90.296875 0.000000 m /d glyphshow
100.453125 0.000000 m /e glyphshow
110.296875 0.000000 m /n glyphshow
120.437500 0.000000 m /s glyphshow
128.773438 0.000000 m /i glyphshow
133.218750 0.000000 m /t glyphshow
139.492188 0.000000 m /y glyphshow
148.960938 0.000000 m /space glyphshow
154.046875 0.000000 m /f glyphshow
159.679688 0.000000 m /u glyphshow
169.820312 0.000000 m /n glyphshow
179.960938 0.000000 m /c glyphshow
188.757812 0.000000 m /t glyphshow
195.031250 0.000000 m /i glyphshow
199.476562 0.000000 m /o glyphshow
209.265625 0.000000 m /n glyphshow
grestore
1.500 setlinewidth
2 setlinecap
0.000 0.000 1.000 setrgbcolor
gsave
357.1 266.1 57.6 38.02 clipbox
73.832727 50.112 m
77.112066 50.112 l
80.391405 50.112 l
83.670744 50.112 l
86.950083 50.112 l
90.229421 64.949806 l
93.50876 104.455466 l
96.788099 174.517733 l
100.067438 247.489601 l
103.346777 292.032 l
106.626116 289.532467 l
109.905455 252.911776 l
113.184793 211.81837 l
116.464132 184.242602 l
119.743471 171.134692 l
123.02281 164.388285 l
126.302149 156.90477 l
129.581488 147.068786 l
132.860826 136.500064 l
136.140165 126.842396 l
139.419504 118.7614 l
142.698843 112.280595 l
145.978182 107.216297 l
149.257521 103.381367 l
152.53686 100.594225 l
155.816198 98.569686 l
159.095537 96.86006 l
162.374876 94.982289 l
165.654215 92.646359 l
168.933554 89.877708 l
172.212893 86.941292 l
175.492231 84.152502 l
178.77157 81.715204 l
182.050909 79.663314 l
185.330248 77.899215 l
188.609587 76.27857 l
191.888926 74.687922 l
195.168264 73.082663 l
198.447603 71.481895 l
201.726942 69.937778 l
205.006281 68.501901 l
208.28562 67.203559 l
211.564959 66.043958 l
214.844298 65.002743 l
218.123636 64.050252 l
221.402975 63.159333 l
224.682314 62.312703 l
227.961653 61.504587 l
231.240992 60.737725 l
234.520331 60.018166 l
237.799669 59.350446 l
241.079008 58.734887 l
244.358347 58.167469 l
247.637686 57.641573 l
250.917025 57.150348 l
254.196364 56.688565 l
257.475702 56.253336 l
260.755041 55.84376 l
264.03438 55.459928 l
267.313719 55.101901 l
270.593058 54.769037 l
273.872397 54.45985 l
277.151736 54.172276 l
280.431074 53.904118 l
283.710413 53.653439 l
286.989752 53.418765 l
290.269091 53.199073 l
293.54843 52.993641 l
296.827769 52.801844 l
300.107107 52.623007 l
303.386446 52.456343 l
306.665785 52.300978 l
309.945124 52.156024 l
313.224463 52.020651 l
316.503802 51.894143 l
319.78314 51.775898 l
323.062479 51.66541 l
326.341818 51.562227 l
329.621157 51.465916 l
332.900496 51.376048 l
336.179835 51.292193 l
339.459174 51.213928 l
342.738512 51.140857 l
346.017851 51.072618 l
349.29719 51.008882 l
352.576529 50.949356 l
355.855868 50.893773 l
359.135207 50.841881 l
362.414545 50.793441 l
365.693884 50.748226 l
368.973223 50.706018 l
372.252562 50.666613 l
375.531901 50.62982 l
378.81124 50.595464 l
382.090579 50.563383 l
385.369917 50.533429 l
388.649256 50.505463 l
391.928595 50.479353 l
395.207934 50.454978 l
398.487273 50.432221 l
stroke
grestore
0 setlinecap
[5.55 2.4] 0 setdash
0.000 1.000 0.000 setrgbcolor
gsave
357.1 266.1 57.6 38.02 clipbox
73.832727 50.112 m
77.112066 50.112 l
80.391405 50.112 l
83.670744 50.112 l
86.950083 50.112 l
90.229421 57.530903 l
93.50876 78.303832 l
96.788099 114.053672 l
100.067438 156.90943 l
103.346777 193.818473 l
106.626116 213.658968 l
109.905455 216.645004 l
113.184793 210.125706 l
116.464132 200.987581 l
119.743471 192.457097 l
123.02281 184.533424 l
126.302149 176.288097 l
129.581488 167.396804 l
132.860826 158.15988 l
136.140165 149.045377 l
139.419504 140.433103 l
142.698843 132.568231 l
145.978182 125.590965 l
149.257521 119.569525 l
152.53686 114.500287 l
155.816198 110.277945 l
159.095537 106.688037 l
162.374876 103.463364 l
165.654215 100.379026 l
168.933554 97.321791 l
172.212893 94.29519 l
175.492231 91.371853 l
178.77157 88.631279 l
182.050909 86.116151 l
185.330248 83.820398 l
188.609587 81.703594 l
191.888926 79.716395 l
195.168264 77.821874 l
198.447603 76.00472 l
201.726942 74.268569 l
205.006281 72.62671 l
208.28562 71.092119 l
211.564959 69.670797 l
214.844298 68.359786 l
218.123636 67.149071 l
221.402975 66.025499 l
224.682314 64.976698 l
227.961653 63.993583 l
231.240992 63.070935 l
234.520331 62.206423 l
237.799669 61.398899 l
241.079008 60.646848 l
244.358347 59.94756 l
247.637686 59.297139 l
250.917025 58.691096 l
254.196364 58.125097 l
257.475702 57.595528 l
260.755041 57.099686 l
264.03438 56.635629 l
267.313719 56.201837 l
270.593058 55.796877 l
273.872397 55.419182 l
277.151736 55.067009 l
280.431074 54.738514 l
283.710413 54.431893 l
286.989752 54.145502 l
290.269091 53.87791 l
293.54843 53.627892 l
296.827769 53.394374 l
300.107107 53.176364 l
303.386446 52.972906 l
306.665785 52.783054 l
309.945124 52.605881 l
313.224463 52.440498 l
316.503802 52.286078 l
319.78314 52.141868 l
323.062479 52.007185 l
326.341818 51.881411 l
329.621157 51.763974 l
332.900496 51.654338 l
336.179835 51.551993 l
339.459174 51.456453 l
342.738512 51.367261 l
346.017851 51.283986 l
349.29719 51.20623 l
352.576529 51.133626 l
355.855868 51.065833 l
359.135207 51.002536 l
362.414545 50.94344 l
365.693884 50.888268 l
368.973223 50.83676 l
372.252562 50.788673 l
375.531901 50.743776 l
378.81124 50.701858 l
382.090579 50.662721 l
385.369917 50.626178 l
388.649256 50.59206 l
391.928595 50.560206 l
395.207934 50.530465 l
398.487273 50.502699 l
stroke
grestore
[9.6 2.4 1.5 2.4] 0 setdash
1.000 0.078 0.576 setrgbcolor
gsave
357.1 266.1 57.6 38.02 clipbox
73.832727 50.112 m
77.112066 50.112 l
80.391405 50.112 l
83.670744 50.112 l
86.950083 50.112 l
90.229421 57.530903 l
93.50876 78.303832 l
96.788099 114.053672 l
100.067438 156.90943 l
103.346777 193.818473 l
106.626116 213.658968 l
109.905455 216.645004 l
113.184793 210.125706 l
116.464132 200.987581 l
119.743471 192.457097 l
123.02281 184.533424 l
126.302149 176.288097 l
129.581488 167.396804 l
132.860826 158.15988 l
136.140165 149.045377 l
139.419504 140.433103 l
142.698843 132.568231 l
145.978182 125.590965 l
149.257521 119.569525 l
152.53686 114.500287 l
155.816198 110.277945 l
159.095537 106.688037 l
162.374876 103.463364 l
165.654215 100.379026 l
168.933554 97.321791 l
172.212893 94.29519 l
175.492231 91.371853 l
178.77157 88.631279 l
182.050909 86.116151 l
185.330248 83.820398 l
188.609587 81.703594 l
191.888926 79.716395 l
195.168264 77.821874 l
198.447603 76.00472 l
201.726942 74.268569 l
205.006281 72.62671 l
208.28562 71.092119 l
211.564959 69.670797 l
214.844298 68.359786 l
218.123636 67.149071 l
221.402975 66.025499 l
224.682314 64.976698 l
227.961653 63.993583 l
231.240992 63.070935 l
234.520331 62.206423 l
237.799669 61.398899 l
241.079008 60.646848 l
244.358347 59.94756 l
247.637686 59.297139 l
250.917025 58.691096 l
254.196364 58.125097 l
257.475702 57.595528 l
260.755041 57.099686 l
264.03438 56.635629 l
267.313719 56.201837 l
270.593058 55.796877 l
273.872397 55.419182 l
277.151736 55.067009 l
280.431074 54.738514 l
283.710413 54.431893 l
286.989752 54.145502 l
290.269091 53.87791 l
293.54843 53.627892 l
296.827769 53.394374 l
300.107107 53.176364 l
303.386446 52.972906 l
306.665785 52.783054 l
309.945124 52.605881 l
313.224463 52.440498 l
316.503802 52.286078 l
319.78314 52.141868 l
323.062479 52.007185 l
326.341818 51.881411 l
329.621157 51.763974 l
332.900496 51.654338 l
336.179835 51.551993 l
339.459174 51.456453 l
342.738512 51.367261 l
346.017851 51.283986 l
349.29719 51.20623 l
352.576529 51.133626 l
355.855868 51.065833 l
359.135207 51.002536 l
362.414545 50.94344 l
365.693884 50.888268 l
368.973223 50.83676 l
372.252562 50.788673 l
375.531901 50.743776 l
378.81124 50.701858 l
382.090579 50.662721 l
385.369917 50.626178 l
388.649256 50.59206 l
391.928595 50.560206 l
395.207934 50.530465 l
398.487273 50.502699 l
stroke
grestore
1.000 setlinewidth
0 setlinejoin
2 setlinecap
[] 0 setdash
0.000 setgray
gsave
57.6 38.016 m
57.6 304.128 l
stroke
grestore
gsave
414.72 38.016 m
414.72 304.128 l
stroke
grestore
gsave
57.6 38.016 m
414.72 38.016 l
stroke
grestore
gsave
57.6 304.128 m
414.72 304.128 l
stroke
grestore
/DejaVuSans findfont
18.000 scalefont
setfont
gsave
112.550625 330.284250 translate
0.000000 rotate
0.000000 0.000000 m /C glyphshow
12.568359 0.000000 m /o glyphshow
23.581055 0.000000 m /m glyphshow
41.115234 0.000000 m /p glyphshow
52.541016 0.000000 m /a glyphshow
63.571289 0.000000 m /r glyphshow
70.971680 0.000000 m /i glyphshow
75.972656 0.000000 m /s glyphshow
85.350586 0.000000 m /o glyphshow
96.363281 0.000000 m /n glyphshow
107.771484 0.000000 m /space glyphshow
113.493164 0.000000 m /b glyphshow
124.918945 0.000000 m /e glyphshow
135.993164 0.000000 m /t glyphshow
143.050781 0.000000 m /w glyphshow
157.772461 0.000000 m /e glyphshow
168.846680 0.000000 m /e glyphshow
179.920898 0.000000 m /n glyphshow
191.329102 0.000000 m /space glyphshow
197.050781 0.000000 m /P glyphshow
207.905273 0.000000 m /D glyphshow
221.765625 0.000000 m /F glyphshow
232.119141 0.000000 m /s glyphshow
241.497070 0.000000 m /space glyphshow
grestore
gsave
134.933437 310.128000 translate
0.000000 rotate
0.000000 0.000000 m /f glyphshow
6.336914 0.000000 m /o glyphshow
17.349609 0.000000 m /r glyphshow
24.750000 0.000000 m /space glyphshow
30.471680 0.000000 m /e glyphshow
41.545898 0.000000 m /a glyphshow
52.576172 0.000000 m /c glyphshow
62.472656 0.000000 m /h glyphshow
73.880859 0.000000 m /space glyphshow
79.602539 0.000000 m /e glyphshow
90.676758 0.000000 m /n glyphshow
102.084961 0.000000 m /d glyphshow
113.510742 0.000000 m /space glyphshow
119.232422 0.000000 m /c glyphshow
129.128906 0.000000 m /o glyphshow
140.141602 0.000000 m /n glyphshow
151.549805 0.000000 m /d glyphshow
162.975586 0.000000 m /i glyphshow
167.976562 0.000000 m /t glyphshow
175.034180 0.000000 m /i glyphshow
180.035156 0.000000 m /o glyphshow
191.047852 0.000000 m /n glyphshow
grestore
0.500 setlinewidth
0 setlinecap
0.800 setgray
gsave
307.885625 231.287375 m
404.92 231.287375 l
406.786667 231.287375 407.72 232.220708 407.72 234.087375 c
407.72 294.328 l
407.72 296.194667 406.786667 297.128 404.92 297.128 c
307.885625 297.128 l
306.018958 297.128 305.085625 296.194667 305.085625 294.328 c
305.085625 234.087375 l
305.085625 232.220708 306.018958 231.287375 307.885625 231.287375 c
cl
gsave
0.898 setgray
fill
grestore
stroke
grestore
1.500 setlinewidth
1 setlinejoin
2 setlinecap
[] 0 setdash
0.000 0.000 1.000 setrgbcolor
gsave
310.685625 285.787375 m
338.685625 285.787375 l
stroke
grestore
0.000 setgray
/DejaVuSans findfont
14.000 scalefont
setfont
gsave
349.885625 280.887375 translate
0.000000 rotate
0.000000 0.000000 m /O glyphshow
11.019531 0.000000 m /v glyphshow
19.304688 0.000000 m /e glyphshow
27.917969 0.000000 m /r glyphshow
grestore
0 setlinecap
[5.55 2.4] 0 setdash
0.000 1.000 0.000 setrgbcolor
gsave
310.685625 265.2405 m
338.685625 265.2405 l
stroke
grestore
0.000 setgray
gsave
349.885625 260.340500 translate
0.000000 rotate
0.000000 0.000000 m /B glyphshow
9.604492 0.000000 m /o glyphshow
18.169922 0.000000 m /u glyphshow
27.042969 0.000000 m /n glyphshow
35.916016 0.000000 m /c glyphshow
43.613281 0.000000 m /e glyphshow
grestore
[9.6 2.4 1.5 2.4] 0 setdash
1.000 0.078 0.576 setrgbcolor
gsave
310.685625 244.693625 m
338.685625 244.693625 l
stroke
grestore
0.000 setgray
gsave
349.885625 239.793625 translate
0.000000 rotate
0.000000 0.000000 m /E glyphshow
8.845703 0.000000 m /x glyphshow
17.130859 0.000000 m /a glyphshow
25.709961 0.000000 m /c glyphshow
33.407227 0.000000 m /t glyphshow
grestore

end
showpage
