%!PS-Adobe-3.0 EPSF-3.0
%%Title: Sample/Figures/cdfpdf.eps
%%Creator: matplotlib version 3.0.2, http://matplotlib.org/
%%CreationDate: Sat Jan  5 12:25:53 2019
%%Orientation: portrait
%%BoundingBox: 18 180 594 612
%%EndComments
%%BeginProlog
/mpldict 8 dict def
mpldict begin
/m { moveto } bind def
/l { lineto } bind def
/r { rlineto } bind def
/c { curveto } bind def
/cl { closepath } bind def
/box {
m
1 index 0 r
0 exch r
neg 0 r
cl
} bind def
/clipbox {
box
clip
newpath
} bind def
%!PS-Adobe-3.0 Resource-Font
%%Title: DejaVu Sans
%%Copyright: Copyright (c) 2003 by Bitstream, Inc. All Rights Reserved. Copyright (c) 2006 by Tavmjong Bah. All Rights Reserved. DejaVu changes are in public domain 
%%Creator: Converted from TrueType to type 3 by PPR
25 dict begin
/_d{bind def}bind def
/_m{moveto}_d
/_l{lineto}_d
/_cl{closepath eofill}_d
/_c{curveto}_d
/_sc{7 -1 roll{setcachedevice}{pop pop pop pop pop pop}ifelse}_d
/_e{exec}_d
/FontName /DejaVuSans def
/PaintType 0 def
/FontMatrix[.001 0 0 .001 0 0]def
/FontBBox[-1021 -463 1793 1232]def
/FontType 3 def
/Encoding [ /space /period /zero /one /two /three /four /five /six /seven /eight /C /D /F /N /P /a /b /d /e /f /g /h /i /l /m /n /o /p /r /s /t /u /v /y ] def
/FontInfo 10 dict dup begin
/FamilyName (DejaVu Sans) def
/FullName (DejaVu Sans) def
/Notice (Copyright (c) 2003 by Bitstream, Inc. All Rights Reserved. Copyright (c) 2006 by Tavmjong Bah. All Rights Reserved. DejaVu changes are in public domain ) def
/Weight (Book) def
/Version (Version 2.35) def
/ItalicAngle 0.0 def
/isFixedPitch false def
/UnderlinePosition -130 def
/UnderlineThickness 90 def
end readonly def
/CharStrings 36 dict dup begin
/.notdef 0 def
/space{318 0 0 0 0 0 _sc
}_d
/period{318 0 107 0 210 124 _sc
107 124 _m
210 124 _l
210 0 _l
107 0 _l
107 124 _l
_cl}_d
/zero{636 0 66 -13 570 742 _sc
318 664 _m
267 664 229 639 203 589 _c
177 539 165 464 165 364 _c
165 264 177 189 203 139 _c
229 89 267 64 318 64 _c
369 64 407 89 433 139 _c
458 189 471 264 471 364 _c
471 464 458 539 433 589 _c
407 639 369 664 318 664 _c
318 742 _m
399 742 461 709 505 645 _c
548 580 570 486 570 364 _c
570 241 548 147 505 83 _c
461 19 399 -13 318 -13 _c
236 -13 173 19 130 83 _c
87 147 66 241 66 364 _c
66 486 87 580 130 645 _c
173 709 236 742 318 742 _c
_cl}_d
/one{636 0 110 0 544 729 _sc
124 83 _m
285 83 _l
285 639 _l
110 604 _l
110 694 _l
284 729 _l
383 729 _l
383 83 _l
544 83 _l
544 0 _l
124 0 _l
124 83 _l
_cl}_d
/two{{636 0 73 0 536 742 _sc
192 83 _m
536 83 _l
536 0 _l
73 0 _l
73 83 _l
110 121 161 173 226 239 _c
290 304 331 346 348 365 _c
380 400 402 430 414 455 _c
426 479 433 504 433 528 _c
433 566 419 598 392 622 _c
365 646 330 659 286 659 _c
255 659 222 653 188 643 _c
154 632 117 616 78 594 _c
78 694 _l
118 710 155 722 189 730 _c
223 738 255 742 284 742 _c
}_e{359 742 419 723 464 685 _c
509 647 532 597 532 534 _c
532 504 526 475 515 449 _c
504 422 484 390 454 354 _c
446 344 420 317 376 272 _c
332 227 271 164 192 83 _c
_cl}_e}_d
/three{{636 0 76 -13 556 742 _sc
406 393 _m
453 383 490 362 516 330 _c
542 298 556 258 556 212 _c
556 140 531 84 482 45 _c
432 6 362 -13 271 -13 _c
240 -13 208 -10 176 -4 _c
144 1 110 10 76 22 _c
76 117 _l
103 101 133 89 166 81 _c
198 73 232 69 268 69 _c
330 69 377 81 409 105 _c
441 129 458 165 458 212 _c
458 254 443 288 413 312 _c
383 336 341 349 287 349 _c
}_e{202 349 _l
202 430 _l
291 430 _l
339 430 376 439 402 459 _c
428 478 441 506 441 543 _c
441 580 427 609 401 629 _c
374 649 336 659 287 659 _c
260 659 231 656 200 650 _c
169 644 135 635 98 623 _c
98 711 _l
135 721 170 729 203 734 _c
235 739 266 742 296 742 _c
370 742 429 725 473 691 _c
517 657 539 611 539 553 _c
539 513 527 479 504 451 _c
481 423 448 403 406 393 _c
_cl}_e}_d
/four{636 0 49 0 580 729 _sc
378 643 _m
129 254 _l
378 254 _l
378 643 _l
352 729 _m
476 729 _l
476 254 _l
580 254 _l
580 172 _l
476 172 _l
476 0 _l
378 0 _l
378 172 _l
49 172 _l
49 267 _l
352 729 _l
_cl}_d
/five{{636 0 77 -13 549 729 _sc
108 729 _m
495 729 _l
495 646 _l
198 646 _l
198 467 _l
212 472 227 476 241 478 _c
255 480 270 482 284 482 _c
365 482 429 459 477 415 _c
525 370 549 310 549 234 _c
549 155 524 94 475 51 _c
426 8 357 -13 269 -13 _c
238 -13 207 -10 175 -6 _c
143 -1 111 6 77 17 _c
77 116 _l
106 100 136 88 168 80 _c
199 72 232 69 267 69 _c
}_e{323 69 368 83 401 113 _c
433 143 450 183 450 234 _c
450 284 433 324 401 354 _c
368 384 323 399 267 399 _c
241 399 214 396 188 390 _c
162 384 135 375 108 363 _c
108 729 _l
_cl}_e}_d
/six{{636 0 70 -13 573 742 _sc
330 404 _m
286 404 251 388 225 358 _c
199 328 186 286 186 234 _c
186 181 199 139 225 109 _c
251 79 286 64 330 64 _c
374 64 409 79 435 109 _c
461 139 474 181 474 234 _c
474 286 461 328 435 358 _c
409 388 374 404 330 404 _c
526 713 _m
526 623 _l
501 635 476 644 451 650 _c
425 656 400 659 376 659 _c
310 659 260 637 226 593 _c
}_e{192 549 172 482 168 394 _c
187 422 211 444 240 459 _c
269 474 301 482 336 482 _c
409 482 467 459 509 415 _c
551 371 573 310 573 234 _c
573 159 550 99 506 54 _c
462 9 403 -13 330 -13 _c
246 -13 181 19 137 83 _c
92 147 70 241 70 364 _c
70 479 97 571 152 639 _c
206 707 280 742 372 742 _c
396 742 421 739 447 735 _c
472 730 498 723 526 713 _c
_cl}_e}_d
/seven{636 0 82 0 551 729 _sc
82 729 _m
551 729 _l
551 687 _l
286 0 _l
183 0 _l
432 646 _l
82 646 _l
82 729 _l
_cl}_d
/eight{{636 0 68 -13 568 742 _sc
318 346 _m
271 346 234 333 207 308 _c
180 283 167 249 167 205 _c
167 161 180 126 207 101 _c
234 76 271 64 318 64 _c
364 64 401 76 428 102 _c
455 127 469 161 469 205 _c
469 249 455 283 429 308 _c
402 333 365 346 318 346 _c
219 388 _m
177 398 144 418 120 447 _c
96 476 85 511 85 553 _c
85 611 105 657 147 691 _c
188 725 245 742 318 742 _c
}_e{390 742 447 725 489 691 _c
530 657 551 611 551 553 _c
551 511 539 476 515 447 _c
491 418 459 398 417 388 _c
464 377 501 355 528 323 _c
554 291 568 251 568 205 _c
568 134 546 80 503 43 _c
459 5 398 -13 318 -13 _c
237 -13 175 5 132 43 _c
89 80 68 134 68 205 _c
68 251 81 291 108 323 _c
134 355 171 377 219 388 _c
183 544 _m
183 506 194 476 218 455 _c
}_e{242 434 275 424 318 424 _c
360 424 393 434 417 455 _c
441 476 453 506 453 544 _c
453 582 441 611 417 632 _c
393 653 360 664 318 664 _c
275 664 242 653 218 632 _c
194 611 183 582 183 544 _c
_cl}_e}_d
/C{{698 0 56 -13 644 742 _sc
644 673 _m
644 569 _l
610 599 575 622 537 638 _c
499 653 460 661 418 661 _c
334 661 270 635 226 584 _c
182 533 160 460 160 364 _c
160 268 182 194 226 143 _c
270 92 334 67 418 67 _c
460 67 499 74 537 90 _c
575 105 610 128 644 159 _c
644 56 _l
609 32 572 15 534 4 _c
496 -7 455 -13 412 -13 _c
302 -13 215 20 151 87 _c
}_e{87 154 56 246 56 364 _c
56 481 87 573 151 641 _c
215 708 302 742 412 742 _c
456 742 497 736 535 725 _c
573 713 610 696 644 673 _c
_cl}_e}_d
/D{770 0 98 0 711 729 _sc
197 648 _m
197 81 _l
316 81 _l
416 81 490 103 537 149 _c
583 195 607 267 607 365 _c
607 463 583 534 537 580 _c
490 625 416 648 316 648 _c
197 648 _l
98 729 _m
301 729 _l
442 729 546 699 612 641 _c
678 582 711 490 711 365 _c
711 239 677 147 611 88 _c
545 29 441 0 301 0 _c
98 0 _l
98 729 _l
_cl}_d
/F{575 0 98 0 517 729 _sc
98 729 _m
517 729 _l
517 646 _l
197 646 _l
197 431 _l
486 431 _l
486 348 _l
197 348 _l
197 0 _l
98 0 _l
98 729 _l
_cl}_d
/N{748 0 98 0 650 729 _sc
98 729 _m
231 729 _l
554 119 _l
554 729 _l
650 729 _l
650 0 _l
517 0 _l
194 610 _l
194 0 _l
98 0 _l
98 729 _l
_cl}_d
/P{603 0 98 0 569 729 _sc
197 648 _m
197 374 _l
321 374 _l
367 374 402 385 427 409 _c
452 433 465 467 465 511 _c
465 555 452 588 427 612 _c
402 636 367 648 321 648 _c
197 648 _l
98 729 _m
321 729 _l
402 729 464 710 506 673 _c
548 636 569 582 569 511 _c
569 439 548 384 506 348 _c
464 311 402 293 321 293 _c
197 293 _l
197 0 _l
98 0 _l
98 729 _l
_cl}_d
/a{{613 0 60 -13 522 560 _sc
343 275 _m
270 275 220 266 192 250 _c
164 233 150 205 150 165 _c
150 133 160 107 181 89 _c
202 70 231 61 267 61 _c
317 61 357 78 387 114 _c
417 149 432 196 432 255 _c
432 275 _l
343 275 _l
522 312 _m
522 0 _l
432 0 _l
432 83 _l
411 49 385 25 355 10 _c
325 -5 287 -13 243 -13 _c
187 -13 142 2 109 33 _c
76 64 60 106 60 159 _c
}_e{60 220 80 266 122 298 _c
163 329 224 345 306 345 _c
432 345 _l
432 354 _l
432 395 418 427 391 450 _c
364 472 326 484 277 484 _c
245 484 215 480 185 472 _c
155 464 127 453 100 439 _c
100 522 _l
132 534 164 544 195 550 _c
226 556 256 560 286 560 _c
365 560 424 539 463 498 _c
502 457 522 395 522 312 _c
_cl}_e}_d
/b{{635 0 91 -13 580 760 _sc
487 273 _m
487 339 473 390 446 428 _c
418 466 381 485 334 485 _c
286 485 249 466 222 428 _c
194 390 181 339 181 273 _c
181 207 194 155 222 117 _c
249 79 286 61 334 61 _c
381 61 418 79 446 117 _c
473 155 487 207 487 273 _c
181 464 _m
199 496 223 520 252 536 _c
281 552 316 560 356 560 _c
422 560 476 533 518 481 _c
559 428 580 359 580 273 _c
}_e{580 187 559 117 518 65 _c
476 13 422 -13 356 -13 _c
316 -13 281 -5 252 10 _c
223 25 199 49 181 82 _c
181 0 _l
91 0 _l
91 760 _l
181 760 _l
181 464 _l
_cl}_e}_d
/d{{635 0 55 -13 544 760 _sc
454 464 _m
454 760 _l
544 760 _l
544 0 _l
454 0 _l
454 82 _l
435 49 411 25 382 10 _c
353 -5 319 -13 279 -13 _c
213 -13 159 13 117 65 _c
75 117 55 187 55 273 _c
55 359 75 428 117 481 _c
159 533 213 560 279 560 _c
319 560 353 552 382 536 _c
411 520 435 496 454 464 _c
148 273 _m
148 207 161 155 188 117 _c
215 79 253 61 301 61 _c
}_e{348 61 385 79 413 117 _c
440 155 454 207 454 273 _c
454 339 440 390 413 428 _c
385 466 348 485 301 485 _c
253 485 215 466 188 428 _c
161 390 148 339 148 273 _c
_cl}_e}_d
/e{{615 0 55 -13 562 560 _sc
562 296 _m
562 252 _l
149 252 _l
153 190 171 142 205 110 _c
238 78 284 62 344 62 _c
378 62 412 66 444 74 _c
476 82 509 95 541 113 _c
541 28 _l
509 14 476 3 442 -3 _c
408 -9 373 -13 339 -13 _c
251 -13 182 12 131 62 _c
80 112 55 181 55 268 _c
55 357 79 428 127 481 _c
175 533 241 560 323 560 _c
397 560 455 536 498 489 _c
}_e{540 441 562 377 562 296 _c
472 322 _m
471 371 457 410 431 440 _c
404 469 368 484 324 484 _c
274 484 234 469 204 441 _c
174 413 156 373 152 322 _c
472 322 _l
_cl}_e}_d
/f{352 0 23 0 371 760 _sc
371 760 _m
371 685 _l
285 685 _l
253 685 230 678 218 665 _c
205 652 199 629 199 595 _c
199 547 _l
347 547 _l
347 477 _l
199 477 _l
199 0 _l
109 0 _l
109 477 _l
23 477 _l
23 547 _l
109 547 _l
109 585 _l
109 645 123 690 151 718 _c
179 746 224 760 286 760 _c
371 760 _l
_cl}_d
/g{{635 0 55 -207 544 560 _sc
454 280 _m
454 344 440 395 414 431 _c
387 467 349 485 301 485 _c
253 485 215 467 188 431 _c
161 395 148 344 148 280 _c
148 215 161 165 188 129 _c
215 93 253 75 301 75 _c
349 75 387 93 414 129 _c
440 165 454 215 454 280 _c
544 68 _m
544 -24 523 -93 482 -139 _c
440 -184 377 -207 292 -207 _c
260 -207 231 -204 203 -200 _c
175 -195 147 -188 121 -178 _c
}_e{121 -91 _l
147 -105 173 -115 199 -122 _c
225 -129 251 -133 278 -133 _c
336 -133 380 -117 410 -87 _c
439 -56 454 -10 454 52 _c
454 96 _l
435 64 411 40 382 24 _c
353 8 319 0 279 0 _c
211 0 157 25 116 76 _c
75 127 55 195 55 280 _c
55 364 75 432 116 483 _c
157 534 211 560 279 560 _c
319 560 353 552 382 536 _c
411 520 435 496 454 464 _c
454 547 _l
544 547 _l
}_e{544 68 _l
_cl}_e}_d
/h{634 0 91 0 549 760 _sc
549 330 _m
549 0 _l
459 0 _l
459 327 _l
459 379 448 417 428 443 _c
408 469 378 482 338 482 _c
289 482 251 466 223 435 _c
195 404 181 362 181 309 _c
181 0 _l
91 0 _l
91 760 _l
181 760 _l
181 462 _l
202 494 227 519 257 535 _c
286 551 320 560 358 560 _c
420 560 468 540 500 501 _c
532 462 549 405 549 330 _c
_cl}_d
/i{278 0 94 0 184 760 _sc
94 547 _m
184 547 _l
184 0 _l
94 0 _l
94 547 _l
94 760 _m
184 760 _l
184 646 _l
94 646 _l
94 760 _l
_cl}_d
/l{278 0 94 0 184 760 _sc
94 760 _m
184 760 _l
184 0 _l
94 0 _l
94 760 _l
_cl}_d
/m{{974 0 91 0 889 560 _sc
520 442 _m
542 482 569 511 600 531 _c
631 550 668 560 711 560 _c
767 560 811 540 842 500 _c
873 460 889 403 889 330 _c
889 0 _l
799 0 _l
799 327 _l
799 379 789 418 771 444 _c
752 469 724 482 686 482 _c
639 482 602 466 575 435 _c
548 404 535 362 535 309 _c
535 0 _l
445 0 _l
445 327 _l
445 379 435 418 417 444 _c
398 469 369 482 331 482 _c
}_e{285 482 248 466 221 435 _c
194 404 181 362 181 309 _c
181 0 _l
91 0 _l
91 547 _l
181 547 _l
181 462 _l
201 495 226 520 255 536 _c
283 552 317 560 357 560 _c
397 560 430 550 458 530 _c
486 510 506 480 520 442 _c
_cl}_e}_d
/n{634 0 91 0 549 560 _sc
549 330 _m
549 0 _l
459 0 _l
459 327 _l
459 379 448 417 428 443 _c
408 469 378 482 338 482 _c
289 482 251 466 223 435 _c
195 404 181 362 181 309 _c
181 0 _l
91 0 _l
91 547 _l
181 547 _l
181 462 _l
202 494 227 519 257 535 _c
286 551 320 560 358 560 _c
420 560 468 540 500 501 _c
532 462 549 405 549 330 _c
_cl}_d
/o{612 0 55 -13 557 560 _sc
306 484 _m
258 484 220 465 192 427 _c
164 389 150 338 150 273 _c
150 207 163 156 191 118 _c
219 80 257 62 306 62 _c
354 62 392 80 420 118 _c
448 156 462 207 462 273 _c
462 337 448 389 420 427 _c
392 465 354 484 306 484 _c
306 560 _m
384 560 445 534 490 484 _c
534 433 557 363 557 273 _c
557 183 534 113 490 63 _c
445 12 384 -13 306 -13 _c
227 -13 165 12 121 63 _c
77 113 55 183 55 273 _c
55 363 77 433 121 484 _c
165 534 227 560 306 560 _c
_cl}_d
/p{{635 0 91 -207 580 560 _sc
181 82 _m
181 -207 _l
91 -207 _l
91 547 _l
181 547 _l
181 464 _l
199 496 223 520 252 536 _c
281 552 316 560 356 560 _c
422 560 476 533 518 481 _c
559 428 580 359 580 273 _c
580 187 559 117 518 65 _c
476 13 422 -13 356 -13 _c
316 -13 281 -5 252 10 _c
223 25 199 49 181 82 _c
487 273 _m
487 339 473 390 446 428 _c
418 466 381 485 334 485 _c
}_e{286 485 249 466 222 428 _c
194 390 181 339 181 273 _c
181 207 194 155 222 117 _c
249 79 286 61 334 61 _c
381 61 418 79 446 117 _c
473 155 487 207 487 273 _c
_cl}_e}_d
/r{411 0 91 0 411 560 _sc
411 463 _m
401 469 390 473 378 476 _c
366 478 353 480 339 480 _c
288 480 249 463 222 430 _c
194 397 181 350 181 288 _c
181 0 _l
91 0 _l
91 547 _l
181 547 _l
181 462 _l
199 495 224 520 254 536 _c
284 552 321 560 365 560 _c
371 560 378 559 386 559 _c
393 558 401 557 411 555 _c
411 463 _l
_cl}_d
/s{{521 0 54 -13 472 560 _sc
443 531 _m
443 446 _l
417 458 391 468 364 475 _c
336 481 308 485 279 485 _c
234 485 200 478 178 464 _c
156 450 145 430 145 403 _c
145 382 153 366 169 354 _c
185 342 217 330 265 320 _c
296 313 _l
360 299 405 279 432 255 _c
458 230 472 195 472 151 _c
472 100 452 60 412 31 _c
372 1 316 -13 246 -13 _c
216 -13 186 -10 154 -5 _c
}_e{122 0 89 8 54 20 _c
54 113 _l
87 95 120 82 152 74 _c
184 65 216 61 248 61 _c
290 61 323 68 346 82 _c
368 96 380 117 380 144 _c
380 168 371 187 355 200 _c
339 213 303 226 247 238 _c
216 245 _l
160 257 119 275 95 299 _c
70 323 58 356 58 399 _c
58 450 76 490 112 518 _c
148 546 200 560 268 560 _c
301 560 332 557 362 552 _c
391 547 418 540 443 531 _c
}_e{_cl}_e}_d
/t{392 0 27 0 368 702 _sc
183 702 _m
183 547 _l
368 547 _l
368 477 _l
183 477 _l
183 180 _l
183 135 189 106 201 94 _c
213 81 238 75 276 75 _c
368 75 _l
368 0 _l
276 0 _l
206 0 158 13 132 39 _c
106 65 93 112 93 180 _c
93 477 _l
27 477 _l
27 547 _l
93 547 _l
93 702 _l
183 702 _l
_cl}_d
/u{634 0 85 -13 543 560 _sc
85 216 _m
85 547 _l
175 547 _l
175 219 _l
175 167 185 129 205 103 _c
225 77 255 64 296 64 _c
344 64 383 79 411 110 _c
439 141 453 183 453 237 _c
453 547 _l
543 547 _l
543 0 _l
453 0 _l
453 84 _l
431 50 405 26 377 10 _c
348 -5 315 -13 277 -13 _c
214 -13 166 6 134 45 _c
101 83 85 140 85 216 _c
311 560 _m
311 560 _l
_cl}_d
/v{592 0 30 0 562 547 _sc
30 547 _m
125 547 _l
296 88 _l
467 547 _l
562 547 _l
357 0 _l
235 0 _l
30 547 _l
_cl}_d
/y{592 0 30 -207 562 547 _sc
322 -50 _m
296 -114 271 -157 247 -177 _c
223 -197 191 -207 151 -207 _c
79 -207 _l
79 -132 _l
132 -132 _l
156 -132 175 -126 189 -114 _c
203 -102 218 -75 235 -31 _c
251 9 _l
30 547 _l
125 547 _l
296 119 _l
467 547 _l
562 547 _l
322 -50 _l
_cl}_d
end readonly def

/BuildGlyph
 {exch begin
 CharStrings exch
 2 copy known not{pop /.notdef}if
 true 3 1 roll get exec
 end}_d

/BuildChar {
 1 index /Encoding get exch get
 1 index /BuildGlyph get exec
}_d

FontName currentdict end definefont pop
end
%%EndProlog
mpldict begin
18 180 translate
576 432 0 0 clipbox
gsave
0 0 m
576 0 l
576 432 l
0 432 l
cl
1.000 setgray
fill
grestore
gsave
72 228.96 m
518.4 228.96 l
518.4 380.16 l
72 380.16 l
cl
0.898 setgray
fill
grestore
0.800 setlinewidth
1 setlinejoin
2 setlinecap
[] 0 setdash
1.000 setgray
gsave
446.4 151.2 72 229 clipbox
92.290909 228.96 m
92.290909 380.16 l
stroke
grestore
0 setlinecap
0.333 setgray
gsave
/o {
gsave
newpath
translate
0.8 setlinewidth
1 setlinejoin
0 setlinecap
0 0 m
0 -3.5 l

gsave
0.333 setgray
fill
grestore
stroke
grestore
} bind def
92.2909 228.96 o
grestore
2 setlinecap
1.000 setgray
gsave
446.4 151.2 72 229 clipbox
143.018182 228.96 m
143.018182 380.16 l
stroke
grestore
0 setlinecap
0.333 setgray
gsave
/o {
gsave
newpath
translate
0.8 setlinewidth
1 setlinejoin
0 setlinecap
0 0 m
0 -3.5 l

gsave
0.333 setgray
fill
grestore
stroke
grestore
} bind def
143.018 228.96 o
grestore
2 setlinecap
1.000 setgray
gsave
446.4 151.2 72 229 clipbox
193.745455 228.96 m
193.745455 380.16 l
stroke
grestore
0 setlinecap
0.333 setgray
gsave
/o {
gsave
newpath
translate
0.8 setlinewidth
1 setlinejoin
0 setlinecap
0 0 m
0 -3.5 l

gsave
0.333 setgray
fill
grestore
stroke
grestore
} bind def
193.745 228.96 o
grestore
2 setlinecap
1.000 setgray
gsave
446.4 151.2 72 229 clipbox
244.472727 228.96 m
244.472727 380.16 l
stroke
grestore
0 setlinecap
0.333 setgray
gsave
/o {
gsave
newpath
translate
0.8 setlinewidth
1 setlinejoin
0 setlinecap
0 0 m
0 -3.5 l

gsave
0.333 setgray
fill
grestore
stroke
grestore
} bind def
244.473 228.96 o
grestore
2 setlinecap
1.000 setgray
gsave
446.4 151.2 72 229 clipbox
295.2 228.96 m
295.2 380.16 l
stroke
grestore
0 setlinecap
0.333 setgray
gsave
/o {
gsave
newpath
translate
0.8 setlinewidth
1 setlinejoin
0 setlinecap
0 0 m
0 -3.5 l

gsave
0.333 setgray
fill
grestore
stroke
grestore
} bind def
295.2 228.96 o
grestore
2 setlinecap
1.000 setgray
gsave
446.4 151.2 72 229 clipbox
345.927273 228.96 m
345.927273 380.16 l
stroke
grestore
0 setlinecap
0.333 setgray
gsave
/o {
gsave
newpath
translate
0.8 setlinewidth
1 setlinejoin
0 setlinecap
0 0 m
0 -3.5 l

gsave
0.333 setgray
fill
grestore
stroke
grestore
} bind def
345.927 228.96 o
grestore
2 setlinecap
1.000 setgray
gsave
446.4 151.2 72 229 clipbox
396.654545 228.96 m
396.654545 380.16 l
stroke
grestore
0 setlinecap
0.333 setgray
gsave
/o {
gsave
newpath
translate
0.8 setlinewidth
1 setlinejoin
0 setlinecap
0 0 m
0 -3.5 l

gsave
0.333 setgray
fill
grestore
stroke
grestore
} bind def
396.655 228.96 o
grestore
2 setlinecap
1.000 setgray
gsave
446.4 151.2 72 229 clipbox
447.381818 228.96 m
447.381818 380.16 l
stroke
grestore
0 setlinecap
0.333 setgray
gsave
/o {
gsave
newpath
translate
0.8 setlinewidth
1 setlinejoin
0 setlinecap
0 0 m
0 -3.5 l

gsave
0.333 setgray
fill
grestore
stroke
grestore
} bind def
447.382 228.96 o
grestore
2 setlinecap
1.000 setgray
gsave
446.4 151.2 72 229 clipbox
498.109091 228.96 m
498.109091 380.16 l
stroke
grestore
0 setlinecap
0.333 setgray
gsave
/o {
gsave
newpath
translate
0.8 setlinewidth
1 setlinejoin
0 setlinecap
0 0 m
0 -3.5 l

gsave
0.333 setgray
fill
grestore
stroke
grestore
} bind def
498.109 228.96 o
grestore
2 setlinecap
1.000 setgray
gsave
446.4 151.2 72 229 clipbox
72 235.832727 m
518.4 235.832727 l
stroke
grestore
0 setlinecap
0.333 setgray
gsave
/o {
gsave
newpath
translate
0.8 setlinewidth
1 setlinejoin
0 setlinecap
0 0 m
-3.5 0 l

gsave
0.333 setgray
fill
grestore
stroke
grestore
} bind def
72 235.833 o
grestore
/DejaVuSans findfont
10.000 scalefont
setfont
gsave
49.093750 232.035852 translate
0.000000 rotate
0.000000 0.000000 m /zero glyphshow
6.362305 0.000000 m /period glyphshow
9.541016 0.000000 m /zero glyphshow
grestore
2 setlinecap
1.000 setgray
gsave
446.4 151.2 72 229 clipbox
72 263.521385 m
518.4 263.521385 l
stroke
grestore
0 setlinecap
0.333 setgray
gsave
/o {
gsave
newpath
translate
0.8 setlinewidth
1 setlinejoin
0 setlinecap
0 0 m
-3.5 0 l

gsave
0.333 setgray
fill
grestore
stroke
grestore
} bind def
72 263.521 o
grestore
gsave
49.093750 259.724510 translate
0.000000 rotate
0.000000 0.000000 m /zero glyphshow
6.362305 0.000000 m /period glyphshow
9.541016 0.000000 m /two glyphshow
grestore
2 setlinecap
1.000 setgray
gsave
446.4 151.2 72 229 clipbox
72 291.210042 m
518.4 291.210042 l
stroke
grestore
0 setlinecap
0.333 setgray
gsave
/o {
gsave
newpath
translate
0.8 setlinewidth
1 setlinejoin
0 setlinecap
0 0 m
-3.5 0 l

gsave
0.333 setgray
fill
grestore
stroke
grestore
} bind def
72 291.21 o
grestore
gsave
49.093750 287.413167 translate
0.000000 rotate
0.000000 0.000000 m /zero glyphshow
6.362305 0.000000 m /period glyphshow
9.541016 0.000000 m /four glyphshow
grestore
2 setlinecap
1.000 setgray
gsave
446.4 151.2 72 229 clipbox
72 318.8987 m
518.4 318.8987 l
stroke
grestore
0 setlinecap
0.333 setgray
gsave
/o {
gsave
newpath
translate
0.8 setlinewidth
1 setlinejoin
0 setlinecap
0 0 m
-3.5 0 l

gsave
0.333 setgray
fill
grestore
stroke
grestore
} bind def
72 318.899 o
grestore
gsave
49.093750 315.101825 translate
0.000000 rotate
0.000000 0.000000 m /zero glyphshow
6.362305 0.000000 m /period glyphshow
9.541016 0.000000 m /six glyphshow
grestore
2 setlinecap
1.000 setgray
gsave
446.4 151.2 72 229 clipbox
72 346.587357 m
518.4 346.587357 l
stroke
grestore
0 setlinecap
0.333 setgray
gsave
/o {
gsave
newpath
translate
0.8 setlinewidth
1 setlinejoin
0 setlinecap
0 0 m
-3.5 0 l

gsave
0.333 setgray
fill
grestore
stroke
grestore
} bind def
72 346.587 o
grestore
gsave
49.093750 342.790482 translate
0.000000 rotate
0.000000 0.000000 m /zero glyphshow
6.362305 0.000000 m /period glyphshow
9.541016 0.000000 m /eight glyphshow
grestore
2 setlinecap
1.000 setgray
gsave
446.4 151.2 72 229 clipbox
72 374.276015 m
518.4 374.276015 l
stroke
grestore
0 setlinecap
0.333 setgray
gsave
/o {
gsave
newpath
translate
0.8 setlinewidth
1 setlinejoin
0 setlinecap
0 0 m
-3.5 0 l

gsave
0.333 setgray
fill
grestore
stroke
grestore
} bind def
72 374.276 o
grestore
gsave
49.093750 370.479140 translate
0.000000 rotate
0.000000 0.000000 m /one glyphshow
6.362305 0.000000 m /period glyphshow
9.541016 0.000000 m /zero glyphshow
grestore
/DejaVuSans findfont
16.000 scalefont
setfont
gsave
23.850000 210.903750 translate
90.000000 rotate
0.000000 0.000000 m /C glyphshow
11.171875 0.000000 m /u glyphshow
21.312500 0.000000 m /m glyphshow
36.898438 0.000000 m /u glyphshow
47.039062 0.000000 m /l glyphshow
51.484375 0.000000 m /a glyphshow
61.289062 0.000000 m /t glyphshow
67.562500 0.000000 m /i glyphshow
72.007812 0.000000 m /v glyphshow
81.476562 0.000000 m /e glyphshow
91.320312 0.000000 m /space glyphshow
96.406250 0.000000 m /p glyphshow
106.562500 0.000000 m /r glyphshow
113.140625 0.000000 m /o glyphshow
122.929688 0.000000 m /b glyphshow
133.085938 0.000000 m /a glyphshow
142.890625 0.000000 m /b glyphshow
153.046875 0.000000 m /i glyphshow
157.492188 0.000000 m /l glyphshow
161.937500 0.000000 m /i glyphshow
166.382812 0.000000 m /t glyphshow
172.656250 0.000000 m /y glyphshow
182.125000 0.000000 m /space glyphshow
grestore
gsave
41.765625 257.786563 translate
90.000000 rotate
0.000000 0.000000 m /space glyphshow
5.085938 0.000000 m /o glyphshow
14.875000 0.000000 m /f glyphshow
20.507812 0.000000 m /space glyphshow
25.593750 0.000000 m /f glyphshow
31.226562 0.000000 m /i glyphshow
35.671875 0.000000 m /n glyphshow
45.812500 0.000000 m /i glyphshow
50.257812 0.000000 m /s glyphshow
58.593750 0.000000 m /h glyphshow
68.734375 0.000000 m /i glyphshow
73.179688 0.000000 m /n glyphshow
83.320312 0.000000 m /g glyphshow
grestore
1.500 setlinewidth
2 setlinecap
0.886 0.290 0.200 setrgbcolor
gsave
446.4 151.2 72 229 clipbox
92.290909 235.832727 m
97.363636 235.832727 l
102.436364 235.832727 l
107.509091 235.832727 l
112.581818 235.832727 l
117.654545 235.832727 l
122.727273 236.170724 l
127.8 237.45511 l
132.872727 240.368215 l
137.945455 245.233778 l
143.018182 251.780872 l
148.090909 259.231875 l
153.163636 266.818918 l
158.236364 274.10895 l
163.309091 280.98266 l
168.381818 287.467732 l
173.454545 293.59181 l
178.527273 299.340241 l
183.6 304.683596 l
188.672727 309.606128 l
193.745455 314.113413 l
198.818182 318.228334 l
203.890909 321.984941 l
208.963636 325.423672 l
214.036364 328.588073 l
219.109091 331.521526 l
224.181818 334.262614 l
229.254545 336.84015 l
234.327273 339.270774 l
239.4 341.560879 l
244.472727 343.711701 l
249.545455 345.724634 l
254.618182 347.604383 l
259.690909 349.359275 l
264.763636 350.999581 l
269.836364 352.535295 l
274.909091 353.97457 l
279.981818 355.323311 l
285.054545 356.585739 l
290.127273 357.76538 l
295.2 358.865925 l
300.272727 359.891668 l
305.345455 360.847497 l
310.418182 361.738572 l
315.490909 362.569919 l
320.563636 363.346108 l
325.636364 364.071107 l
330.709091 364.748325 l
335.781818 365.380753 l
340.854545 365.971147 l
345.927273 366.522154 l
351 367.036372 l
356.072727 367.516327 l
361.145455 367.964423 l
366.218182 368.382887 l
371.290909 368.77374 l
376.363636 369.138807 l
381.436364 369.479748 l
386.509091 369.798099 l
391.581818 370.095307 l
396.654545 370.372753 l
401.727273 370.631749 l
406.8 370.873538 l
411.872727 371.099282 l
416.945455 371.310061 l
422.018182 371.50687 l
427.090909 371.690631 l
432.163636 371.862202 l
437.236364 372.022381 l
442.309091 372.171922 l
447.381818 372.311531 l
452.454545 372.441871 l
457.527273 372.563561 l
462.6 372.677179 l
467.672727 372.783262 l
472.745455 372.882311 l
477.818182 372.974789 l
482.890909 373.061132 l
487.963636 373.141744 l
493.036364 373.217006 l
498.109091 373.287273 l
stroke
grestore
1.000 setlinewidth
0 setlinejoin
[] 0 setdash
0.000 setgray
gsave
72 228.96 m
72 380.16 l
stroke
grestore
gsave
518.4 228.96 m
518.4 380.16 l
stroke
grestore
gsave
72 228.96 m
518.4 228.96 l
stroke
grestore
gsave
72 380.16 m
518.4 380.16 l
stroke
grestore
/DejaVuSans findfont
18.000 scalefont
setfont
gsave
55.856250 386.160000 translate
0.000000 rotate
0.000000 0.000000 m /C glyphshow
12.568359 0.000000 m /D glyphshow
26.428711 0.000000 m /F glyphshow
36.782227 0.000000 m /space glyphshow
42.503906 0.000000 m /a glyphshow
53.534180 0.000000 m /n glyphshow
64.942383 0.000000 m /d glyphshow
76.368164 0.000000 m /space glyphshow
82.089844 0.000000 m /P glyphshow
92.944336 0.000000 m /D glyphshow
106.804688 0.000000 m /F glyphshow
117.158203 0.000000 m /space glyphshow
122.879883 0.000000 m /o glyphshow
133.892578 0.000000 m /f glyphshow
140.229492 0.000000 m /space glyphshow
145.951172 0.000000 m /p glyphshow
157.376953 0.000000 m /r glyphshow
164.777344 0.000000 m /o glyphshow
175.790039 0.000000 m /b glyphshow
187.215820 0.000000 m /a glyphshow
198.246094 0.000000 m /b glyphshow
209.671875 0.000000 m /i glyphshow
214.672852 0.000000 m /l glyphshow
219.673828 0.000000 m /i glyphshow
224.674805 0.000000 m /t glyphshow
231.732422 0.000000 m /y glyphshow
242.384766 0.000000 m /space glyphshow
248.106445 0.000000 m /o glyphshow
259.119141 0.000000 m /f glyphshow
265.456055 0.000000 m /space glyphshow
271.177734 0.000000 m /f glyphshow
277.514648 0.000000 m /i glyphshow
282.515625 0.000000 m /n glyphshow
293.923828 0.000000 m /i glyphshow
298.924805 0.000000 m /s glyphshow
308.302734 0.000000 m /h glyphshow
319.710938 0.000000 m /i glyphshow
324.711914 0.000000 m /n glyphshow
336.120117 0.000000 m /g glyphshow
347.545898 0.000000 m /space glyphshow
353.267578 0.000000 m /a glyphshow
364.297852 0.000000 m /f glyphshow
370.634766 0.000000 m /t glyphshow
377.692383 0.000000 m /e glyphshow
388.766602 0.000000 m /r glyphshow
396.166992 0.000000 m /space glyphshow
401.888672 0.000000 m /n glyphshow
413.296875 0.000000 m /space glyphshow
419.018555 0.000000 m /m glyphshow
436.552734 0.000000 m /o glyphshow
447.565430 0.000000 m /v glyphshow
458.217773 0.000000 m /e glyphshow
469.291992 0.000000 m /s glyphshow
grestore
gsave
72 47.52 m
518.4 47.52 l
518.4 198.72 l
72 198.72 l
cl
0.898 setgray
fill
grestore
0.800 setlinewidth
1 setlinejoin
[] 0 setdash
1.000 setgray
gsave
446.4 151.2 72 47.52 clipbox
92.290909 47.52 m
92.290909 198.72 l
stroke
grestore
0 setlinecap
0.333 setgray
gsave
/o {
gsave
newpath
translate
0.8 setlinewidth
1 setlinejoin
0 setlinecap
0 0 m
0 -3.5 l

gsave
0.333 setgray
fill
grestore
stroke
grestore
} bind def
92.2909 47.52 o
grestore
/DejaVuSans findfont
10.000 scalefont
setfont
gsave
89.111222 32.926250 translate
0.000000 rotate
0.000000 0.000000 m /zero glyphshow
grestore
2 setlinecap
1.000 setgray
gsave
446.4 151.2 72 47.52 clipbox
143.018182 47.52 m
143.018182 198.72 l
stroke
grestore
0 setlinecap
0.333 setgray
gsave
/o {
gsave
newpath
translate
0.8 setlinewidth
1 setlinejoin
0 setlinecap
0 0 m
0 -3.5 l

gsave
0.333 setgray
fill
grestore
stroke
grestore
} bind def
143.018 47.52 o
grestore
gsave
136.658807 32.926250 translate
0.000000 rotate
0.000000 0.000000 m /one glyphshow
6.362305 0.000000 m /zero glyphshow
grestore
2 setlinecap
1.000 setgray
gsave
446.4 151.2 72 47.52 clipbox
193.745455 47.52 m
193.745455 198.72 l
stroke
grestore
0 setlinecap
0.333 setgray
gsave
/o {
gsave
newpath
translate
0.8 setlinewidth
1 setlinejoin
0 setlinecap
0 0 m
0 -3.5 l

gsave
0.333 setgray
fill
grestore
stroke
grestore
} bind def
193.745 47.52 o
grestore
gsave
187.386080 32.926250 translate
0.000000 rotate
0.000000 0.000000 m /two glyphshow
6.362305 0.000000 m /zero glyphshow
grestore
2 setlinecap
1.000 setgray
gsave
446.4 151.2 72 47.52 clipbox
244.472727 47.52 m
244.472727 198.72 l
stroke
grestore
0 setlinecap
0.333 setgray
gsave
/o {
gsave
newpath
translate
0.8 setlinewidth
1 setlinejoin
0 setlinecap
0 0 m
0 -3.5 l

gsave
0.333 setgray
fill
grestore
stroke
grestore
} bind def
244.473 47.52 o
grestore
gsave
238.113352 32.926250 translate
0.000000 rotate
0.000000 0.000000 m /three glyphshow
6.362305 0.000000 m /zero glyphshow
grestore
2 setlinecap
1.000 setgray
gsave
446.4 151.2 72 47.52 clipbox
295.2 47.52 m
295.2 198.72 l
stroke
grestore
0 setlinecap
0.333 setgray
gsave
/o {
gsave
newpath
translate
0.8 setlinewidth
1 setlinejoin
0 setlinecap
0 0 m
0 -3.5 l

gsave
0.333 setgray
fill
grestore
stroke
grestore
} bind def
295.2 47.52 o
grestore
gsave
288.840625 32.926250 translate
0.000000 rotate
0.000000 0.000000 m /four glyphshow
6.362305 0.000000 m /zero glyphshow
grestore
2 setlinecap
1.000 setgray
gsave
446.4 151.2 72 47.52 clipbox
345.927273 47.52 m
345.927273 198.72 l
stroke
grestore
0 setlinecap
0.333 setgray
gsave
/o {
gsave
newpath
translate
0.8 setlinewidth
1 setlinejoin
0 setlinecap
0 0 m
0 -3.5 l

gsave
0.333 setgray
fill
grestore
stroke
grestore
} bind def
345.927 47.52 o
grestore
gsave
339.567898 32.926250 translate
0.000000 rotate
0.000000 0.000000 m /five glyphshow
6.362305 0.000000 m /zero glyphshow
grestore
2 setlinecap
1.000 setgray
gsave
446.4 151.2 72 47.52 clipbox
396.654545 47.52 m
396.654545 198.72 l
stroke
grestore
0 setlinecap
0.333 setgray
gsave
/o {
gsave
newpath
translate
0.8 setlinewidth
1 setlinejoin
0 setlinecap
0 0 m
0 -3.5 l

gsave
0.333 setgray
fill
grestore
stroke
grestore
} bind def
396.655 47.52 o
grestore
gsave
390.295170 32.926250 translate
0.000000 rotate
0.000000 0.000000 m /six glyphshow
6.362305 0.000000 m /zero glyphshow
grestore
2 setlinecap
1.000 setgray
gsave
446.4 151.2 72 47.52 clipbox
447.381818 47.52 m
447.381818 198.72 l
stroke
grestore
0 setlinecap
0.333 setgray
gsave
/o {
gsave
newpath
translate
0.8 setlinewidth
1 setlinejoin
0 setlinecap
0 0 m
0 -3.5 l

gsave
0.333 setgray
fill
grestore
stroke
grestore
} bind def
447.382 47.52 o
grestore
gsave
441.022443 32.926250 translate
0.000000 rotate
0.000000 0.000000 m /seven glyphshow
6.362305 0.000000 m /zero glyphshow
grestore
2 setlinecap
1.000 setgray
gsave
446.4 151.2 72 47.52 clipbox
498.109091 47.52 m
498.109091 198.72 l
stroke
grestore
0 setlinecap
0.333 setgray
gsave
/o {
gsave
newpath
translate
0.8 setlinewidth
1 setlinejoin
0 setlinecap
0 0 m
0 -3.5 l

gsave
0.333 setgray
fill
grestore
stroke
grestore
} bind def
498.109 47.52 o
grestore
gsave
491.749716 32.926250 translate
0.000000 rotate
0.000000 0.000000 m /eight glyphshow
6.362305 0.000000 m /zero glyphshow
grestore
/DejaVuSans findfont
16.000 scalefont
setfont
gsave
223.723437 14.691875 translate
0.000000 rotate
0.000000 0.000000 m /N glyphshow
11.968750 0.000000 m /u glyphshow
22.109375 0.000000 m /m glyphshow
37.695312 0.000000 m /b glyphshow
47.851562 0.000000 m /e glyphshow
57.695312 0.000000 m /r glyphshow
64.273438 0.000000 m /space glyphshow
69.359375 0.000000 m /o glyphshow
79.148438 0.000000 m /f glyphshow
84.781250 0.000000 m /space glyphshow
89.867188 0.000000 m /m glyphshow
105.453125 0.000000 m /o glyphshow
115.242188 0.000000 m /v glyphshow
124.710938 0.000000 m /e glyphshow
134.554688 0.000000 m /s glyphshow
grestore
2 setlinecap
1.000 setgray
gsave
446.4 151.2 72 47.52 clipbox
72 54.392727 m
518.4 54.392727 l
stroke
grestore
0 setlinecap
0.333 setgray
gsave
/o {
gsave
newpath
translate
0.8 setlinewidth
1 setlinejoin
0 setlinecap
0 0 m
-3.5 0 l

gsave
0.333 setgray
fill
grestore
stroke
grestore
} bind def
72 54.3927 o
grestore
/DejaVuSans findfont
10.000 scalefont
setfont
gsave
42.734375 50.595852 translate
0.000000 rotate
0.000000 0.000000 m /zero glyphshow
6.362305 0.000000 m /period glyphshow
9.541016 0.000000 m /zero glyphshow
15.903320 0.000000 m /zero glyphshow
grestore
2 setlinecap
1.000 setgray
gsave
446.4 151.2 72 47.52 clipbox
72 79.474512 m
518.4 79.474512 l
stroke
grestore
0 setlinecap
0.333 setgray
gsave
/o {
gsave
newpath
translate
0.8 setlinewidth
1 setlinejoin
0 setlinecap
0 0 m
-3.5 0 l

gsave
0.333 setgray
fill
grestore
stroke
grestore
} bind def
72 79.4745 o
grestore
gsave
42.734375 75.677637 translate
0.000000 rotate
0.000000 0.000000 m /zero glyphshow
6.362305 0.000000 m /period glyphshow
9.541016 0.000000 m /zero glyphshow
15.903320 0.000000 m /one glyphshow
grestore
2 setlinecap
1.000 setgray
gsave
446.4 151.2 72 47.52 clipbox
72 104.556297 m
518.4 104.556297 l
stroke
grestore
0 setlinecap
0.333 setgray
gsave
/o {
gsave
newpath
translate
0.8 setlinewidth
1 setlinejoin
0 setlinecap
0 0 m
-3.5 0 l

gsave
0.333 setgray
fill
grestore
stroke
grestore
} bind def
72 104.556 o
grestore
gsave
42.734375 100.759422 translate
0.000000 rotate
0.000000 0.000000 m /zero glyphshow
6.362305 0.000000 m /period glyphshow
9.541016 0.000000 m /zero glyphshow
15.903320 0.000000 m /two glyphshow
grestore
2 setlinecap
1.000 setgray
gsave
446.4 151.2 72 47.52 clipbox
72 129.638083 m
518.4 129.638083 l
stroke
grestore
0 setlinecap
0.333 setgray
gsave
/o {
gsave
newpath
translate
0.8 setlinewidth
1 setlinejoin
0 setlinecap
0 0 m
-3.5 0 l

gsave
0.333 setgray
fill
grestore
stroke
grestore
} bind def
72 129.638 o
grestore
gsave
42.734375 125.841208 translate
0.000000 rotate
0.000000 0.000000 m /zero glyphshow
6.362305 0.000000 m /period glyphshow
9.541016 0.000000 m /zero glyphshow
15.903320 0.000000 m /three glyphshow
grestore
2 setlinecap
1.000 setgray
gsave
446.4 151.2 72 47.52 clipbox
72 154.719868 m
518.4 154.719868 l
stroke
grestore
0 setlinecap
0.333 setgray
gsave
/o {
gsave
newpath
translate
0.8 setlinewidth
1 setlinejoin
0 setlinecap
0 0 m
-3.5 0 l

gsave
0.333 setgray
fill
grestore
stroke
grestore
} bind def
72 154.72 o
grestore
gsave
42.734375 150.922993 translate
0.000000 rotate
0.000000 0.000000 m /zero glyphshow
6.362305 0.000000 m /period glyphshow
9.541016 0.000000 m /zero glyphshow
15.903320 0.000000 m /four glyphshow
grestore
2 setlinecap
1.000 setgray
gsave
446.4 151.2 72 47.52 clipbox
72 179.801653 m
518.4 179.801653 l
stroke
grestore
0 setlinecap
0.333 setgray
gsave
/o {
gsave
newpath
translate
0.8 setlinewidth
1 setlinejoin
0 setlinecap
0 0 m
-3.5 0 l

gsave
0.333 setgray
fill
grestore
stroke
grestore
} bind def
72 179.802 o
grestore
gsave
42.734375 176.004778 translate
0.000000 rotate
0.000000 0.000000 m /zero glyphshow
6.362305 0.000000 m /period glyphshow
9.541016 0.000000 m /zero glyphshow
15.903320 0.000000 m /five glyphshow
grestore
/DejaVuSans findfont
16.000 scalefont
setfont
gsave
17.490625 67.674687 translate
90.000000 rotate
0.000000 0.000000 m /P glyphshow
9.648438 0.000000 m /r glyphshow
16.226562 0.000000 m /o glyphshow
26.015625 0.000000 m /b glyphshow
36.171875 0.000000 m /a glyphshow
45.976562 0.000000 m /b glyphshow
56.132812 0.000000 m /i glyphshow
60.578125 0.000000 m /l glyphshow
65.023438 0.000000 m /i glyphshow
69.468750 0.000000 m /t glyphshow
75.742188 0.000000 m /y glyphshow
85.210938 0.000000 m /space glyphshow
90.296875 0.000000 m /o glyphshow
100.085938 0.000000 m /f glyphshow
105.718750 0.000000 m /space glyphshow
grestore
gsave
35.406250 49.284062 translate
90.000000 rotate
0.000000 0.000000 m /space glyphshow
5.085938 0.000000 m /f glyphshow
10.718750 0.000000 m /i glyphshow
15.164062 0.000000 m /n glyphshow
25.304688 0.000000 m /i glyphshow
29.750000 0.000000 m /s glyphshow
38.085938 0.000000 m /h glyphshow
48.226562 0.000000 m /i glyphshow
52.671875 0.000000 m /n glyphshow
62.812500 0.000000 m /g glyphshow
72.968750 0.000000 m /space glyphshow
78.054688 0.000000 m /a glyphshow
87.859375 0.000000 m /t glyphshow
94.132812 0.000000 m /space glyphshow
99.218750 0.000000 m /t glyphshow
105.492188 0.000000 m /u glyphshow
115.632812 0.000000 m /r glyphshow
122.210938 0.000000 m /n glyphshow
132.351562 0.000000 m /space glyphshow
137.437500 0.000000 m /n glyphshow
grestore
1.500 setlinewidth
2 setlinecap
0.886 0.290 0.200 setrgbcolor
gsave
446.4 151.2 72 47.52 clipbox
97.363636 54.392727 m
102.436364 54.392727 l
107.509091 54.392727 l
112.581818 54.392727 l
117.654545 54.392727 l
122.727273 60.51621 l
127.8 77.661961 l
132.872727 107.169494 l
137.945455 142.542174 l
143.018182 173.006501 l
148.090909 189.382631 l
153.163636 191.847273 l
158.236364 186.466315 l
163.309091 178.923805 l
168.381818 171.882835 l
173.454545 165.342721 l
178.527273 158.537117 l
183.6 151.19834 l
188.672727 143.574282 l
193.745455 136.05127 l
198.818182 128.942791 l
203.890909 122.451211 l
208.963636 116.692251 l
214.036364 111.722219 l
219.109091 107.538125 l
224.181818 104.053049 l
229.254545 101.089978 l
234.327273 98.428368 l
239.4 95.882589 l
244.472727 93.359179 l
249.545455 90.861056 l
254.618182 88.448165 l
259.690909 86.186125 l
264.763636 84.110165 l
269.836364 82.215275 l
274.909091 80.468088 l
279.981818 78.827876 l
285.054545 77.264159 l
290.127273 75.764299 l
295.2 74.331299 l
300.272727 72.976127 l
305.345455 71.709491 l
310.418182 70.536347 l
315.490909 69.454253 l
320.563636 68.454942 l
325.636364 67.527557 l
330.709091 66.661889 l
335.781818 65.850436 l
340.854545 65.088892 l
345.927273 64.375334 l
351 63.708812 l
356.072727 63.088077 l
361.145455 62.510892 l
366.218182 61.974042 l
371.290909 61.47382 l
376.363636 61.006651 l
381.436364 60.569551 l
386.509091 60.160288 l
391.581818 59.77726 l
396.654545 59.419213 l
401.727273 59.084963 l
406.8 58.773218 l
411.872727 58.482538 l
416.945455 58.211402 l
422.018182 57.958321 l
427.090909 57.721937 l
432.163636 57.501069 l
437.236364 57.294707 l
442.309091 57.101963 l
447.381818 56.922021 l
452.454545 56.754089 l
457.527273 56.597387 l
462.6 56.45115 l
467.672727 56.314645 l
472.745455 56.187188 l
477.818182 56.068158 l
482.890909 55.956992 l
487.963636 55.85318 l
493.036364 55.756249 l
498.109091 55.665756 l
stroke
grestore
1.000 setlinewidth
0 setlinejoin
[] 0 setdash
0.000 setgray
gsave
72 47.52 m
72 198.72 l
stroke
grestore
gsave
518.4 47.52 m
518.4 198.72 l
stroke
grestore
gsave
72 47.52 m
518.4 47.52 l
stroke
grestore
gsave
72 198.72 m
518.4 198.72 l
stroke
grestore

end
showpage
