%!PS-Adobe-3.0 EPSF-3.0
%%Title: Sample/Figures/cdfpdfcomparisonlongsnake.eps
%%Creator: matplotlib version 3.0.2, http://matplotlib.org/
%%CreationDate: Sat Jan  5 13:16:55 2019
%%Orientation: portrait
%%BoundingBox: 34 200 577 591
%%EndComments
%%BeginProlog
/mpldict 8 dict def
mpldict begin
/m { moveto } bind def
/l { lineto } bind def
/r { rlineto } bind def
/c { curveto } bind def
/cl { closepath } bind def
/box {
m
1 index 0 r
0 exch r
neg 0 r
cl
} bind def
/clipbox {
box
clip
newpath
} bind def
%!PS-Adobe-3.0 Resource-Font
%%Title: DejaVu Sans
%%Copyright: Copyright (c) 2003 by Bitstream, Inc. All Rights Reserved. Copyright (c) 2006 by Tavmjong Bah. All Rights Reserved. DejaVu changes are in public domain 
%%Creator: Converted from TrueType to type 3 by PPR
25 dict begin
/_d{bind def}bind def
/_m{moveto}_d
/_l{lineto}_d
/_cl{closepath eofill}_d
/_c{curveto}_d
/_sc{7 -1 roll{setcachedevice}{pop pop pop pop pop pop}ifelse}_d
/_e{exec}_d
/FontName /DejaVuSans def
/PaintType 0 def
/FontMatrix[.001 0 0 .001 0 0]def
/FontBBox[-1021 -463 1793 1232]def
/FontType 3 def
/Encoding [ /space /period /zero /one /two /four /five /six /eight /B /C /D /E /F /N /O /P /a /b /c /d /e /f /h /i /l /m /n /o /p /r /s /t /u /v /w /x /y ] def
/FontInfo 10 dict dup begin
/FamilyName (DejaVu Sans) def
/FullName (DejaVu Sans) def
/Notice (Copyright (c) 2003 by Bitstream, Inc. All Rights Reserved. Copyright (c) 2006 by Tavmjong Bah. All Rights Reserved. DejaVu changes are in public domain ) def
/Weight (Book) def
/Version (Version 2.35) def
/ItalicAngle 0.0 def
/isFixedPitch false def
/UnderlinePosition -130 def
/UnderlineThickness 90 def
end readonly def
/CharStrings 39 dict dup begin
/.notdef 0 def
/space{318 0 0 0 0 0 _sc
}_d
/period{318 0 107 0 210 124 _sc
107 124 _m
210 124 _l
210 0 _l
107 0 _l
107 124 _l
_cl}_d
/zero{636 0 66 -13 570 742 _sc
318 664 _m
267 664 229 639 203 589 _c
177 539 165 464 165 364 _c
165 264 177 189 203 139 _c
229 89 267 64 318 64 _c
369 64 407 89 433 139 _c
458 189 471 264 471 364 _c
471 464 458 539 433 589 _c
407 639 369 664 318 664 _c
318 742 _m
399 742 461 709 505 645 _c
548 580 570 486 570 364 _c
570 241 548 147 505 83 _c
461 19 399 -13 318 -13 _c
236 -13 173 19 130 83 _c
87 147 66 241 66 364 _c
66 486 87 580 130 645 _c
173 709 236 742 318 742 _c
_cl}_d
/one{636 0 110 0 544 729 _sc
124 83 _m
285 83 _l
285 639 _l
110 604 _l
110 694 _l
284 729 _l
383 729 _l
383 83 _l
544 83 _l
544 0 _l
124 0 _l
124 83 _l
_cl}_d
/two{{636 0 73 0 536 742 _sc
192 83 _m
536 83 _l
536 0 _l
73 0 _l
73 83 _l
110 121 161 173 226 239 _c
290 304 331 346 348 365 _c
380 400 402 430 414 455 _c
426 479 433 504 433 528 _c
433 566 419 598 392 622 _c
365 646 330 659 286 659 _c
255 659 222 653 188 643 _c
154 632 117 616 78 594 _c
78 694 _l
118 710 155 722 189 730 _c
223 738 255 742 284 742 _c
}_e{359 742 419 723 464 685 _c
509 647 532 597 532 534 _c
532 504 526 475 515 449 _c
504 422 484 390 454 354 _c
446 344 420 317 376 272 _c
332 227 271 164 192 83 _c
_cl}_e}_d
/four{636 0 49 0 580 729 _sc
378 643 _m
129 254 _l
378 254 _l
378 643 _l
352 729 _m
476 729 _l
476 254 _l
580 254 _l
580 172 _l
476 172 _l
476 0 _l
378 0 _l
378 172 _l
49 172 _l
49 267 _l
352 729 _l
_cl}_d
/five{{636 0 77 -13 549 729 _sc
108 729 _m
495 729 _l
495 646 _l
198 646 _l
198 467 _l
212 472 227 476 241 478 _c
255 480 270 482 284 482 _c
365 482 429 459 477 415 _c
525 370 549 310 549 234 _c
549 155 524 94 475 51 _c
426 8 357 -13 269 -13 _c
238 -13 207 -10 175 -6 _c
143 -1 111 6 77 17 _c
77 116 _l
106 100 136 88 168 80 _c
199 72 232 69 267 69 _c
}_e{323 69 368 83 401 113 _c
433 143 450 183 450 234 _c
450 284 433 324 401 354 _c
368 384 323 399 267 399 _c
241 399 214 396 188 390 _c
162 384 135 375 108 363 _c
108 729 _l
_cl}_e}_d
/six{{636 0 70 -13 573 742 _sc
330 404 _m
286 404 251 388 225 358 _c
199 328 186 286 186 234 _c
186 181 199 139 225 109 _c
251 79 286 64 330 64 _c
374 64 409 79 435 109 _c
461 139 474 181 474 234 _c
474 286 461 328 435 358 _c
409 388 374 404 330 404 _c
526 713 _m
526 623 _l
501 635 476 644 451 650 _c
425 656 400 659 376 659 _c
310 659 260 637 226 593 _c
}_e{192 549 172 482 168 394 _c
187 422 211 444 240 459 _c
269 474 301 482 336 482 _c
409 482 467 459 509 415 _c
551 371 573 310 573 234 _c
573 159 550 99 506 54 _c
462 9 403 -13 330 -13 _c
246 -13 181 19 137 83 _c
92 147 70 241 70 364 _c
70 479 97 571 152 639 _c
206 707 280 742 372 742 _c
396 742 421 739 447 735 _c
472 730 498 723 526 713 _c
_cl}_e}_d
/eight{{636 0 68 -13 568 742 _sc
318 346 _m
271 346 234 333 207 308 _c
180 283 167 249 167 205 _c
167 161 180 126 207 101 _c
234 76 271 64 318 64 _c
364 64 401 76 428 102 _c
455 127 469 161 469 205 _c
469 249 455 283 429 308 _c
402 333 365 346 318 346 _c
219 388 _m
177 398 144 418 120 447 _c
96 476 85 511 85 553 _c
85 611 105 657 147 691 _c
188 725 245 742 318 742 _c
}_e{390 742 447 725 489 691 _c
530 657 551 611 551 553 _c
551 511 539 476 515 447 _c
491 418 459 398 417 388 _c
464 377 501 355 528 323 _c
554 291 568 251 568 205 _c
568 134 546 80 503 43 _c
459 5 398 -13 318 -13 _c
237 -13 175 5 132 43 _c
89 80 68 134 68 205 _c
68 251 81 291 108 323 _c
134 355 171 377 219 388 _c
183 544 _m
183 506 194 476 218 455 _c
}_e{242 434 275 424 318 424 _c
360 424 393 434 417 455 _c
441 476 453 506 453 544 _c
453 582 441 611 417 632 _c
393 653 360 664 318 664 _c
275 664 242 653 218 632 _c
194 611 183 582 183 544 _c
_cl}_e}_d
/B{{686 0 98 0 615 729 _sc
197 348 _m
197 81 _l
355 81 _l
408 81 447 92 473 114 _c
498 136 511 169 511 215 _c
511 260 498 293 473 315 _c
447 337 408 348 355 348 _c
197 348 _l
197 648 _m
197 428 _l
343 428 _l
391 428 426 437 450 455 _c
474 473 486 500 486 538 _c
486 574 474 602 450 620 _c
426 638 391 648 343 648 _c
197 648 _l
98 729 _m
350 729 _l
}_e{425 729 483 713 524 682 _c
564 650 585 606 585 549 _c
585 504 574 468 553 442 _c
532 416 502 399 462 393 _c
510 382 548 360 575 327 _c
601 294 615 253 615 204 _c
615 138 592 88 548 53 _c
504 17 441 0 360 0 _c
98 0 _l
98 729 _l
_cl}_e}_d
/C{{698 0 56 -13 644 742 _sc
644 673 _m
644 569 _l
610 599 575 622 537 638 _c
499 653 460 661 418 661 _c
334 661 270 635 226 584 _c
182 533 160 460 160 364 _c
160 268 182 194 226 143 _c
270 92 334 67 418 67 _c
460 67 499 74 537 90 _c
575 105 610 128 644 159 _c
644 56 _l
609 32 572 15 534 4 _c
496 -7 455 -13 412 -13 _c
302 -13 215 20 151 87 _c
}_e{87 154 56 246 56 364 _c
56 481 87 573 151 641 _c
215 708 302 742 412 742 _c
456 742 497 736 535 725 _c
573 713 610 696 644 673 _c
_cl}_e}_d
/D{770 0 98 0 711 729 _sc
197 648 _m
197 81 _l
316 81 _l
416 81 490 103 537 149 _c
583 195 607 267 607 365 _c
607 463 583 534 537 580 _c
490 625 416 648 316 648 _c
197 648 _l
98 729 _m
301 729 _l
442 729 546 699 612 641 _c
678 582 711 490 711 365 _c
711 239 677 147 611 88 _c
545 29 441 0 301 0 _c
98 0 _l
98 729 _l
_cl}_d
/E{632 0 98 0 568 729 _sc
98 729 _m
559 729 _l
559 646 _l
197 646 _l
197 430 _l
544 430 _l
544 347 _l
197 347 _l
197 83 _l
568 83 _l
568 0 _l
98 0 _l
98 729 _l
_cl}_d
/F{575 0 98 0 517 729 _sc
98 729 _m
517 729 _l
517 646 _l
197 646 _l
197 431 _l
486 431 _l
486 348 _l
197 348 _l
197 0 _l
98 0 _l
98 729 _l
_cl}_d
/N{748 0 98 0 650 729 _sc
98 729 _m
231 729 _l
554 119 _l
554 729 _l
650 729 _l
650 0 _l
517 0 _l
194 610 _l
194 0 _l
98 0 _l
98 729 _l
_cl}_d
/O{787 0 56 -13 731 742 _sc
394 662 _m
322 662 265 635 223 582 _c
181 528 160 456 160 364 _c
160 272 181 199 223 146 _c
265 92 322 66 394 66 _c
465 66 522 92 564 146 _c
606 199 627 272 627 364 _c
627 456 606 528 564 582 _c
522 635 465 662 394 662 _c
394 742 _m
496 742 577 707 639 639 _c
700 571 731 479 731 364 _c
731 248 700 157 639 89 _c
577 21 496 -13 394 -13 _c
291 -13 209 21 148 89 _c
86 157 56 248 56 364 _c
56 479 86 571 148 639 _c
209 707 291 742 394 742 _c
_cl}_d
/P{603 0 98 0 569 729 _sc
197 648 _m
197 374 _l
321 374 _l
367 374 402 385 427 409 _c
452 433 465 467 465 511 _c
465 555 452 588 427 612 _c
402 636 367 648 321 648 _c
197 648 _l
98 729 _m
321 729 _l
402 729 464 710 506 673 _c
548 636 569 582 569 511 _c
569 439 548 384 506 348 _c
464 311 402 293 321 293 _c
197 293 _l
197 0 _l
98 0 _l
98 729 _l
_cl}_d
/a{{613 0 60 -13 522 560 _sc
343 275 _m
270 275 220 266 192 250 _c
164 233 150 205 150 165 _c
150 133 160 107 181 89 _c
202 70 231 61 267 61 _c
317 61 357 78 387 114 _c
417 149 432 196 432 255 _c
432 275 _l
343 275 _l
522 312 _m
522 0 _l
432 0 _l
432 83 _l
411 49 385 25 355 10 _c
325 -5 287 -13 243 -13 _c
187 -13 142 2 109 33 _c
76 64 60 106 60 159 _c
}_e{60 220 80 266 122 298 _c
163 329 224 345 306 345 _c
432 345 _l
432 354 _l
432 395 418 427 391 450 _c
364 472 326 484 277 484 _c
245 484 215 480 185 472 _c
155 464 127 453 100 439 _c
100 522 _l
132 534 164 544 195 550 _c
226 556 256 560 286 560 _c
365 560 424 539 463 498 _c
502 457 522 395 522 312 _c
_cl}_e}_d
/b{{635 0 91 -13 580 760 _sc
487 273 _m
487 339 473 390 446 428 _c
418 466 381 485 334 485 _c
286 485 249 466 222 428 _c
194 390 181 339 181 273 _c
181 207 194 155 222 117 _c
249 79 286 61 334 61 _c
381 61 418 79 446 117 _c
473 155 487 207 487 273 _c
181 464 _m
199 496 223 520 252 536 _c
281 552 316 560 356 560 _c
422 560 476 533 518 481 _c
559 428 580 359 580 273 _c
}_e{580 187 559 117 518 65 _c
476 13 422 -13 356 -13 _c
316 -13 281 -5 252 10 _c
223 25 199 49 181 82 _c
181 0 _l
91 0 _l
91 760 _l
181 760 _l
181 464 _l
_cl}_e}_d
/c{{550 0 55 -13 488 560 _sc
488 526 _m
488 442 _l
462 456 437 466 411 473 _c
385 480 360 484 334 484 _c
276 484 230 465 198 428 _c
166 391 150 339 150 273 _c
150 206 166 154 198 117 _c
230 80 276 62 334 62 _c
360 62 385 65 411 72 _c
437 79 462 90 488 104 _c
488 21 _l
462 9 436 0 410 -5 _c
383 -10 354 -13 324 -13 _c
242 -13 176 12 128 64 _c
}_e{79 115 55 185 55 273 _c
55 362 79 432 128 483 _c
177 534 244 560 330 560 _c
358 560 385 557 411 551 _c
437 545 463 537 488 526 _c
_cl}_e}_d
/d{{635 0 55 -13 544 760 _sc
454 464 _m
454 760 _l
544 760 _l
544 0 _l
454 0 _l
454 82 _l
435 49 411 25 382 10 _c
353 -5 319 -13 279 -13 _c
213 -13 159 13 117 65 _c
75 117 55 187 55 273 _c
55 359 75 428 117 481 _c
159 533 213 560 279 560 _c
319 560 353 552 382 536 _c
411 520 435 496 454 464 _c
148 273 _m
148 207 161 155 188 117 _c
215 79 253 61 301 61 _c
}_e{348 61 385 79 413 117 _c
440 155 454 207 454 273 _c
454 339 440 390 413 428 _c
385 466 348 485 301 485 _c
253 485 215 466 188 428 _c
161 390 148 339 148 273 _c
_cl}_e}_d
/e{{615 0 55 -13 562 560 _sc
562 296 _m
562 252 _l
149 252 _l
153 190 171 142 205 110 _c
238 78 284 62 344 62 _c
378 62 412 66 444 74 _c
476 82 509 95 541 113 _c
541 28 _l
509 14 476 3 442 -3 _c
408 -9 373 -13 339 -13 _c
251 -13 182 12 131 62 _c
80 112 55 181 55 268 _c
55 357 79 428 127 481 _c
175 533 241 560 323 560 _c
397 560 455 536 498 489 _c
}_e{540 441 562 377 562 296 _c
472 322 _m
471 371 457 410 431 440 _c
404 469 368 484 324 484 _c
274 484 234 469 204 441 _c
174 413 156 373 152 322 _c
472 322 _l
_cl}_e}_d
/f{352 0 23 0 371 760 _sc
371 760 _m
371 685 _l
285 685 _l
253 685 230 678 218 665 _c
205 652 199 629 199 595 _c
199 547 _l
347 547 _l
347 477 _l
199 477 _l
199 0 _l
109 0 _l
109 477 _l
23 477 _l
23 547 _l
109 547 _l
109 585 _l
109 645 123 690 151 718 _c
179 746 224 760 286 760 _c
371 760 _l
_cl}_d
/h{634 0 91 0 549 760 _sc
549 330 _m
549 0 _l
459 0 _l
459 327 _l
459 379 448 417 428 443 _c
408 469 378 482 338 482 _c
289 482 251 466 223 435 _c
195 404 181 362 181 309 _c
181 0 _l
91 0 _l
91 760 _l
181 760 _l
181 462 _l
202 494 227 519 257 535 _c
286 551 320 560 358 560 _c
420 560 468 540 500 501 _c
532 462 549 405 549 330 _c
_cl}_d
/i{278 0 94 0 184 760 _sc
94 547 _m
184 547 _l
184 0 _l
94 0 _l
94 547 _l
94 760 _m
184 760 _l
184 646 _l
94 646 _l
94 760 _l
_cl}_d
/l{278 0 94 0 184 760 _sc
94 760 _m
184 760 _l
184 0 _l
94 0 _l
94 760 _l
_cl}_d
/m{{974 0 91 0 889 560 _sc
520 442 _m
542 482 569 511 600 531 _c
631 550 668 560 711 560 _c
767 560 811 540 842 500 _c
873 460 889 403 889 330 _c
889 0 _l
799 0 _l
799 327 _l
799 379 789 418 771 444 _c
752 469 724 482 686 482 _c
639 482 602 466 575 435 _c
548 404 535 362 535 309 _c
535 0 _l
445 0 _l
445 327 _l
445 379 435 418 417 444 _c
398 469 369 482 331 482 _c
}_e{285 482 248 466 221 435 _c
194 404 181 362 181 309 _c
181 0 _l
91 0 _l
91 547 _l
181 547 _l
181 462 _l
201 495 226 520 255 536 _c
283 552 317 560 357 560 _c
397 560 430 550 458 530 _c
486 510 506 480 520 442 _c
_cl}_e}_d
/n{634 0 91 0 549 560 _sc
549 330 _m
549 0 _l
459 0 _l
459 327 _l
459 379 448 417 428 443 _c
408 469 378 482 338 482 _c
289 482 251 466 223 435 _c
195 404 181 362 181 309 _c
181 0 _l
91 0 _l
91 547 _l
181 547 _l
181 462 _l
202 494 227 519 257 535 _c
286 551 320 560 358 560 _c
420 560 468 540 500 501 _c
532 462 549 405 549 330 _c
_cl}_d
/o{612 0 55 -13 557 560 _sc
306 484 _m
258 484 220 465 192 427 _c
164 389 150 338 150 273 _c
150 207 163 156 191 118 _c
219 80 257 62 306 62 _c
354 62 392 80 420 118 _c
448 156 462 207 462 273 _c
462 337 448 389 420 427 _c
392 465 354 484 306 484 _c
306 560 _m
384 560 445 534 490 484 _c
534 433 557 363 557 273 _c
557 183 534 113 490 63 _c
445 12 384 -13 306 -13 _c
227 -13 165 12 121 63 _c
77 113 55 183 55 273 _c
55 363 77 433 121 484 _c
165 534 227 560 306 560 _c
_cl}_d
/p{{635 0 91 -207 580 560 _sc
181 82 _m
181 -207 _l
91 -207 _l
91 547 _l
181 547 _l
181 464 _l
199 496 223 520 252 536 _c
281 552 316 560 356 560 _c
422 560 476 533 518 481 _c
559 428 580 359 580 273 _c
580 187 559 117 518 65 _c
476 13 422 -13 356 -13 _c
316 -13 281 -5 252 10 _c
223 25 199 49 181 82 _c
487 273 _m
487 339 473 390 446 428 _c
418 466 381 485 334 485 _c
}_e{286 485 249 466 222 428 _c
194 390 181 339 181 273 _c
181 207 194 155 222 117 _c
249 79 286 61 334 61 _c
381 61 418 79 446 117 _c
473 155 487 207 487 273 _c
_cl}_e}_d
/r{411 0 91 0 411 560 _sc
411 463 _m
401 469 390 473 378 476 _c
366 478 353 480 339 480 _c
288 480 249 463 222 430 _c
194 397 181 350 181 288 _c
181 0 _l
91 0 _l
91 547 _l
181 547 _l
181 462 _l
199 495 224 520 254 536 _c
284 552 321 560 365 560 _c
371 560 378 559 386 559 _c
393 558 401 557 411 555 _c
411 463 _l
_cl}_d
/s{{521 0 54 -13 472 560 _sc
443 531 _m
443 446 _l
417 458 391 468 364 475 _c
336 481 308 485 279 485 _c
234 485 200 478 178 464 _c
156 450 145 430 145 403 _c
145 382 153 366 169 354 _c
185 342 217 330 265 320 _c
296 313 _l
360 299 405 279 432 255 _c
458 230 472 195 472 151 _c
472 100 452 60 412 31 _c
372 1 316 -13 246 -13 _c
216 -13 186 -10 154 -5 _c
}_e{122 0 89 8 54 20 _c
54 113 _l
87 95 120 82 152 74 _c
184 65 216 61 248 61 _c
290 61 323 68 346 82 _c
368 96 380 117 380 144 _c
380 168 371 187 355 200 _c
339 213 303 226 247 238 _c
216 245 _l
160 257 119 275 95 299 _c
70 323 58 356 58 399 _c
58 450 76 490 112 518 _c
148 546 200 560 268 560 _c
301 560 332 557 362 552 _c
391 547 418 540 443 531 _c
}_e{_cl}_e}_d
/t{392 0 27 0 368 702 _sc
183 702 _m
183 547 _l
368 547 _l
368 477 _l
183 477 _l
183 180 _l
183 135 189 106 201 94 _c
213 81 238 75 276 75 _c
368 75 _l
368 0 _l
276 0 _l
206 0 158 13 132 39 _c
106 65 93 112 93 180 _c
93 477 _l
27 477 _l
27 547 _l
93 547 _l
93 702 _l
183 702 _l
_cl}_d
/u{634 0 85 -13 543 560 _sc
85 216 _m
85 547 _l
175 547 _l
175 219 _l
175 167 185 129 205 103 _c
225 77 255 64 296 64 _c
344 64 383 79 411 110 _c
439 141 453 183 453 237 _c
453 547 _l
543 547 _l
543 0 _l
453 0 _l
453 84 _l
431 50 405 26 377 10 _c
348 -5 315 -13 277 -13 _c
214 -13 166 6 134 45 _c
101 83 85 140 85 216 _c
311 560 _m
311 560 _l
_cl}_d
/v{592 0 30 0 562 547 _sc
30 547 _m
125 547 _l
296 88 _l
467 547 _l
562 547 _l
357 0 _l
235 0 _l
30 547 _l
_cl}_d
/w{818 0 42 0 776 547 _sc
42 547 _m
132 547 _l
244 120 _l
356 547 _l
462 547 _l
574 120 _l
686 547 _l
776 547 _l
633 0 _l
527 0 _l
409 448 _l
291 0 _l
185 0 _l
42 547 _l
_cl}_d
/x{592 0 29 0 559 547 _sc
549 547 _m
351 281 _l
559 0 _l
453 0 _l
294 215 _l
135 0 _l
29 0 _l
241 286 _l
47 547 _l
153 547 _l
298 352 _l
443 547 _l
549 547 _l
_cl}_d
/y{592 0 30 -207 562 547 _sc
322 -50 _m
296 -114 271 -157 247 -177 _c
223 -197 191 -207 151 -207 _c
79 -207 _l
79 -132 _l
132 -132 _l
156 -132 175 -126 189 -114 _c
203 -102 218 -75 235 -31 _c
251 9 _l
30 547 _l
125 547 _l
296 119 _l
467 547 _l
562 547 _l
322 -50 _l
_cl}_d
end readonly def

/BuildGlyph
 {exch begin
 CharStrings exch
 2 copy known not{pop /.notdef}if
 true 3 1 roll get exec
 end}_d

/BuildChar {
 1 index /Encoding get exch get
 1 index /BuildGlyph get exec
}_d

FontName currentdict end definefont pop
end
%%EndProlog
mpldict begin
34.92 200.88 translate
542.16 390.24 0 0 clipbox
gsave
0 0 m
542.16 0 l
542.16 390.24 l
0 390.24 l
cl
1.000 setgray
fill
grestore
gsave
67.77 42.9264 m
487.944 42.9264 l
487.944 343.4112 l
67.77 343.4112 l
cl
0.898 setgray
fill
grestore
0.800 setlinewidth
1 setlinejoin
2 setlinecap
[] 0 setdash
1.000 setgray
gsave
420.2 300.5 67.77 42.93 clipbox
85.334777 42.9264 m
85.334777 343.4112 l
stroke
grestore
0 setlinecap
0.333 setgray
gsave
/o {
gsave
newpath
translate
0.8 setlinewidth
1 setlinejoin
0 setlinecap
0 0 m
0 -3.5 l

gsave
0.333 setgray
fill
grestore
stroke
grestore
} bind def
85.3348 42.9264 o
grestore
/DejaVuSans findfont
10.000 scalefont
setfont
gsave
82.155089 28.332650 translate
0.000000 rotate
0.000000 0.000000 m /zero glyphshow
grestore
2 setlinecap
1.000 setgray
gsave
420.2 300.5 67.77 42.93 clipbox
162.036858 42.9264 m
162.036858 343.4112 l
stroke
grestore
0 setlinecap
0.333 setgray
gsave
/o {
gsave
newpath
translate
0.8 setlinewidth
1 setlinejoin
0 setlinecap
0 0 m
0 -3.5 l

gsave
0.333 setgray
fill
grestore
stroke
grestore
} bind def
162.037 42.9264 o
grestore
gsave
155.677483 28.332650 translate
0.000000 rotate
0.000000 0.000000 m /five glyphshow
6.362305 0.000000 m /zero glyphshow
grestore
2 setlinecap
1.000 setgray
gsave
420.2 300.5 67.77 42.93 clipbox
238.738939 42.9264 m
238.738939 343.4112 l
stroke
grestore
0 setlinecap
0.333 setgray
gsave
/o {
gsave
newpath
translate
0.8 setlinewidth
1 setlinejoin
0 setlinecap
0 0 m
0 -3.5 l

gsave
0.333 setgray
fill
grestore
stroke
grestore
} bind def
238.739 42.9264 o
grestore
gsave
229.199876 28.332650 translate
0.000000 rotate
0.000000 0.000000 m /one glyphshow
6.362305 0.000000 m /zero glyphshow
12.724609 0.000000 m /zero glyphshow
grestore
2 setlinecap
1.000 setgray
gsave
420.2 300.5 67.77 42.93 clipbox
315.44102 42.9264 m
315.44102 343.4112 l
stroke
grestore
0 setlinecap
0.333 setgray
gsave
/o {
gsave
newpath
translate
0.8 setlinewidth
1 setlinejoin
0 setlinecap
0 0 m
0 -3.5 l

gsave
0.333 setgray
fill
grestore
stroke
grestore
} bind def
315.441 42.9264 o
grestore
gsave
305.901957 28.332650 translate
0.000000 rotate
0.000000 0.000000 m /one glyphshow
6.362305 0.000000 m /five glyphshow
12.724609 0.000000 m /zero glyphshow
grestore
2 setlinecap
1.000 setgray
gsave
420.2 300.5 67.77 42.93 clipbox
392.143101 42.9264 m
392.143101 343.4112 l
stroke
grestore
0 setlinecap
0.333 setgray
gsave
/o {
gsave
newpath
translate
0.8 setlinewidth
1 setlinejoin
0 setlinecap
0 0 m
0 -3.5 l

gsave
0.333 setgray
fill
grestore
stroke
grestore
} bind def
392.143 42.9264 o
grestore
gsave
382.604038 28.332650 translate
0.000000 rotate
0.000000 0.000000 m /two glyphshow
6.362305 0.000000 m /zero glyphshow
12.724609 0.000000 m /zero glyphshow
grestore
2 setlinecap
1.000 setgray
gsave
420.2 300.5 67.77 42.93 clipbox
468.845182 42.9264 m
468.845182 343.4112 l
stroke
grestore
0 setlinecap
0.333 setgray
gsave
/o {
gsave
newpath
translate
0.8 setlinewidth
1 setlinejoin
0 setlinecap
0 0 m
0 -3.5 l

gsave
0.333 setgray
fill
grestore
stroke
grestore
} bind def
468.845 42.9264 o
grestore
gsave
459.306119 28.332650 translate
0.000000 rotate
0.000000 0.000000 m /two glyphshow
6.362305 0.000000 m /five glyphshow
12.724609 0.000000 m /zero glyphshow
grestore
/DejaVuSans findfont
16.000 scalefont
setfont
gsave
206.380437 10.098275 translate
0.000000 rotate
0.000000 0.000000 m /N glyphshow
11.968750 0.000000 m /u glyphshow
22.109375 0.000000 m /m glyphshow
37.695312 0.000000 m /b glyphshow
47.851562 0.000000 m /e glyphshow
57.695312 0.000000 m /r glyphshow
64.273438 0.000000 m /space glyphshow
69.359375 0.000000 m /o glyphshow
79.148438 0.000000 m /f glyphshow
84.781250 0.000000 m /space glyphshow
89.867188 0.000000 m /m glyphshow
105.453125 0.000000 m /o glyphshow
115.242188 0.000000 m /v glyphshow
124.710938 0.000000 m /e glyphshow
134.554688 0.000000 m /s glyphshow
grestore
2 setlinecap
1.000 setgray
gsave
420.2 300.5 67.77 42.93 clipbox
67.77 56.5848 m
487.944 56.5848 l
stroke
grestore
0 setlinecap
0.333 setgray
gsave
/o {
gsave
newpath
translate
0.8 setlinewidth
1 setlinejoin
0 setlinecap
0 0 m
-3.5 0 l

gsave
0.333 setgray
fill
grestore
stroke
grestore
} bind def
67.77 56.5848 o
grestore
/DejaVuSans findfont
10.000 scalefont
setfont
gsave
38.504375 52.787925 translate
0.000000 rotate
0.000000 0.000000 m /zero glyphshow
6.362305 0.000000 m /period glyphshow
9.541016 0.000000 m /zero glyphshow
15.903320 0.000000 m /zero glyphshow
grestore
2 setlinecap
1.000 setgray
gsave
420.2 300.5 67.77 42.93 clipbox
67.77 121.323874 m
487.944 121.323874 l
stroke
grestore
0 setlinecap
0.333 setgray
gsave
/o {
gsave
newpath
translate
0.8 setlinewidth
1 setlinejoin
0 setlinecap
0 0 m
-3.5 0 l

gsave
0.333 setgray
fill
grestore
stroke
grestore
} bind def
67.77 121.324 o
grestore
gsave
38.504375 117.526999 translate
0.000000 rotate
0.000000 0.000000 m /zero glyphshow
6.362305 0.000000 m /period glyphshow
9.541016 0.000000 m /zero glyphshow
15.903320 0.000000 m /two glyphshow
grestore
2 setlinecap
1.000 setgray
gsave
420.2 300.5 67.77 42.93 clipbox
67.77 186.062947 m
487.944 186.062947 l
stroke
grestore
0 setlinecap
0.333 setgray
gsave
/o {
gsave
newpath
translate
0.8 setlinewidth
1 setlinejoin
0 setlinecap
0 0 m
-3.5 0 l

gsave
0.333 setgray
fill
grestore
stroke
grestore
} bind def
67.77 186.063 o
grestore
gsave
38.504375 182.266072 translate
0.000000 rotate
0.000000 0.000000 m /zero glyphshow
6.362305 0.000000 m /period glyphshow
9.541016 0.000000 m /zero glyphshow
15.903320 0.000000 m /four glyphshow
grestore
2 setlinecap
1.000 setgray
gsave
420.2 300.5 67.77 42.93 clipbox
67.77 250.802021 m
487.944 250.802021 l
stroke
grestore
0 setlinecap
0.333 setgray
gsave
/o {
gsave
newpath
translate
0.8 setlinewidth
1 setlinejoin
0 setlinecap
0 0 m
-3.5 0 l

gsave
0.333 setgray
fill
grestore
stroke
grestore
} bind def
67.77 250.802 o
grestore
gsave
38.504375 247.005146 translate
0.000000 rotate
0.000000 0.000000 m /zero glyphshow
6.362305 0.000000 m /period glyphshow
9.541016 0.000000 m /zero glyphshow
15.903320 0.000000 m /six glyphshow
grestore
2 setlinecap
1.000 setgray
gsave
420.2 300.5 67.77 42.93 clipbox
67.77 315.541095 m
487.944 315.541095 l
stroke
grestore
0 setlinecap
0.333 setgray
gsave
/o {
gsave
newpath
translate
0.8 setlinewidth
1 setlinejoin
0 setlinecap
0 0 m
-3.5 0 l

gsave
0.333 setgray
fill
grestore
stroke
grestore
} bind def
67.77 315.541 o
grestore
gsave
38.504375 311.744220 translate
0.000000 rotate
0.000000 0.000000 m /zero glyphshow
6.362305 0.000000 m /period glyphshow
9.541016 0.000000 m /zero glyphshow
15.903320 0.000000 m /eight glyphshow
grestore
/DejaVuSans findfont
16.000 scalefont
setfont
gsave
31.176250 83.403175 translate
90.000000 rotate
0.000000 0.000000 m /P glyphshow
9.648438 0.000000 m /r glyphshow
16.226562 0.000000 m /o glyphshow
26.015625 0.000000 m /b glyphshow
36.171875 0.000000 m /a glyphshow
45.976562 0.000000 m /b glyphshow
56.132812 0.000000 m /i glyphshow
60.578125 0.000000 m /l glyphshow
65.023438 0.000000 m /i glyphshow
69.468750 0.000000 m /t glyphshow
75.742188 0.000000 m /y glyphshow
85.210938 0.000000 m /space glyphshow
90.296875 0.000000 m /d glyphshow
100.453125 0.000000 m /e glyphshow
110.296875 0.000000 m /n glyphshow
120.437500 0.000000 m /s glyphshow
128.773438 0.000000 m /i glyphshow
133.218750 0.000000 m /t glyphshow
139.492188 0.000000 m /y glyphshow
148.960938 0.000000 m /space glyphshow
154.046875 0.000000 m /f glyphshow
159.679688 0.000000 m /u glyphshow
169.820312 0.000000 m /n glyphshow
179.960938 0.000000 m /c glyphshow
188.757812 0.000000 m /t glyphshow
195.031250 0.000000 m /i glyphshow
199.476562 0.000000 m /o glyphshow
209.265625 0.000000 m /n glyphshow
grestore
1.500 setlinewidth
2 setlinecap
0.886 0.290 0.200 setrgbcolor
gsave
420.2 300.5 67.77 42.93 clipbox
86.868818 56.5848 m
131.356025 56.688932 l
132.890067 57.272738 l
134.424108 59.797058 l
135.95815 67.806747 l
137.492192 87.163604 l
139.026233 123.67028 l
140.560275 178.053004 l
142.094317 241.745422 l
143.628358 298.089763 l
145.1624 329.7528 l
146.696441 327.579 l
148.230483 294.639842 l
152.832608 140.585138 l
154.36665 105.334546 l
155.900691 82.442852 l
157.434733 69.173396 l
158.968774 62.230741 l
160.502816 58.925326 l
162.036858 57.484284 l
163.570899 56.90611 l
165.104941 56.691737 l
168.173024 56.594459 l
185.047482 56.62681 l
186.581524 56.72085 l
188.115565 56.974458 l
189.649607 57.579935 l
191.183648 58.867471 l
192.71769 61.318038 l
194.251732 65.507876 l
195.785773 71.957184 l
197.319815 80.898171 l
198.853857 92.036856 l
201.92194 116.530182 l
203.455981 126.560616 l
204.990023 132.900402 l
206.524065 134.551561 l
208.058106 131.385187 l
209.592148 124.128202 l
211.126189 114.110327 l
214.194273 91.866167 l
215.728314 82.081054 l
217.262356 74.085844 l
218.796398 68.012245 l
220.330439 63.692546 l
221.864481 60.801518 l
223.398522 58.973736 l
224.932564 57.87875 l
226.466606 57.255579 l
228.000647 56.917942 l
231.068731 56.657342 l
237.204897 56.588844 l
243.341064 56.672073 l
246.409147 56.971081 l
247.943188 57.323038 l
249.47723 57.912157 l
251.011272 58.834937 l
252.545313 60.188363 l
254.079355 62.047065 l
255.613396 64.435262 l
257.147438 67.300404 l
261.749563 76.886099 l
263.283605 79.462099 l
264.817646 81.239013 l
266.351688 82.023115 l
267.885729 81.742741 l
269.419771 80.457718 l
270.953813 78.342383 l
272.487854 75.648196 l
277.089979 66.79609 l
278.624021 64.292488 l
280.158062 62.200775 l
281.692104 60.537475 l
283.226146 59.273953 l
284.760187 58.354419 l
286.294229 57.711879 l
287.828271 57.279993 l
290.896354 56.825762 l
293.964437 56.660098 l
300.100604 56.623138 l
304.702728 56.79309 l
307.770812 57.148108 l
309.304853 57.455564 l
310.838895 57.877467 l
312.372936 58.429375 l
313.906978 59.117141 l
316.975061 60.849844 l
321.577186 63.707237 l
323.111228 64.473105 l
324.645269 65.035616 l
326.179311 65.347848 l
327.713353 65.385637 l
329.247394 65.15054 l
330.781436 64.66883 l
332.315478 63.986877 l
335.383561 62.264302 l
338.451644 60.46976 l
341.519727 58.962795 l
344.587811 57.891888 l
347.655894 57.232176 l
350.723977 56.875127 l
355.326102 56.662714 l
361.462268 56.649 l
366.064393 56.800923 l
370.666518 57.20171 l
375.268643 57.931858 l
382.938851 59.387675 l
386.006934 59.696778 l
389.075018 59.702739 l
392.143101 59.412427 l
396.745226 58.623311 l
402.881392 57.538464 l
407.483517 57.012784 l
412.085642 56.745136 l
418.221808 56.631426 l
425.892016 56.698449 l
432.028183 56.931898 l
447.368599 57.734251 l
451.970724 57.660284 l
459.640932 57.226925 l
467.31114 56.822031 l
468.845182 56.768963 l
468.845182 56.768963 l
stroke
grestore
0.204 0.541 0.741 setrgbcolor
gsave
420.2 300.5 67.77 42.93 clipbox
86.868818 56.5848 m
131.356025 56.651839 l
132.890067 57.011047 l
134.424108 58.51283 l
135.95815 63.145384 l
137.492192 74.081141 l
139.026233 94.314983 l
140.560275 124.007631 l
142.094317 158.408373 l
143.628358 188.657953 l
145.1624 205.705301 l
146.696441 204.81774 l
148.230483 187.579835 l
149.764525 160.366605 l
151.298566 130.842903 l
152.832608 104.885813 l
154.36665 85.312134 l
155.900691 72.290559 l
157.434733 64.516282 l
158.968774 60.301355 l
160.502816 58.207604 l
162.036858 57.247785 l
163.570899 56.839239 l
166.638982 56.616362 l
175.843232 56.584822 l
186.581524 56.690285 l
188.115565 56.888594 l
189.649607 57.365775 l
191.183648 58.389947 l
192.71769 60.360513 l
194.251732 63.772517 l
195.785773 69.102574 l
197.319815 76.621529 l
198.853857 86.18674 l
201.92194 108.155825 l
203.455981 117.807848 l
204.990023 124.580924 l
206.524065 127.428106 l
208.058106 126.000363 l
209.592148 120.702534 l
211.126189 112.536474 l
215.728314 83.550166 l
217.262356 75.694146 l
218.796398 69.495075 l
220.330439 64.912712 l
221.864481 61.721408 l
223.398522 59.618386 l
224.932564 58.302512 l
226.466606 57.518507 l
228.000647 57.072631 l
229.534689 56.830072 l
232.602772 56.640351 l
238.738939 56.59249 l
243.341064 56.6804 l
246.409147 57.022033 l
247.943188 57.435149 l
249.47723 58.141544 l
251.011272 59.273289 l
252.545313 60.973658 l
254.079355 63.370154 l
255.613396 66.537627 l
257.147438 70.458814 l
260.215521 79.869204 l
261.749563 84.699383 l
263.283605 89.03402 l
264.817646 92.430045 l
266.351688 94.528014 l
267.885729 95.115485 l
269.419771 94.161639 l
270.953813 91.81567 l
272.487854 88.371413 l
275.555938 79.729844 l
278.624021 71.194093 l
280.158062 67.608807 l
281.692104 64.630804 l
283.226146 62.269028 l
284.760187 60.474553 l
286.294229 59.164866 l
287.828271 58.244735 l
289.362312 57.621388 l
290.896354 57.213663 l
293.964437 56.799241 l
297.03252 56.66105 l
301.634645 56.699204 l
304.702728 56.943127 l
306.23677 57.198484 l
307.770812 57.595431 l
309.304853 58.183323 l
310.838895 59.014272 l
312.372936 60.135608 l
313.906978 61.579989 l
315.44102 63.354508 l
316.975061 65.430899 l
320.043145 70.168465 l
323.111228 74.782953 l
324.645269 76.633761 l
326.179311 77.976966 l
327.713353 78.705366 l
329.247394 78.766064 l
330.781436 78.16648 l
332.315478 76.971375 l
333.849519 75.291873 l
335.383561 73.268959 l
341.519727 64.606975 l
343.053769 62.837024 l
344.587811 61.33458 l
346.121852 60.103665 l
347.655894 59.128246 l
349.189935 58.379398 l
350.723977 57.821851 l
352.258019 57.419253 l
355.326102 56.949324 l
358.394185 56.767693 l
361.462268 56.777035 l
364.530352 56.984287 l
367.598435 57.48667 l
369.132476 57.895818 l
370.666518 58.437076 l
372.20056 59.126357 l
373.734601 59.971859 l
375.268643 60.970427 l
378.336726 63.341082 l
382.938851 67.115383 l
384.472893 68.167824 l
386.006934 69.003218 l
387.540976 69.567515 l
389.075018 69.824998 l
390.609059 69.761992 l
392.143101 69.387914 l
393.677142 68.73359 l
395.211184 67.847199 l
398.279267 65.62277 l
402.881392 62.08659 l
405.949475 60.13515 l
407.483517 59.349445 l
409.017559 58.694679 l
412.085642 57.74593 l
415.153725 57.189816 l
418.221808 56.916829 l
421.289892 56.85158 l
424.357975 56.971109 l
427.426058 57.301847 l
430.494141 57.898182 l
433.562225 58.804634 l
436.630308 60.009581 l
444.300516 63.415195 l
445.834558 63.931278 l
447.368599 64.321669 l
448.902641 64.565226 l
450.436682 64.649367 l
451.970724 64.571116 l
453.504766 64.337202 l
455.038807 63.963187 l
458.10689 62.890751 l
467.31114 59.100344 l
468.845182 58.61255 l
468.845182 58.61255 l
stroke
grestore
0.596 0.557 0.835 setrgbcolor
gsave
420.2 300.5 67.77 42.93 clipbox
86.868818 56.5848 m
131.356025 56.652508 l
132.890067 57.018479 l
134.424108 58.566024 l
135.95815 63.413292 l
137.492192 75.090084 l
139.026233 97.284594 l
140.560275 131.071299 l
143.628358 211.970356 l
145.1624 239.32505 l
146.696441 247.249548 l
148.230483 235.047768 l
149.764525 207.963424 l
152.832608 140.729633 l
154.36665 112.715332 l
155.900691 91.757678 l
157.434733 77.46892 l
158.968774 68.436076 l
160.502816 63.066914 l
162.036858 60.029504 l
163.570899 58.376398 l
165.104941 57.502527 l
166.638982 57.050144 l
168.173024 56.819262 l
171.241107 56.64376 l
178.911315 56.586704 l
186.581524 56.671132 l
188.115565 56.833256 l
189.649607 57.224748 l
191.183648 58.070362 l
192.71769 59.713133 l
194.251732 62.596072 l
195.785773 67.181298 l
197.319815 73.803601 l
198.853857 82.491434 l
201.92194 103.886541 l
203.455981 114.407679 l
204.990023 122.997989 l
206.524065 128.478345 l
208.058106 130.152411 l
209.592148 127.946892 l
211.126189 122.382166 l
212.660231 114.400701 l
217.262356 86.72329 l
218.796398 78.983926 l
220.330439 72.646952 l
221.864481 67.724687 l
223.398522 64.075069 l
224.932564 61.478994 l
226.466606 59.699728 l
228.000647 58.52032 l
229.534689 57.761608 l
231.068731 57.286446 l
232.602772 56.995909 l
235.670855 56.720123 l
240.27298 56.618162 l
244.875105 56.722479 l
246.409147 56.864965 l
247.943188 57.129332 l
249.47723 57.586752 l
251.011272 58.329208 l
252.545313 59.462417 l
254.079355 61.090744 l
255.613396 63.294514 l
257.147438 66.103111 l
258.68148 69.470034 l
264.817646 84.553226 l
266.351688 87.247267 l
267.885729 88.948512 l
269.419771 89.514366 l
270.953813 88.92475 l
272.487854 87.278861 l
274.021896 84.772248 l
275.555938 81.660821 l
280.158062 71.345714 l
281.692104 68.283301 l
283.226146 65.617702 l
284.760187 63.387606 l
286.294229 61.587375 l
287.828271 60.180829 l
289.362312 59.114428 l
290.896354 58.328147 l
292.430395 57.763323 l
293.964437 57.367545 l
297.03252 56.917669 l
300.100604 56.739701 l
303.168687 56.730246 l
306.23677 56.906532 l
309.304853 57.400064 l
310.838895 57.833023 l
312.372936 58.431074 l
313.906978 59.220919 l
315.44102 60.219258 l
316.975061 61.426778 l
320.043145 64.364101 l
324.645269 69.090425 l
326.179311 70.383322 l
327.713353 71.379982 l
329.247394 72.01218 l
330.781436 72.240232 l
332.315478 72.05692 l
333.849519 71.487058 l
335.383561 70.583011 l
336.917602 69.417198 l
339.985686 66.635369 l
343.053769 63.782713 l
346.121852 61.323126 l
347.655894 60.315715 l
349.189935 59.466903 l
350.723977 58.770627 l
352.258019 58.213716 l
355.326102 57.447895 l
358.394185 57.026935 l
361.462268 56.837528 l
364.530352 56.820661 l
367.598435 56.976045 l
370.666518 57.351009 l
373.734601 58.011978 l
376.802685 58.998271 l
379.870768 60.270522 l
386.006934 62.98461 l
387.540976 63.512517 l
389.075018 63.917045 l
390.609059 64.176045 l
392.143101 64.276471 l
393.677142 64.215419 l
395.211184 64.000075 l
396.745226 63.64664 l
399.813309 62.623405 l
409.017559 59.017491 l
412.085642 58.155503 l
415.153725 57.541747 l
418.221808 57.145374 l
422.823933 56.86484 l
427.426058 56.876929 l
432.028183 57.173236 l
436.630308 57.785984 l
441.232433 58.669333 l
447.368599 59.881898 l
450.436682 60.283646 l
453.504766 60.442966 l
456.572849 60.336139 l
459.640932 59.993399 l
464.243057 59.199135 l
468.845182 58.330827 l
468.845182 58.330827 l
stroke
grestore
1.000 setlinewidth
0 setlinejoin
[] 0 setdash
0.000 setgray
gsave
67.77 42.9264 m
67.77 343.4112 l
stroke
grestore
gsave
487.944 42.9264 m
487.944 343.4112 l
stroke
grestore
gsave
67.77 42.9264 m
487.944 42.9264 l
stroke
grestore
gsave
67.77 343.4112 m
487.944 343.4112 l
stroke
grestore
/DejaVuSans findfont
18.000 scalefont
setfont
gsave
154.247625 369.567450 translate
0.000000 rotate
0.000000 0.000000 m /C glyphshow
12.568359 0.000000 m /o glyphshow
23.581055 0.000000 m /m glyphshow
41.115234 0.000000 m /p glyphshow
52.541016 0.000000 m /a glyphshow
63.571289 0.000000 m /r glyphshow
70.971680 0.000000 m /i glyphshow
75.972656 0.000000 m /s glyphshow
85.350586 0.000000 m /o glyphshow
96.363281 0.000000 m /n glyphshow
107.771484 0.000000 m /space glyphshow
113.493164 0.000000 m /b glyphshow
124.918945 0.000000 m /e glyphshow
135.993164 0.000000 m /t glyphshow
143.050781 0.000000 m /w glyphshow
157.772461 0.000000 m /e glyphshow
168.846680 0.000000 m /e glyphshow
179.920898 0.000000 m /n glyphshow
191.329102 0.000000 m /space glyphshow
197.050781 0.000000 m /P glyphshow
207.905273 0.000000 m /D glyphshow
221.765625 0.000000 m /F glyphshow
232.119141 0.000000 m /s glyphshow
241.497070 0.000000 m /space glyphshow
grestore
gsave
176.630437 349.411200 translate
0.000000 rotate
0.000000 0.000000 m /f glyphshow
6.336914 0.000000 m /o glyphshow
17.349609 0.000000 m /r glyphshow
24.750000 0.000000 m /space glyphshow
30.471680 0.000000 m /e glyphshow
41.545898 0.000000 m /a glyphshow
52.576172 0.000000 m /c glyphshow
62.472656 0.000000 m /h glyphshow
73.880859 0.000000 m /space glyphshow
79.602539 0.000000 m /e glyphshow
90.676758 0.000000 m /n glyphshow
102.084961 0.000000 m /d glyphshow
113.510742 0.000000 m /space glyphshow
119.232422 0.000000 m /c glyphshow
129.128906 0.000000 m /o glyphshow
140.141602 0.000000 m /n glyphshow
151.549805 0.000000 m /d glyphshow
162.975586 0.000000 m /i glyphshow
167.976562 0.000000 m /t glyphshow
175.034180 0.000000 m /i glyphshow
180.035156 0.000000 m /o glyphshow
191.047852 0.000000 m /n glyphshow
grestore
0.500 setlinewidth
0 setlinecap
0.800 setgray
gsave
381.109625 270.570575 m
478.144 270.570575 l
480.010667 270.570575 480.944 271.503908 480.944 273.370575 c
480.944 333.6112 l
480.944 335.477867 480.010667 336.4112 478.144 336.4112 c
381.109625 336.4112 l
379.242958 336.4112 378.309625 335.477867 378.309625 333.6112 c
378.309625 273.370575 l
378.309625 271.503908 379.242958 270.570575 381.109625 270.570575 c
cl
gsave
0.898 setgray
fill
grestore
stroke
grestore
1.500 setlinewidth
1 setlinejoin
2 setlinecap
[] 0 setdash
0.886 0.290 0.200 setrgbcolor
gsave
383.909625 325.070575 m
411.909625 325.070575 l
stroke
grestore
0.000 setgray
/DejaVuSans findfont
14.000 scalefont
setfont
gsave
423.109625 320.170575 translate
0.000000 rotate
0.000000 0.000000 m /O glyphshow
11.019531 0.000000 m /v glyphshow
19.304688 0.000000 m /e glyphshow
27.917969 0.000000 m /r glyphshow
grestore
0.204 0.541 0.741 setrgbcolor
gsave
383.909625 304.5237 m
411.909625 304.5237 l
stroke
grestore
0.000 setgray
gsave
423.109625 299.623700 translate
0.000000 rotate
0.000000 0.000000 m /B glyphshow
9.604492 0.000000 m /o glyphshow
18.169922 0.000000 m /u glyphshow
27.042969 0.000000 m /n glyphshow
35.916016 0.000000 m /c glyphshow
43.613281 0.000000 m /e glyphshow
grestore
0.596 0.557 0.835 setrgbcolor
gsave
383.909625 283.976825 m
411.909625 283.976825 l
stroke
grestore
0.000 setgray
gsave
423.109625 279.076825 translate
0.000000 rotate
0.000000 0.000000 m /E glyphshow
8.845703 0.000000 m /x glyphshow
17.130859 0.000000 m /a glyphshow
25.709961 0.000000 m /c glyphshow
33.407227 0.000000 m /t glyphshow
grestore

end
showpage
