%!PS-Adobe-3.0 EPSF-3.0
%%Title: Sample/Figures/DefaultBoard.eps
%%Creator: matplotlib version 3.0.2, http://matplotlib.org/
%%CreationDate: Thu Jan  3 15:38:39 2019
%%Orientation: portrait
%%BoundingBox: 75 223 536 568
%%EndComments
%%BeginProlog
/mpldict 8 dict def
mpldict begin
/m { moveto } bind def
/l { lineto } bind def
/r { rlineto } bind def
/c { curveto } bind def
/cl { closepath } bind def
/box {
m
1 index 0 r
0 exch r
neg 0 r
cl
} bind def
/clipbox {
box
clip
newpath
} bind def
%!PS-Adobe-3.0 Resource-Font
%%Title: DejaVu Sans
%%Copyright: Copyright (c) 2003 by Bitstream, Inc. All Rights Reserved. Copyright (c) 2006 by Tavmjong Bah. All Rights Reserved. DejaVu changes are in public domain 
%%Creator: Converted from TrueType to type 3 by PPR
25 dict begin
/_d{bind def}bind def
/_m{moveto}_d
/_l{lineto}_d
/_cl{closepath eofill}_d
/_c{curveto}_d
/_sc{7 -1 roll{setcachedevice}{pop pop pop pop pop pop}ifelse}_d
/_e{exec}_d
/FontName /DejaVuSans def
/PaintType 0 def
/FontMatrix[.001 0 0 .001 0 0]def
/FontBBox[-1021 -463 1793 1232]def
/FontType 3 def
/Encoding [ /zero /one /two /three /four /five /six /seven /eight /nine ] def
/FontInfo 10 dict dup begin
/FamilyName (DejaVu Sans) def
/FullName (DejaVu Sans) def
/Notice (Copyright (c) 2003 by Bitstream, Inc. All Rights Reserved. Copyright (c) 2006 by Tavmjong Bah. All Rights Reserved. DejaVu changes are in public domain ) def
/Weight (Book) def
/Version (Version 2.35) def
/ItalicAngle 0.0 def
/isFixedPitch false def
/UnderlinePosition -130 def
/UnderlineThickness 90 def
end readonly def
/CharStrings 11 dict dup begin
/.notdef 0 def
/zero{636 0 66 -13 570 742 _sc
318 664 _m
267 664 229 639 203 589 _c
177 539 165 464 165 364 _c
165 264 177 189 203 139 _c
229 89 267 64 318 64 _c
369 64 407 89 433 139 _c
458 189 471 264 471 364 _c
471 464 458 539 433 589 _c
407 639 369 664 318 664 _c
318 742 _m
399 742 461 709 505 645 _c
548 580 570 486 570 364 _c
570 241 548 147 505 83 _c
461 19 399 -13 318 -13 _c
236 -13 173 19 130 83 _c
87 147 66 241 66 364 _c
66 486 87 580 130 645 _c
173 709 236 742 318 742 _c
_cl}_d
/one{636 0 110 0 544 729 _sc
124 83 _m
285 83 _l
285 639 _l
110 604 _l
110 694 _l
284 729 _l
383 729 _l
383 83 _l
544 83 _l
544 0 _l
124 0 _l
124 83 _l
_cl}_d
/two{{636 0 73 0 536 742 _sc
192 83 _m
536 83 _l
536 0 _l
73 0 _l
73 83 _l
110 121 161 173 226 239 _c
290 304 331 346 348 365 _c
380 400 402 430 414 455 _c
426 479 433 504 433 528 _c
433 566 419 598 392 622 _c
365 646 330 659 286 659 _c
255 659 222 653 188 643 _c
154 632 117 616 78 594 _c
78 694 _l
118 710 155 722 189 730 _c
223 738 255 742 284 742 _c
}_e{359 742 419 723 464 685 _c
509 647 532 597 532 534 _c
532 504 526 475 515 449 _c
504 422 484 390 454 354 _c
446 344 420 317 376 272 _c
332 227 271 164 192 83 _c
_cl}_e}_d
/three{{636 0 76 -13 556 742 _sc
406 393 _m
453 383 490 362 516 330 _c
542 298 556 258 556 212 _c
556 140 531 84 482 45 _c
432 6 362 -13 271 -13 _c
240 -13 208 -10 176 -4 _c
144 1 110 10 76 22 _c
76 117 _l
103 101 133 89 166 81 _c
198 73 232 69 268 69 _c
330 69 377 81 409 105 _c
441 129 458 165 458 212 _c
458 254 443 288 413 312 _c
383 336 341 349 287 349 _c
}_e{202 349 _l
202 430 _l
291 430 _l
339 430 376 439 402 459 _c
428 478 441 506 441 543 _c
441 580 427 609 401 629 _c
374 649 336 659 287 659 _c
260 659 231 656 200 650 _c
169 644 135 635 98 623 _c
98 711 _l
135 721 170 729 203 734 _c
235 739 266 742 296 742 _c
370 742 429 725 473 691 _c
517 657 539 611 539 553 _c
539 513 527 479 504 451 _c
481 423 448 403 406 393 _c
_cl}_e}_d
/four{636 0 49 0 580 729 _sc
378 643 _m
129 254 _l
378 254 _l
378 643 _l
352 729 _m
476 729 _l
476 254 _l
580 254 _l
580 172 _l
476 172 _l
476 0 _l
378 0 _l
378 172 _l
49 172 _l
49 267 _l
352 729 _l
_cl}_d
/five{{636 0 77 -13 549 729 _sc
108 729 _m
495 729 _l
495 646 _l
198 646 _l
198 467 _l
212 472 227 476 241 478 _c
255 480 270 482 284 482 _c
365 482 429 459 477 415 _c
525 370 549 310 549 234 _c
549 155 524 94 475 51 _c
426 8 357 -13 269 -13 _c
238 -13 207 -10 175 -6 _c
143 -1 111 6 77 17 _c
77 116 _l
106 100 136 88 168 80 _c
199 72 232 69 267 69 _c
}_e{323 69 368 83 401 113 _c
433 143 450 183 450 234 _c
450 284 433 324 401 354 _c
368 384 323 399 267 399 _c
241 399 214 396 188 390 _c
162 384 135 375 108 363 _c
108 729 _l
_cl}_e}_d
/six{{636 0 70 -13 573 742 _sc
330 404 _m
286 404 251 388 225 358 _c
199 328 186 286 186 234 _c
186 181 199 139 225 109 _c
251 79 286 64 330 64 _c
374 64 409 79 435 109 _c
461 139 474 181 474 234 _c
474 286 461 328 435 358 _c
409 388 374 404 330 404 _c
526 713 _m
526 623 _l
501 635 476 644 451 650 _c
425 656 400 659 376 659 _c
310 659 260 637 226 593 _c
}_e{192 549 172 482 168 394 _c
187 422 211 444 240 459 _c
269 474 301 482 336 482 _c
409 482 467 459 509 415 _c
551 371 573 310 573 234 _c
573 159 550 99 506 54 _c
462 9 403 -13 330 -13 _c
246 -13 181 19 137 83 _c
92 147 70 241 70 364 _c
70 479 97 571 152 639 _c
206 707 280 742 372 742 _c
396 742 421 739 447 735 _c
472 730 498 723 526 713 _c
_cl}_e}_d
/seven{636 0 82 0 551 729 _sc
82 729 _m
551 729 _l
551 687 _l
286 0 _l
183 0 _l
432 646 _l
82 646 _l
82 729 _l
_cl}_d
/eight{{636 0 68 -13 568 742 _sc
318 346 _m
271 346 234 333 207 308 _c
180 283 167 249 167 205 _c
167 161 180 126 207 101 _c
234 76 271 64 318 64 _c
364 64 401 76 428 102 _c
455 127 469 161 469 205 _c
469 249 455 283 429 308 _c
402 333 365 346 318 346 _c
219 388 _m
177 398 144 418 120 447 _c
96 476 85 511 85 553 _c
85 611 105 657 147 691 _c
188 725 245 742 318 742 _c
}_e{390 742 447 725 489 691 _c
530 657 551 611 551 553 _c
551 511 539 476 515 447 _c
491 418 459 398 417 388 _c
464 377 501 355 528 323 _c
554 291 568 251 568 205 _c
568 134 546 80 503 43 _c
459 5 398 -13 318 -13 _c
237 -13 175 5 132 43 _c
89 80 68 134 68 205 _c
68 251 81 291 108 323 _c
134 355 171 377 219 388 _c
183 544 _m
183 506 194 476 218 455 _c
}_e{242 434 275 424 318 424 _c
360 424 393 434 417 455 _c
441 476 453 506 453 544 _c
453 582 441 611 417 632 _c
393 653 360 664 318 664 _c
275 664 242 653 218 632 _c
194 611 183 582 183 544 _c
_cl}_e}_d
/nine{{636 0 63 -13 566 742 _sc
110 15 _m
110 105 _l
134 93 159 84 185 78 _c
210 72 235 69 260 69 _c
324 69 374 90 408 134 _c
442 178 462 244 468 334 _c
448 306 424 284 396 269 _c
367 254 335 247 300 247 _c
226 247 168 269 126 313 _c
84 357 63 417 63 494 _c
63 568 85 628 129 674 _c
173 719 232 742 306 742 _c
390 742 455 709 499 645 _c
543 580 566 486 566 364 _c
}_e{566 248 538 157 484 89 _c
429 21 356 -13 264 -13 _c
239 -13 214 -10 189 -6 _c
163 -2 137 5 110 15 _c
306 324 _m
350 324 385 339 411 369 _c
437 399 450 441 450 494 _c
450 546 437 588 411 618 _c
385 648 350 664 306 664 _c
262 664 227 648 201 618 _c
175 588 162 546 162 494 _c
162 441 175 399 201 369 _c
227 339 262 324 306 324 _c
_cl}_e}_d
end readonly def

/BuildGlyph
 {exch begin
 CharStrings exch
 2 copy known not{pop /.notdef}if
 true 3 1 roll get exec
 end}_d

/BuildChar {
 1 index /Encoding get exch get
 1 index /BuildGlyph get exec
}_d

FontName currentdict end definefont pop
end
%%EndProlog
mpldict begin
75.6 223.2 translate
460.8 345.6 0 0 clipbox
gsave
0 0 m
460.8 0 l
460.8 345.6 l
0 345.6 l
cl
1.000 setgray
fill
grestore
gsave
57.6 38.016 m
414.72 38.016 l
414.72 304.128 l
57.6 304.128 l
cl
1.000 setgray
fill
grestore
gsave
357.1 266.1 57.6 38.02 clipbox
57.6 38.016 m
97.28 38.016 l
97.28 67.584 l
57.6 67.584 l
57.6 38.016 l
0.011 0.018 0.100 setrgbcolor
fill
grestore
gsave
357.1 266.1 57.6 38.02 clipbox
97.28 38.016 m
136.96 38.016 l
136.96 67.584 l
97.28 67.584 l
97.28 38.016 l
0.981 0.921 0.865 setrgbcolor
fill
grestore
gsave
357.1 266.1 57.6 38.02 clipbox
136.96 38.016 m
176.64 38.016 l
176.64 67.584 l
136.96 67.584 l
136.96 38.016 l
0.981 0.921 0.865 setrgbcolor
fill
grestore
gsave
357.1 266.1 57.6 38.02 clipbox
176.64 38.016 m
216.32 38.016 l
216.32 67.584 l
176.64 67.584 l
176.64 38.016 l
0.981 0.921 0.865 setrgbcolor
fill
grestore
gsave
357.1 266.1 57.6 38.02 clipbox
216.32 38.016 m
256 38.016 l
256 67.584 l
216.32 67.584 l
216.32 38.016 l
0.981 0.921 0.865 setrgbcolor
fill
grestore
gsave
357.1 266.1 57.6 38.02 clipbox
256 38.016 m
295.68 38.016 l
295.68 67.584 l
256 67.584 l
256 38.016 l
0.981 0.921 0.865 setrgbcolor
fill
grestore
gsave
357.1 266.1 57.6 38.02 clipbox
295.68 38.016 m
335.36 38.016 l
335.36 67.584 l
295.68 67.584 l
295.68 38.016 l
0.981 0.921 0.865 setrgbcolor
fill
grestore
gsave
357.1 266.1 57.6 38.02 clipbox
335.36 38.016 m
375.04 38.016 l
375.04 67.584 l
335.36 67.584 l
335.36 38.016 l
0.981 0.921 0.865 setrgbcolor
fill
grestore
gsave
357.1 266.1 57.6 38.02 clipbox
375.04 38.016 m
414.72 38.016 l
414.72 67.584 l
375.04 67.584 l
375.04 38.016 l
0.981 0.921 0.865 setrgbcolor
fill
grestore
gsave
357.1 266.1 57.6 38.02 clipbox
57.6 67.584 m
97.28 67.584 l
97.28 97.152 l
57.6 97.152 l
57.6 67.584 l
0.981 0.921 0.865 setrgbcolor
fill
grestore
gsave
357.1 266.1 57.6 38.02 clipbox
97.28 67.584 m
136.96 67.584 l
136.96 97.152 l
97.28 97.152 l
97.28 67.584 l
0.981 0.921 0.865 setrgbcolor
fill
grestore
gsave
357.1 266.1 57.6 38.02 clipbox
136.96 67.584 m
176.64 67.584 l
176.64 97.152 l
136.96 97.152 l
136.96 67.584 l
0.981 0.921 0.865 setrgbcolor
fill
grestore
gsave
357.1 266.1 57.6 38.02 clipbox
176.64 67.584 m
216.32 67.584 l
216.32 97.152 l
176.64 97.152 l
176.64 67.584 l
0.981 0.921 0.865 setrgbcolor
fill
grestore
gsave
357.1 266.1 57.6 38.02 clipbox
216.32 67.584 m
256 67.584 l
256 97.152 l
216.32 97.152 l
216.32 67.584 l
0.981 0.921 0.865 setrgbcolor
fill
grestore
gsave
357.1 266.1 57.6 38.02 clipbox
256 67.584 m
295.68 67.584 l
295.68 97.152 l
256 97.152 l
256 67.584 l
0.981 0.921 0.865 setrgbcolor
fill
grestore
gsave
357.1 266.1 57.6 38.02 clipbox
295.68 67.584 m
335.36 67.584 l
335.36 97.152 l
295.68 97.152 l
295.68 67.584 l
0.981 0.921 0.865 setrgbcolor
fill
grestore
gsave
357.1 266.1 57.6 38.02 clipbox
335.36 67.584 m
375.04 67.584 l
375.04 97.152 l
335.36 97.152 l
335.36 67.584 l
0.981 0.921 0.865 setrgbcolor
fill
grestore
gsave
357.1 266.1 57.6 38.02 clipbox
375.04 67.584 m
414.72 67.584 l
414.72 97.152 l
375.04 97.152 l
375.04 67.584 l
0.981 0.921 0.865 setrgbcolor
fill
grestore
gsave
357.1 266.1 57.6 38.02 clipbox
57.6 97.152 m
97.28 97.152 l
97.28 126.72 l
57.6 126.72 l
57.6 97.152 l
0.981 0.921 0.865 setrgbcolor
fill
grestore
gsave
357.1 266.1 57.6 38.02 clipbox
97.28 97.152 m
136.96 97.152 l
136.96 126.72 l
97.28 126.72 l
97.28 97.152 l
0.981 0.921 0.865 setrgbcolor
fill
grestore
gsave
357.1 266.1 57.6 38.02 clipbox
136.96 97.152 m
176.64 97.152 l
176.64 126.72 l
136.96 126.72 l
136.96 97.152 l
0.981 0.921 0.865 setrgbcolor
fill
grestore
gsave
357.1 266.1 57.6 38.02 clipbox
176.64 97.152 m
216.32 97.152 l
216.32 126.72 l
176.64 126.72 l
176.64 97.152 l
0.981 0.921 0.865 setrgbcolor
fill
grestore
gsave
357.1 266.1 57.6 38.02 clipbox
216.32 97.152 m
256 97.152 l
256 126.72 l
216.32 126.72 l
216.32 97.152 l
0.981 0.921 0.865 setrgbcolor
fill
grestore
gsave
357.1 266.1 57.6 38.02 clipbox
256 97.152 m
295.68 97.152 l
295.68 126.72 l
256 126.72 l
256 97.152 l
0.981 0.921 0.865 setrgbcolor
fill
grestore
gsave
357.1 266.1 57.6 38.02 clipbox
295.68 97.152 m
335.36 97.152 l
335.36 126.72 l
295.68 126.72 l
295.68 97.152 l
0.981 0.921 0.865 setrgbcolor
fill
grestore
gsave
357.1 266.1 57.6 38.02 clipbox
335.36 97.152 m
375.04 97.152 l
375.04 126.72 l
335.36 126.72 l
335.36 97.152 l
0.981 0.921 0.865 setrgbcolor
fill
grestore
gsave
357.1 266.1 57.6 38.02 clipbox
375.04 97.152 m
414.72 97.152 l
414.72 126.72 l
375.04 126.72 l
375.04 97.152 l
0.981 0.921 0.865 setrgbcolor
fill
grestore
gsave
357.1 266.1 57.6 38.02 clipbox
57.6 126.72 m
97.28 126.72 l
97.28 156.288 l
57.6 156.288 l
57.6 126.72 l
0.981 0.921 0.865 setrgbcolor
fill
grestore
gsave
357.1 266.1 57.6 38.02 clipbox
97.28 126.72 m
136.96 126.72 l
136.96 156.288 l
97.28 156.288 l
97.28 126.72 l
0.981 0.921 0.865 setrgbcolor
fill
grestore
gsave
357.1 266.1 57.6 38.02 clipbox
136.96 126.72 m
176.64 126.72 l
176.64 156.288 l
136.96 156.288 l
136.96 126.72 l
0.981 0.921 0.865 setrgbcolor
fill
grestore
gsave
357.1 266.1 57.6 38.02 clipbox
176.64 126.72 m
216.32 126.72 l
216.32 156.288 l
176.64 156.288 l
176.64 126.72 l
0.981 0.921 0.865 setrgbcolor
fill
grestore
gsave
357.1 266.1 57.6 38.02 clipbox
216.32 126.72 m
256 126.72 l
256 156.288 l
216.32 156.288 l
216.32 126.72 l
0.981 0.921 0.865 setrgbcolor
fill
grestore
gsave
357.1 266.1 57.6 38.02 clipbox
256 126.72 m
295.68 126.72 l
295.68 156.288 l
256 156.288 l
256 126.72 l
0.981 0.921 0.865 setrgbcolor
fill
grestore
gsave
357.1 266.1 57.6 38.02 clipbox
295.68 126.72 m
335.36 126.72 l
335.36 156.288 l
295.68 156.288 l
295.68 126.72 l
0.981 0.921 0.865 setrgbcolor
fill
grestore
gsave
357.1 266.1 57.6 38.02 clipbox
335.36 126.72 m
375.04 126.72 l
375.04 156.288 l
335.36 156.288 l
335.36 126.72 l
0.981 0.921 0.865 setrgbcolor
fill
grestore
gsave
357.1 266.1 57.6 38.02 clipbox
375.04 126.72 m
414.72 126.72 l
414.72 156.288 l
375.04 156.288 l
375.04 126.72 l
0.981 0.921 0.865 setrgbcolor
fill
grestore
gsave
357.1 266.1 57.6 38.02 clipbox
57.6 156.288 m
97.28 156.288 l
97.28 185.856 l
57.6 185.856 l
57.6 156.288 l
0.981 0.921 0.865 setrgbcolor
fill
grestore
gsave
357.1 266.1 57.6 38.02 clipbox
97.28 156.288 m
136.96 156.288 l
136.96 185.856 l
97.28 185.856 l
97.28 156.288 l
0.981 0.921 0.865 setrgbcolor
fill
grestore
gsave
357.1 266.1 57.6 38.02 clipbox
136.96 156.288 m
176.64 156.288 l
176.64 185.856 l
136.96 185.856 l
136.96 156.288 l
0.981 0.921 0.865 setrgbcolor
fill
grestore
gsave
357.1 266.1 57.6 38.02 clipbox
176.64 156.288 m
216.32 156.288 l
216.32 185.856 l
176.64 185.856 l
176.64 156.288 l
0.981 0.921 0.865 setrgbcolor
fill
grestore
gsave
357.1 266.1 57.6 38.02 clipbox
216.32 156.288 m
256 156.288 l
256 185.856 l
216.32 185.856 l
216.32 156.288 l
0.981 0.921 0.865 setrgbcolor
fill
grestore
gsave
357.1 266.1 57.6 38.02 clipbox
256 156.288 m
295.68 156.288 l
295.68 185.856 l
256 185.856 l
256 156.288 l
0.981 0.921 0.865 setrgbcolor
fill
grestore
gsave
357.1 266.1 57.6 38.02 clipbox
295.68 156.288 m
335.36 156.288 l
335.36 185.856 l
295.68 185.856 l
295.68 156.288 l
0.981 0.921 0.865 setrgbcolor
fill
grestore
gsave
357.1 266.1 57.6 38.02 clipbox
335.36 156.288 m
375.04 156.288 l
375.04 185.856 l
335.36 185.856 l
335.36 156.288 l
0.981 0.921 0.865 setrgbcolor
fill
grestore
gsave
357.1 266.1 57.6 38.02 clipbox
375.04 156.288 m
414.72 156.288 l
414.72 185.856 l
375.04 185.856 l
375.04 156.288 l
0.981 0.921 0.865 setrgbcolor
fill
grestore
gsave
357.1 266.1 57.6 38.02 clipbox
57.6 185.856 m
97.28 185.856 l
97.28 215.424 l
57.6 215.424 l
57.6 185.856 l
0.981 0.921 0.865 setrgbcolor
fill
grestore
gsave
357.1 266.1 57.6 38.02 clipbox
97.28 185.856 m
136.96 185.856 l
136.96 215.424 l
97.28 215.424 l
97.28 185.856 l
0.981 0.921 0.865 setrgbcolor
fill
grestore
gsave
357.1 266.1 57.6 38.02 clipbox
136.96 185.856 m
176.64 185.856 l
176.64 215.424 l
136.96 215.424 l
136.96 185.856 l
0.981 0.921 0.865 setrgbcolor
fill
grestore
gsave
357.1 266.1 57.6 38.02 clipbox
176.64 185.856 m
216.32 185.856 l
216.32 215.424 l
176.64 215.424 l
176.64 185.856 l
0.981 0.921 0.865 setrgbcolor
fill
grestore
gsave
357.1 266.1 57.6 38.02 clipbox
216.32 185.856 m
256 185.856 l
256 215.424 l
216.32 215.424 l
216.32 185.856 l
0.981 0.921 0.865 setrgbcolor
fill
grestore
gsave
357.1 266.1 57.6 38.02 clipbox
256 185.856 m
295.68 185.856 l
295.68 215.424 l
256 215.424 l
256 185.856 l
0.981 0.921 0.865 setrgbcolor
fill
grestore
gsave
357.1 266.1 57.6 38.02 clipbox
295.68 185.856 m
335.36 185.856 l
335.36 215.424 l
295.68 215.424 l
295.68 185.856 l
0.981 0.921 0.865 setrgbcolor
fill
grestore
gsave
357.1 266.1 57.6 38.02 clipbox
335.36 185.856 m
375.04 185.856 l
375.04 215.424 l
335.36 215.424 l
335.36 185.856 l
0.981 0.921 0.865 setrgbcolor
fill
grestore
gsave
357.1 266.1 57.6 38.02 clipbox
375.04 185.856 m
414.72 185.856 l
414.72 215.424 l
375.04 215.424 l
375.04 185.856 l
0.981 0.921 0.865 setrgbcolor
fill
grestore
gsave
357.1 266.1 57.6 38.02 clipbox
57.6 215.424 m
97.28 215.424 l
97.28 244.992 l
57.6 244.992 l
57.6 215.424 l
0.981 0.921 0.865 setrgbcolor
fill
grestore
gsave
357.1 266.1 57.6 38.02 clipbox
97.28 215.424 m
136.96 215.424 l
136.96 244.992 l
97.28 244.992 l
97.28 215.424 l
0.981 0.921 0.865 setrgbcolor
fill
grestore
gsave
357.1 266.1 57.6 38.02 clipbox
136.96 215.424 m
176.64 215.424 l
176.64 244.992 l
136.96 244.992 l
136.96 215.424 l
0.981 0.921 0.865 setrgbcolor
fill
grestore
gsave
357.1 266.1 57.6 38.02 clipbox
176.64 215.424 m
216.32 215.424 l
216.32 244.992 l
176.64 244.992 l
176.64 215.424 l
0.981 0.921 0.865 setrgbcolor
fill
grestore
gsave
357.1 266.1 57.6 38.02 clipbox
216.32 215.424 m
256 215.424 l
256 244.992 l
216.32 244.992 l
216.32 215.424 l
0.981 0.921 0.865 setrgbcolor
fill
grestore
gsave
357.1 266.1 57.6 38.02 clipbox
256 215.424 m
295.68 215.424 l
295.68 244.992 l
256 244.992 l
256 215.424 l
0.981 0.921 0.865 setrgbcolor
fill
grestore
gsave
357.1 266.1 57.6 38.02 clipbox
295.68 215.424 m
335.36 215.424 l
335.36 244.992 l
295.68 244.992 l
295.68 215.424 l
0.981 0.921 0.865 setrgbcolor
fill
grestore
gsave
357.1 266.1 57.6 38.02 clipbox
335.36 215.424 m
375.04 215.424 l
375.04 244.992 l
335.36 244.992 l
335.36 215.424 l
0.981 0.921 0.865 setrgbcolor
fill
grestore
gsave
357.1 266.1 57.6 38.02 clipbox
375.04 215.424 m
414.72 215.424 l
414.72 244.992 l
375.04 244.992 l
375.04 215.424 l
0.981 0.921 0.865 setrgbcolor
fill
grestore
gsave
357.1 266.1 57.6 38.02 clipbox
57.6 244.992 m
97.28 244.992 l
97.28 274.56 l
57.6 274.56 l
57.6 244.992 l
0.981 0.921 0.865 setrgbcolor
fill
grestore
gsave
357.1 266.1 57.6 38.02 clipbox
97.28 244.992 m
136.96 244.992 l
136.96 274.56 l
97.28 274.56 l
97.28 244.992 l
0.981 0.921 0.865 setrgbcolor
fill
grestore
gsave
357.1 266.1 57.6 38.02 clipbox
136.96 244.992 m
176.64 244.992 l
176.64 274.56 l
136.96 274.56 l
136.96 244.992 l
0.981 0.921 0.865 setrgbcolor
fill
grestore
gsave
357.1 266.1 57.6 38.02 clipbox
176.64 244.992 m
216.32 244.992 l
216.32 274.56 l
176.64 274.56 l
176.64 244.992 l
0.981 0.921 0.865 setrgbcolor
fill
grestore
gsave
357.1 266.1 57.6 38.02 clipbox
216.32 244.992 m
256 244.992 l
256 274.56 l
216.32 274.56 l
216.32 244.992 l
0.981 0.921 0.865 setrgbcolor
fill
grestore
gsave
357.1 266.1 57.6 38.02 clipbox
256 244.992 m
295.68 244.992 l
295.68 274.56 l
256 274.56 l
256 244.992 l
0.981 0.921 0.865 setrgbcolor
fill
grestore
gsave
357.1 266.1 57.6 38.02 clipbox
295.68 244.992 m
335.36 244.992 l
335.36 274.56 l
295.68 274.56 l
295.68 244.992 l
0.981 0.921 0.865 setrgbcolor
fill
grestore
gsave
357.1 266.1 57.6 38.02 clipbox
335.36 244.992 m
375.04 244.992 l
375.04 274.56 l
335.36 274.56 l
335.36 244.992 l
0.981 0.921 0.865 setrgbcolor
fill
grestore
gsave
357.1 266.1 57.6 38.02 clipbox
375.04 244.992 m
414.72 244.992 l
414.72 274.56 l
375.04 274.56 l
375.04 244.992 l
0.981 0.921 0.865 setrgbcolor
fill
grestore
gsave
357.1 266.1 57.6 38.02 clipbox
57.6 274.56 m
97.28 274.56 l
97.28 304.128 l
57.6 304.128 l
57.6 274.56 l
0.981 0.921 0.865 setrgbcolor
fill
grestore
gsave
357.1 266.1 57.6 38.02 clipbox
97.28 274.56 m
136.96 274.56 l
136.96 304.128 l
97.28 304.128 l
97.28 274.56 l
0.981 0.921 0.865 setrgbcolor
fill
grestore
gsave
357.1 266.1 57.6 38.02 clipbox
136.96 274.56 m
176.64 274.56 l
176.64 304.128 l
136.96 304.128 l
136.96 274.56 l
0.981 0.921 0.865 setrgbcolor
fill
grestore
gsave
357.1 266.1 57.6 38.02 clipbox
176.64 274.56 m
216.32 274.56 l
216.32 304.128 l
176.64 304.128 l
176.64 274.56 l
0.981 0.921 0.865 setrgbcolor
fill
grestore
gsave
357.1 266.1 57.6 38.02 clipbox
216.32 274.56 m
256 274.56 l
256 304.128 l
216.32 304.128 l
216.32 274.56 l
0.981 0.921 0.865 setrgbcolor
fill
grestore
gsave
357.1 266.1 57.6 38.02 clipbox
256 274.56 m
295.68 274.56 l
295.68 304.128 l
256 304.128 l
256 274.56 l
0.981 0.921 0.865 setrgbcolor
fill
grestore
gsave
357.1 266.1 57.6 38.02 clipbox
295.68 274.56 m
335.36 274.56 l
335.36 304.128 l
295.68 304.128 l
295.68 274.56 l
0.981 0.921 0.865 setrgbcolor
fill
grestore
gsave
357.1 266.1 57.6 38.02 clipbox
335.36 274.56 m
375.04 274.56 l
375.04 304.128 l
335.36 304.128 l
335.36 274.56 l
0.981 0.921 0.865 setrgbcolor
fill
grestore
gsave
357.1 266.1 57.6 38.02 clipbox
375.04 274.56 m
414.72 274.56 l
414.72 304.128 l
375.04 304.128 l
375.04 274.56 l
0.981 0.921 0.865 setrgbcolor
fill
grestore
1.000 setgray
/DejaVuSans findfont
24.000 scalefont
setfont
gsave
69.807187 46.182812 translate
0.000000 rotate
0.000000 0.000000 m /one glyphshow
grestore
0.150 setgray
gsave
109.487188 46.182812 translate
0.000000 rotate
0.000000 0.000000 m /two glyphshow
grestore
gsave
149.167188 46.182812 translate
0.000000 rotate
0.000000 0.000000 m /three glyphshow
grestore
gsave
188.847187 46.182812 translate
0.000000 rotate
0.000000 0.000000 m /four glyphshow
grestore
gsave
228.527187 46.182812 translate
0.000000 rotate
0.000000 0.000000 m /five glyphshow
grestore
gsave
268.207188 46.182812 translate
0.000000 rotate
0.000000 0.000000 m /six glyphshow
grestore
gsave
307.887188 46.182812 translate
0.000000 rotate
0.000000 0.000000 m /seven glyphshow
grestore
gsave
347.567188 46.182812 translate
0.000000 rotate
0.000000 0.000000 m /eight glyphshow
grestore
gsave
387.247187 46.182812 translate
0.000000 rotate
0.000000 0.000000 m /nine glyphshow
grestore
gsave
62.174375 75.750812 translate
0.000000 rotate
0.000000 0.000000 m /one glyphshow
15.269531 0.000000 m /eight glyphshow
grestore
gsave
101.854375 75.750812 translate
0.000000 rotate
0.000000 0.000000 m /one glyphshow
15.269531 0.000000 m /seven glyphshow
grestore
gsave
141.534375 75.750812 translate
0.000000 rotate
0.000000 0.000000 m /one glyphshow
15.269531 0.000000 m /six glyphshow
grestore
gsave
181.214375 75.750812 translate
0.000000 rotate
0.000000 0.000000 m /one glyphshow
15.269531 0.000000 m /five glyphshow
grestore
gsave
220.894375 75.750812 translate
0.000000 rotate
0.000000 0.000000 m /one glyphshow
15.269531 0.000000 m /four glyphshow
grestore
gsave
260.574375 75.750812 translate
0.000000 rotate
0.000000 0.000000 m /one glyphshow
15.269531 0.000000 m /three glyphshow
grestore
gsave
300.254375 75.750812 translate
0.000000 rotate
0.000000 0.000000 m /one glyphshow
15.269531 0.000000 m /two glyphshow
grestore
gsave
339.934375 75.750812 translate
0.000000 rotate
0.000000 0.000000 m /one glyphshow
15.269531 0.000000 m /one glyphshow
grestore
gsave
379.614375 75.750812 translate
0.000000 rotate
0.000000 0.000000 m /one glyphshow
15.269531 0.000000 m /zero glyphshow
grestore
gsave
62.174375 105.318812 translate
0.000000 rotate
0.000000 0.000000 m /one glyphshow
15.269531 0.000000 m /nine glyphshow
grestore
gsave
101.854375 105.318812 translate
0.000000 rotate
0.000000 0.000000 m /two glyphshow
15.269531 0.000000 m /zero glyphshow
grestore
gsave
141.534375 105.318812 translate
0.000000 rotate
0.000000 0.000000 m /two glyphshow
15.269531 0.000000 m /one glyphshow
grestore
gsave
181.214375 105.318812 translate
0.000000 rotate
0.000000 0.000000 m /two glyphshow
15.269531 0.000000 m /two glyphshow
grestore
gsave
220.894375 105.318812 translate
0.000000 rotate
0.000000 0.000000 m /two glyphshow
15.269531 0.000000 m /three glyphshow
grestore
gsave
260.574375 105.318812 translate
0.000000 rotate
0.000000 0.000000 m /two glyphshow
15.269531 0.000000 m /four glyphshow
grestore
gsave
300.254375 105.318812 translate
0.000000 rotate
0.000000 0.000000 m /two glyphshow
15.269531 0.000000 m /five glyphshow
grestore
gsave
339.934375 105.318812 translate
0.000000 rotate
0.000000 0.000000 m /two glyphshow
15.269531 0.000000 m /six glyphshow
grestore
gsave
379.614375 105.318812 translate
0.000000 rotate
0.000000 0.000000 m /two glyphshow
15.269531 0.000000 m /seven glyphshow
grestore
gsave
62.174375 134.886812 translate
0.000000 rotate
0.000000 0.000000 m /three glyphshow
15.269531 0.000000 m /six glyphshow
grestore
gsave
101.854375 134.886812 translate
0.000000 rotate
0.000000 0.000000 m /three glyphshow
15.269531 0.000000 m /five glyphshow
grestore
gsave
141.534375 134.886812 translate
0.000000 rotate
0.000000 0.000000 m /three glyphshow
15.269531 0.000000 m /four glyphshow
grestore
gsave
181.214375 134.886812 translate
0.000000 rotate
0.000000 0.000000 m /three glyphshow
15.269531 0.000000 m /three glyphshow
grestore
gsave
220.894375 134.886812 translate
0.000000 rotate
0.000000 0.000000 m /three glyphshow
15.269531 0.000000 m /two glyphshow
grestore
gsave
260.574375 134.886812 translate
0.000000 rotate
0.000000 0.000000 m /three glyphshow
15.269531 0.000000 m /one glyphshow
grestore
gsave
300.254375 134.886812 translate
0.000000 rotate
0.000000 0.000000 m /three glyphshow
15.269531 0.000000 m /zero glyphshow
grestore
gsave
339.934375 134.886812 translate
0.000000 rotate
0.000000 0.000000 m /two glyphshow
15.269531 0.000000 m /nine glyphshow
grestore
gsave
379.614375 134.886812 translate
0.000000 rotate
0.000000 0.000000 m /two glyphshow
15.269531 0.000000 m /eight glyphshow
grestore
gsave
62.174375 164.454812 translate
0.000000 rotate
0.000000 0.000000 m /three glyphshow
15.269531 0.000000 m /seven glyphshow
grestore
gsave
101.854375 164.454812 translate
0.000000 rotate
0.000000 0.000000 m /three glyphshow
15.269531 0.000000 m /eight glyphshow
grestore
gsave
141.534375 164.454812 translate
0.000000 rotate
0.000000 0.000000 m /three glyphshow
15.269531 0.000000 m /nine glyphshow
grestore
gsave
181.214375 164.454812 translate
0.000000 rotate
0.000000 0.000000 m /four glyphshow
15.269531 0.000000 m /zero glyphshow
grestore
gsave
220.894375 164.454812 translate
0.000000 rotate
0.000000 0.000000 m /four glyphshow
15.269531 0.000000 m /one glyphshow
grestore
gsave
260.574375 164.454812 translate
0.000000 rotate
0.000000 0.000000 m /four glyphshow
15.269531 0.000000 m /two glyphshow
grestore
gsave
300.254375 164.454812 translate
0.000000 rotate
0.000000 0.000000 m /four glyphshow
15.269531 0.000000 m /three glyphshow
grestore
gsave
339.934375 164.454812 translate
0.000000 rotate
0.000000 0.000000 m /four glyphshow
15.269531 0.000000 m /four glyphshow
grestore
gsave
379.614375 164.454812 translate
0.000000 rotate
0.000000 0.000000 m /four glyphshow
15.269531 0.000000 m /five glyphshow
grestore
gsave
62.174375 194.022812 translate
0.000000 rotate
0.000000 0.000000 m /five glyphshow
15.269531 0.000000 m /four glyphshow
grestore
gsave
101.854375 194.022812 translate
0.000000 rotate
0.000000 0.000000 m /five glyphshow
15.269531 0.000000 m /three glyphshow
grestore
gsave
141.534375 194.022812 translate
0.000000 rotate
0.000000 0.000000 m /five glyphshow
15.269531 0.000000 m /two glyphshow
grestore
gsave
181.214375 194.022812 translate
0.000000 rotate
0.000000 0.000000 m /five glyphshow
15.269531 0.000000 m /one glyphshow
grestore
gsave
220.894375 194.022812 translate
0.000000 rotate
0.000000 0.000000 m /five glyphshow
15.269531 0.000000 m /zero glyphshow
grestore
gsave
260.574375 194.022812 translate
0.000000 rotate
0.000000 0.000000 m /four glyphshow
15.269531 0.000000 m /nine glyphshow
grestore
gsave
300.254375 194.022812 translate
0.000000 rotate
0.000000 0.000000 m /four glyphshow
15.269531 0.000000 m /eight glyphshow
grestore
gsave
339.934375 194.022812 translate
0.000000 rotate
0.000000 0.000000 m /four glyphshow
15.269531 0.000000 m /seven glyphshow
grestore
gsave
379.614375 194.022812 translate
0.000000 rotate
0.000000 0.000000 m /four glyphshow
15.269531 0.000000 m /six glyphshow
grestore
gsave
62.174375 223.590812 translate
0.000000 rotate
0.000000 0.000000 m /five glyphshow
15.269531 0.000000 m /five glyphshow
grestore
gsave
101.854375 223.590812 translate
0.000000 rotate
0.000000 0.000000 m /five glyphshow
15.269531 0.000000 m /six glyphshow
grestore
gsave
141.534375 223.590812 translate
0.000000 rotate
0.000000 0.000000 m /five glyphshow
15.269531 0.000000 m /seven glyphshow
grestore
gsave
181.214375 223.590812 translate
0.000000 rotate
0.000000 0.000000 m /five glyphshow
15.269531 0.000000 m /eight glyphshow
grestore
gsave
220.894375 223.590812 translate
0.000000 rotate
0.000000 0.000000 m /five glyphshow
15.269531 0.000000 m /nine glyphshow
grestore
gsave
260.574375 223.590812 translate
0.000000 rotate
0.000000 0.000000 m /six glyphshow
15.269531 0.000000 m /zero glyphshow
grestore
gsave
300.254375 223.590812 translate
0.000000 rotate
0.000000 0.000000 m /six glyphshow
15.269531 0.000000 m /one glyphshow
grestore
gsave
339.934375 223.590812 translate
0.000000 rotate
0.000000 0.000000 m /six glyphshow
15.269531 0.000000 m /two glyphshow
grestore
gsave
379.614375 223.590812 translate
0.000000 rotate
0.000000 0.000000 m /six glyphshow
15.269531 0.000000 m /three glyphshow
grestore
gsave
62.174375 253.158812 translate
0.000000 rotate
0.000000 0.000000 m /seven glyphshow
15.269531 0.000000 m /two glyphshow
grestore
gsave
101.854375 253.158812 translate
0.000000 rotate
0.000000 0.000000 m /seven glyphshow
15.269531 0.000000 m /one glyphshow
grestore
gsave
141.534375 253.158812 translate
0.000000 rotate
0.000000 0.000000 m /seven glyphshow
15.269531 0.000000 m /zero glyphshow
grestore
gsave
181.214375 253.158812 translate
0.000000 rotate
0.000000 0.000000 m /six glyphshow
15.269531 0.000000 m /nine glyphshow
grestore
gsave
220.894375 253.158812 translate
0.000000 rotate
0.000000 0.000000 m /six glyphshow
15.269531 0.000000 m /eight glyphshow
grestore
gsave
260.574375 253.158812 translate
0.000000 rotate
0.000000 0.000000 m /six glyphshow
15.269531 0.000000 m /seven glyphshow
grestore
gsave
300.254375 253.158812 translate
0.000000 rotate
0.000000 0.000000 m /six glyphshow
15.269531 0.000000 m /six glyphshow
grestore
gsave
339.934375 253.158812 translate
0.000000 rotate
0.000000 0.000000 m /six glyphshow
15.269531 0.000000 m /five glyphshow
grestore
gsave
379.614375 253.158812 translate
0.000000 rotate
0.000000 0.000000 m /six glyphshow
15.269531 0.000000 m /four glyphshow
grestore
gsave
62.174375 282.726812 translate
0.000000 rotate
0.000000 0.000000 m /seven glyphshow
15.269531 0.000000 m /three glyphshow
grestore
gsave
101.854375 282.726812 translate
0.000000 rotate
0.000000 0.000000 m /seven glyphshow
15.269531 0.000000 m /four glyphshow
grestore
gsave
141.534375 282.726812 translate
0.000000 rotate
0.000000 0.000000 m /seven glyphshow
15.269531 0.000000 m /five glyphshow
grestore
gsave
181.214375 282.726812 translate
0.000000 rotate
0.000000 0.000000 m /seven glyphshow
15.269531 0.000000 m /six glyphshow
grestore
gsave
220.894375 282.726812 translate
0.000000 rotate
0.000000 0.000000 m /seven glyphshow
15.269531 0.000000 m /seven glyphshow
grestore
gsave
260.574375 282.726812 translate
0.000000 rotate
0.000000 0.000000 m /seven glyphshow
15.269531 0.000000 m /eight glyphshow
grestore
gsave
300.254375 282.726812 translate
0.000000 rotate
0.000000 0.000000 m /seven glyphshow
15.269531 0.000000 m /nine glyphshow
grestore
gsave
339.934375 282.726812 translate
0.000000 rotate
0.000000 0.000000 m /eight glyphshow
15.269531 0.000000 m /zero glyphshow
grestore
gsave
379.614375 282.726812 translate
0.000000 rotate
0.000000 0.000000 m /eight glyphshow
15.269531 0.000000 m /one glyphshow
grestore

end
showpage
