%!PS-Adobe-3.0 EPSF-3.0
%%Title: Sample/Figures/ExampleBoard.eps
%%Creator: matplotlib version 3.0.2, http://matplotlib.org/
%%CreationDate: Thu Jan  3 15:28:12 2019
%%Orientation: portrait
%%BoundingBox: -22 111 634 680
%%EndComments
%%BeginProlog
/mpldict 8 dict def
mpldict begin
/m { moveto } bind def
/l { lineto } bind def
/r { rlineto } bind def
/c { curveto } bind def
/cl { closepath } bind def
/box {
m
1 index 0 r
0 exch r
neg 0 r
cl
} bind def
/clipbox {
box
clip
newpath
} bind def
%!PS-Adobe-3.0 Resource-Font
%%Title: DejaVu Sans
%%Copyright: Copyright (c) 2003 by Bitstream, Inc. All Rights Reserved. Copyright (c) 2006 by Tavmjong Bah. All Rights Reserved. DejaVu changes are in public domain 
%%Creator: Converted from TrueType to type 3 by PPR
25 dict begin
/_d{bind def}bind def
/_m{moveto}_d
/_l{lineto}_d
/_cl{closepath eofill}_d
/_c{curveto}_d
/_sc{7 -1 roll{setcachedevice}{pop pop pop pop pop pop}ifelse}_d
/_e{exec}_d
/FontName /DejaVuSans def
/PaintType 0 def
/FontMatrix[.001 0 0 .001 0 0]def
/FontBBox[-1021 -463 1793 1232]def
/FontType 3 def
/Encoding [ /zero /one /two /three /four /five /six /seven /eight /nine ] def
/FontInfo 10 dict dup begin
/FamilyName (DejaVu Sans) def
/FullName (DejaVu Sans) def
/Notice (Copyright (c) 2003 by Bitstream, Inc. All Rights Reserved. Copyright (c) 2006 by Tavmjong Bah. All Rights Reserved. DejaVu changes are in public domain ) def
/Weight (Book) def
/Version (Version 2.35) def
/ItalicAngle 0.0 def
/isFixedPitch false def
/UnderlinePosition -130 def
/UnderlineThickness 90 def
end readonly def
/CharStrings 11 dict dup begin
/.notdef 0 def
/zero{636 0 66 -13 570 742 _sc
318 664 _m
267 664 229 639 203 589 _c
177 539 165 464 165 364 _c
165 264 177 189 203 139 _c
229 89 267 64 318 64 _c
369 64 407 89 433 139 _c
458 189 471 264 471 364 _c
471 464 458 539 433 589 _c
407 639 369 664 318 664 _c
318 742 _m
399 742 461 709 505 645 _c
548 580 570 486 570 364 _c
570 241 548 147 505 83 _c
461 19 399 -13 318 -13 _c
236 -13 173 19 130 83 _c
87 147 66 241 66 364 _c
66 486 87 580 130 645 _c
173 709 236 742 318 742 _c
_cl}_d
/one{636 0 110 0 544 729 _sc
124 83 _m
285 83 _l
285 639 _l
110 604 _l
110 694 _l
284 729 _l
383 729 _l
383 83 _l
544 83 _l
544 0 _l
124 0 _l
124 83 _l
_cl}_d
/two{{636 0 73 0 536 742 _sc
192 83 _m
536 83 _l
536 0 _l
73 0 _l
73 83 _l
110 121 161 173 226 239 _c
290 304 331 346 348 365 _c
380 400 402 430 414 455 _c
426 479 433 504 433 528 _c
433 566 419 598 392 622 _c
365 646 330 659 286 659 _c
255 659 222 653 188 643 _c
154 632 117 616 78 594 _c
78 694 _l
118 710 155 722 189 730 _c
223 738 255 742 284 742 _c
}_e{359 742 419 723 464 685 _c
509 647 532 597 532 534 _c
532 504 526 475 515 449 _c
504 422 484 390 454 354 _c
446 344 420 317 376 272 _c
332 227 271 164 192 83 _c
_cl}_e}_d
/three{{636 0 76 -13 556 742 _sc
406 393 _m
453 383 490 362 516 330 _c
542 298 556 258 556 212 _c
556 140 531 84 482 45 _c
432 6 362 -13 271 -13 _c
240 -13 208 -10 176 -4 _c
144 1 110 10 76 22 _c
76 117 _l
103 101 133 89 166 81 _c
198 73 232 69 268 69 _c
330 69 377 81 409 105 _c
441 129 458 165 458 212 _c
458 254 443 288 413 312 _c
383 336 341 349 287 349 _c
}_e{202 349 _l
202 430 _l
291 430 _l
339 430 376 439 402 459 _c
428 478 441 506 441 543 _c
441 580 427 609 401 629 _c
374 649 336 659 287 659 _c
260 659 231 656 200 650 _c
169 644 135 635 98 623 _c
98 711 _l
135 721 170 729 203 734 _c
235 739 266 742 296 742 _c
370 742 429 725 473 691 _c
517 657 539 611 539 553 _c
539 513 527 479 504 451 _c
481 423 448 403 406 393 _c
_cl}_e}_d
/four{636 0 49 0 580 729 _sc
378 643 _m
129 254 _l
378 254 _l
378 643 _l
352 729 _m
476 729 _l
476 254 _l
580 254 _l
580 172 _l
476 172 _l
476 0 _l
378 0 _l
378 172 _l
49 172 _l
49 267 _l
352 729 _l
_cl}_d
/five{{636 0 77 -13 549 729 _sc
108 729 _m
495 729 _l
495 646 _l
198 646 _l
198 467 _l
212 472 227 476 241 478 _c
255 480 270 482 284 482 _c
365 482 429 459 477 415 _c
525 370 549 310 549 234 _c
549 155 524 94 475 51 _c
426 8 357 -13 269 -13 _c
238 -13 207 -10 175 -6 _c
143 -1 111 6 77 17 _c
77 116 _l
106 100 136 88 168 80 _c
199 72 232 69 267 69 _c
}_e{323 69 368 83 401 113 _c
433 143 450 183 450 234 _c
450 284 433 324 401 354 _c
368 384 323 399 267 399 _c
241 399 214 396 188 390 _c
162 384 135 375 108 363 _c
108 729 _l
_cl}_e}_d
/six{{636 0 70 -13 573 742 _sc
330 404 _m
286 404 251 388 225 358 _c
199 328 186 286 186 234 _c
186 181 199 139 225 109 _c
251 79 286 64 330 64 _c
374 64 409 79 435 109 _c
461 139 474 181 474 234 _c
474 286 461 328 435 358 _c
409 388 374 404 330 404 _c
526 713 _m
526 623 _l
501 635 476 644 451 650 _c
425 656 400 659 376 659 _c
310 659 260 637 226 593 _c
}_e{192 549 172 482 168 394 _c
187 422 211 444 240 459 _c
269 474 301 482 336 482 _c
409 482 467 459 509 415 _c
551 371 573 310 573 234 _c
573 159 550 99 506 54 _c
462 9 403 -13 330 -13 _c
246 -13 181 19 137 83 _c
92 147 70 241 70 364 _c
70 479 97 571 152 639 _c
206 707 280 742 372 742 _c
396 742 421 739 447 735 _c
472 730 498 723 526 713 _c
_cl}_e}_d
/seven{636 0 82 0 551 729 _sc
82 729 _m
551 729 _l
551 687 _l
286 0 _l
183 0 _l
432 646 _l
82 646 _l
82 729 _l
_cl}_d
/eight{{636 0 68 -13 568 742 _sc
318 346 _m
271 346 234 333 207 308 _c
180 283 167 249 167 205 _c
167 161 180 126 207 101 _c
234 76 271 64 318 64 _c
364 64 401 76 428 102 _c
455 127 469 161 469 205 _c
469 249 455 283 429 308 _c
402 333 365 346 318 346 _c
219 388 _m
177 398 144 418 120 447 _c
96 476 85 511 85 553 _c
85 611 105 657 147 691 _c
188 725 245 742 318 742 _c
}_e{390 742 447 725 489 691 _c
530 657 551 611 551 553 _c
551 511 539 476 515 447 _c
491 418 459 398 417 388 _c
464 377 501 355 528 323 _c
554 291 568 251 568 205 _c
568 134 546 80 503 43 _c
459 5 398 -13 318 -13 _c
237 -13 175 5 132 43 _c
89 80 68 134 68 205 _c
68 251 81 291 108 323 _c
134 355 171 377 219 388 _c
183 544 _m
183 506 194 476 218 455 _c
}_e{242 434 275 424 318 424 _c
360 424 393 434 417 455 _c
441 476 453 506 453 544 _c
453 582 441 611 417 632 _c
393 653 360 664 318 664 _c
275 664 242 653 218 632 _c
194 611 183 582 183 544 _c
_cl}_e}_d
/nine{{636 0 63 -13 566 742 _sc
110 15 _m
110 105 _l
134 93 159 84 185 78 _c
210 72 235 69 260 69 _c
324 69 374 90 408 134 _c
442 178 462 244 468 334 _c
448 306 424 284 396 269 _c
367 254 335 247 300 247 _c
226 247 168 269 126 313 _c
84 357 63 417 63 494 _c
63 568 85 628 129 674 _c
173 719 232 742 306 742 _c
390 742 455 709 499 645 _c
543 580 566 486 566 364 _c
}_e{566 248 538 157 484 89 _c
429 21 356 -13 264 -13 _c
239 -13 214 -10 189 -6 _c
163 -2 137 5 110 15 _c
306 324 _m
350 324 385 339 411 369 _c
437 399 450 441 450 494 _c
450 546 437 588 411 618 _c
385 648 350 664 306 664 _c
262 664 227 648 201 618 _c
175 588 162 546 162 494 _c
162 441 175 399 201 369 _c
227 339 262 324 306 324 _c
_cl}_e}_d
end readonly def

/BuildGlyph
 {exch begin
 CharStrings exch
 2 copy known not{pop /.notdef}if
 true 3 1 roll get exec
 end}_d

/BuildChar {
 1 index /Encoding get exch get
 1 index /BuildGlyph get exec
}_d

FontName currentdict end definefont pop
end
%%EndProlog
mpldict begin
-22.32 111.96 translate
656.64 568.08 0 0 clipbox
gsave
0 0 m
656.64 0 l
656.64 568.08 l
0 568.08 l
cl
1.000 setgray
fill
grestore
gsave
82.08 62.4888 m
590.976 62.4888 l
590.976 499.9104 l
82.08 499.9104 l
cl
1.000 setgray
fill
grestore
gsave
508.9 437.4 82.08 62.49 clipbox
82.08 62.4888 m
132.9696 62.4888 l
132.9696 106.23096 l
82.08 106.23096 l
82.08 62.4888 l
0.011 0.018 0.100 setrgbcolor
fill
grestore
gsave
508.9 437.4 82.08 62.49 clipbox
132.9696 62.4888 m
183.8592 62.4888 l
183.8592 106.23096 l
132.9696 106.23096 l
132.9696 62.4888 l
0.981 0.921 0.865 setrgbcolor
fill
grestore
gsave
508.9 437.4 82.08 62.49 clipbox
183.8592 62.4888 m
234.7488 62.4888 l
234.7488 106.23096 l
183.8592 106.23096 l
183.8592 62.4888 l
0.981 0.921 0.865 setrgbcolor
fill
grestore
gsave
508.9 437.4 82.08 62.49 clipbox
234.7488 62.4888 m
285.6384 62.4888 l
285.6384 106.23096 l
234.7488 106.23096 l
234.7488 62.4888 l
0.981 0.921 0.865 setrgbcolor
fill
grestore
gsave
508.9 437.4 82.08 62.49 clipbox
285.6384 62.4888 m
336.528 62.4888 l
336.528 106.23096 l
285.6384 106.23096 l
285.6384 62.4888 l
0.981 0.921 0.865 setrgbcolor
fill
grestore
gsave
508.9 437.4 82.08 62.49 clipbox
336.528 62.4888 m
387.4176 62.4888 l
387.4176 106.23096 l
336.528 106.23096 l
336.528 62.4888 l
0.981 0.921 0.865 setrgbcolor
fill
grestore
gsave
508.9 437.4 82.08 62.49 clipbox
387.4176 62.4888 m
438.3072 62.4888 l
438.3072 106.23096 l
387.4176 106.23096 l
387.4176 62.4888 l
0.981 0.921 0.865 setrgbcolor
fill
grestore
gsave
508.9 437.4 82.08 62.49 clipbox
438.3072 62.4888 m
489.1968 62.4888 l
489.1968 106.23096 l
438.3072 106.23096 l
438.3072 62.4888 l
0.981 0.921 0.865 setrgbcolor
fill
grestore
gsave
508.9 437.4 82.08 62.49 clipbox
489.1968 62.4888 m
540.0864 62.4888 l
540.0864 106.23096 l
489.1968 106.23096 l
489.1968 62.4888 l
0.981 0.921 0.865 setrgbcolor
fill
grestore
gsave
508.9 437.4 82.08 62.49 clipbox
540.0864 62.4888 m
590.976 62.4888 l
590.976 106.23096 l
540.0864 106.23096 l
540.0864 62.4888 l
0.981 0.921 0.865 setrgbcolor
fill
grestore
gsave
508.9 437.4 82.08 62.49 clipbox
82.08 106.23096 m
132.9696 106.23096 l
132.9696 149.97312 l
82.08 149.97312 l
82.08 106.23096 l
0.981 0.921 0.865 setrgbcolor
fill
grestore
gsave
508.9 437.4 82.08 62.49 clipbox
132.9696 106.23096 m
183.8592 106.23096 l
183.8592 149.97312 l
132.9696 149.97312 l
132.9696 106.23096 l
0.981 0.921 0.865 setrgbcolor
fill
grestore
gsave
508.9 437.4 82.08 62.49 clipbox
183.8592 106.23096 m
234.7488 106.23096 l
234.7488 149.97312 l
183.8592 149.97312 l
183.8592 106.23096 l
0.981 0.921 0.865 setrgbcolor
fill
grestore
gsave
508.9 437.4 82.08 62.49 clipbox
234.7488 106.23096 m
285.6384 106.23096 l
285.6384 149.97312 l
234.7488 149.97312 l
234.7488 106.23096 l
0.981 0.921 0.865 setrgbcolor
fill
grestore
gsave
508.9 437.4 82.08 62.49 clipbox
285.6384 106.23096 m
336.528 106.23096 l
336.528 149.97312 l
285.6384 149.97312 l
285.6384 106.23096 l
0.981 0.921 0.865 setrgbcolor
fill
grestore
gsave
508.9 437.4 82.08 62.49 clipbox
336.528 106.23096 m
387.4176 106.23096 l
387.4176 149.97312 l
336.528 149.97312 l
336.528 106.23096 l
0.981 0.921 0.865 setrgbcolor
fill
grestore
gsave
508.9 437.4 82.08 62.49 clipbox
387.4176 106.23096 m
438.3072 106.23096 l
438.3072 149.97312 l
387.4176 149.97312 l
387.4176 106.23096 l
0.981 0.921 0.865 setrgbcolor
fill
grestore
gsave
508.9 437.4 82.08 62.49 clipbox
438.3072 106.23096 m
489.1968 106.23096 l
489.1968 149.97312 l
438.3072 149.97312 l
438.3072 106.23096 l
0.981 0.921 0.865 setrgbcolor
fill
grestore
gsave
508.9 437.4 82.08 62.49 clipbox
489.1968 106.23096 m
540.0864 106.23096 l
540.0864 149.97312 l
489.1968 149.97312 l
489.1968 106.23096 l
0.981 0.921 0.865 setrgbcolor
fill
grestore
gsave
508.9 437.4 82.08 62.49 clipbox
540.0864 106.23096 m
590.976 106.23096 l
590.976 149.97312 l
540.0864 149.97312 l
540.0864 106.23096 l
0.981 0.921 0.865 setrgbcolor
fill
grestore
gsave
508.9 437.4 82.08 62.49 clipbox
82.08 149.97312 m
132.9696 149.97312 l
132.9696 193.71528 l
82.08 193.71528 l
82.08 149.97312 l
0.981 0.921 0.865 setrgbcolor
fill
grestore
gsave
508.9 437.4 82.08 62.49 clipbox
132.9696 149.97312 m
183.8592 149.97312 l
183.8592 193.71528 l
132.9696 193.71528 l
132.9696 149.97312 l
0.981 0.921 0.865 setrgbcolor
fill
grestore
gsave
508.9 437.4 82.08 62.49 clipbox
183.8592 149.97312 m
234.7488 149.97312 l
234.7488 193.71528 l
183.8592 193.71528 l
183.8592 149.97312 l
0.981 0.921 0.865 setrgbcolor
fill
grestore
gsave
508.9 437.4 82.08 62.49 clipbox
234.7488 149.97312 m
285.6384 149.97312 l
285.6384 193.71528 l
234.7488 193.71528 l
234.7488 149.97312 l
0.981 0.921 0.865 setrgbcolor
fill
grestore
gsave
508.9 437.4 82.08 62.49 clipbox
285.6384 149.97312 m
336.528 149.97312 l
336.528 193.71528 l
285.6384 193.71528 l
285.6384 149.97312 l
0.981 0.921 0.865 setrgbcolor
fill
grestore
gsave
508.9 437.4 82.08 62.49 clipbox
336.528 149.97312 m
387.4176 149.97312 l
387.4176 193.71528 l
336.528 193.71528 l
336.528 149.97312 l
0.981 0.921 0.865 setrgbcolor
fill
grestore
gsave
508.9 437.4 82.08 62.49 clipbox
387.4176 149.97312 m
438.3072 149.97312 l
438.3072 193.71528 l
387.4176 193.71528 l
387.4176 149.97312 l
0.981 0.921 0.865 setrgbcolor
fill
grestore
gsave
508.9 437.4 82.08 62.49 clipbox
438.3072 149.97312 m
489.1968 149.97312 l
489.1968 193.71528 l
438.3072 193.71528 l
438.3072 149.97312 l
0.981 0.921 0.865 setrgbcolor
fill
grestore
gsave
508.9 437.4 82.08 62.49 clipbox
489.1968 149.97312 m
540.0864 149.97312 l
540.0864 193.71528 l
489.1968 193.71528 l
489.1968 149.97312 l
0.981 0.921 0.865 setrgbcolor
fill
grestore
gsave
508.9 437.4 82.08 62.49 clipbox
540.0864 149.97312 m
590.976 149.97312 l
590.976 193.71528 l
540.0864 193.71528 l
540.0864 149.97312 l
0.981 0.921 0.865 setrgbcolor
fill
grestore
gsave
508.9 437.4 82.08 62.49 clipbox
82.08 193.71528 m
132.9696 193.71528 l
132.9696 237.45744 l
82.08 237.45744 l
82.08 193.71528 l
0.981 0.921 0.865 setrgbcolor
fill
grestore
gsave
508.9 437.4 82.08 62.49 clipbox
132.9696 193.71528 m
183.8592 193.71528 l
183.8592 237.45744 l
132.9696 237.45744 l
132.9696 193.71528 l
0.981 0.921 0.865 setrgbcolor
fill
grestore
gsave
508.9 437.4 82.08 62.49 clipbox
183.8592 193.71528 m
234.7488 193.71528 l
234.7488 237.45744 l
183.8592 237.45744 l
183.8592 193.71528 l
0.981 0.921 0.865 setrgbcolor
fill
grestore
gsave
508.9 437.4 82.08 62.49 clipbox
234.7488 193.71528 m
285.6384 193.71528 l
285.6384 237.45744 l
234.7488 237.45744 l
234.7488 193.71528 l
0.981 0.921 0.865 setrgbcolor
fill
grestore
gsave
508.9 437.4 82.08 62.49 clipbox
285.6384 193.71528 m
336.528 193.71528 l
336.528 237.45744 l
285.6384 237.45744 l
285.6384 193.71528 l
0.981 0.921 0.865 setrgbcolor
fill
grestore
gsave
508.9 437.4 82.08 62.49 clipbox
336.528 193.71528 m
387.4176 193.71528 l
387.4176 237.45744 l
336.528 237.45744 l
336.528 193.71528 l
0.981 0.921 0.865 setrgbcolor
fill
grestore
gsave
508.9 437.4 82.08 62.49 clipbox
387.4176 193.71528 m
438.3072 193.71528 l
438.3072 237.45744 l
387.4176 237.45744 l
387.4176 193.71528 l
0.981 0.921 0.865 setrgbcolor
fill
grestore
gsave
508.9 437.4 82.08 62.49 clipbox
438.3072 193.71528 m
489.1968 193.71528 l
489.1968 237.45744 l
438.3072 237.45744 l
438.3072 193.71528 l
0.981 0.921 0.865 setrgbcolor
fill
grestore
gsave
508.9 437.4 82.08 62.49 clipbox
489.1968 193.71528 m
540.0864 193.71528 l
540.0864 237.45744 l
489.1968 237.45744 l
489.1968 193.71528 l
0.981 0.921 0.865 setrgbcolor
fill
grestore
gsave
508.9 437.4 82.08 62.49 clipbox
540.0864 193.71528 m
590.976 193.71528 l
590.976 237.45744 l
540.0864 237.45744 l
540.0864 193.71528 l
0.981 0.921 0.865 setrgbcolor
fill
grestore
gsave
508.9 437.4 82.08 62.49 clipbox
82.08 237.45744 m
132.9696 237.45744 l
132.9696 281.1996 l
82.08 281.1996 l
82.08 237.45744 l
0.981 0.921 0.865 setrgbcolor
fill
grestore
gsave
508.9 437.4 82.08 62.49 clipbox
132.9696 237.45744 m
183.8592 237.45744 l
183.8592 281.1996 l
132.9696 281.1996 l
132.9696 237.45744 l
0.981 0.921 0.865 setrgbcolor
fill
grestore
gsave
508.9 437.4 82.08 62.49 clipbox
183.8592 237.45744 m
234.7488 237.45744 l
234.7488 281.1996 l
183.8592 281.1996 l
183.8592 237.45744 l
0.981 0.921 0.865 setrgbcolor
fill
grestore
gsave
508.9 437.4 82.08 62.49 clipbox
234.7488 237.45744 m
285.6384 237.45744 l
285.6384 281.1996 l
234.7488 281.1996 l
234.7488 237.45744 l
0.981 0.921 0.865 setrgbcolor
fill
grestore
gsave
508.9 437.4 82.08 62.49 clipbox
285.6384 237.45744 m
336.528 237.45744 l
336.528 281.1996 l
285.6384 281.1996 l
285.6384 237.45744 l
0.981 0.921 0.865 setrgbcolor
fill
grestore
gsave
508.9 437.4 82.08 62.49 clipbox
336.528 237.45744 m
387.4176 237.45744 l
387.4176 281.1996 l
336.528 281.1996 l
336.528 237.45744 l
0.981 0.921 0.865 setrgbcolor
fill
grestore
gsave
508.9 437.4 82.08 62.49 clipbox
387.4176 237.45744 m
438.3072 237.45744 l
438.3072 281.1996 l
387.4176 281.1996 l
387.4176 237.45744 l
0.981 0.921 0.865 setrgbcolor
fill
grestore
gsave
508.9 437.4 82.08 62.49 clipbox
438.3072 237.45744 m
489.1968 237.45744 l
489.1968 281.1996 l
438.3072 281.1996 l
438.3072 237.45744 l
0.981 0.921 0.865 setrgbcolor
fill
grestore
gsave
508.9 437.4 82.08 62.49 clipbox
489.1968 237.45744 m
540.0864 237.45744 l
540.0864 281.1996 l
489.1968 281.1996 l
489.1968 237.45744 l
0.981 0.921 0.865 setrgbcolor
fill
grestore
gsave
508.9 437.4 82.08 62.49 clipbox
540.0864 237.45744 m
590.976 237.45744 l
590.976 281.1996 l
540.0864 281.1996 l
540.0864 237.45744 l
0.981 0.921 0.865 setrgbcolor
fill
grestore
gsave
508.9 437.4 82.08 62.49 clipbox
82.08 281.1996 m
132.9696 281.1996 l
132.9696 324.94176 l
82.08 324.94176 l
82.08 281.1996 l
0.981 0.921 0.865 setrgbcolor
fill
grestore
gsave
508.9 437.4 82.08 62.49 clipbox
132.9696 281.1996 m
183.8592 281.1996 l
183.8592 324.94176 l
132.9696 324.94176 l
132.9696 281.1996 l
0.981 0.921 0.865 setrgbcolor
fill
grestore
gsave
508.9 437.4 82.08 62.49 clipbox
183.8592 281.1996 m
234.7488 281.1996 l
234.7488 324.94176 l
183.8592 324.94176 l
183.8592 281.1996 l
0.981 0.921 0.865 setrgbcolor
fill
grestore
gsave
508.9 437.4 82.08 62.49 clipbox
234.7488 281.1996 m
285.6384 281.1996 l
285.6384 324.94176 l
234.7488 324.94176 l
234.7488 281.1996 l
0.981 0.921 0.865 setrgbcolor
fill
grestore
gsave
508.9 437.4 82.08 62.49 clipbox
285.6384 281.1996 m
336.528 281.1996 l
336.528 324.94176 l
285.6384 324.94176 l
285.6384 281.1996 l
0.981 0.921 0.865 setrgbcolor
fill
grestore
gsave
508.9 437.4 82.08 62.49 clipbox
336.528 281.1996 m
387.4176 281.1996 l
387.4176 324.94176 l
336.528 324.94176 l
336.528 281.1996 l
0.981 0.921 0.865 setrgbcolor
fill
grestore
gsave
508.9 437.4 82.08 62.49 clipbox
387.4176 281.1996 m
438.3072 281.1996 l
438.3072 324.94176 l
387.4176 324.94176 l
387.4176 281.1996 l
0.981 0.921 0.865 setrgbcolor
fill
grestore
gsave
508.9 437.4 82.08 62.49 clipbox
438.3072 281.1996 m
489.1968 281.1996 l
489.1968 324.94176 l
438.3072 324.94176 l
438.3072 281.1996 l
0.981 0.921 0.865 setrgbcolor
fill
grestore
gsave
508.9 437.4 82.08 62.49 clipbox
489.1968 281.1996 m
540.0864 281.1996 l
540.0864 324.94176 l
489.1968 324.94176 l
489.1968 281.1996 l
0.981 0.921 0.865 setrgbcolor
fill
grestore
gsave
508.9 437.4 82.08 62.49 clipbox
540.0864 281.1996 m
590.976 281.1996 l
590.976 324.94176 l
540.0864 324.94176 l
540.0864 281.1996 l
0.981 0.921 0.865 setrgbcolor
fill
grestore
gsave
508.9 437.4 82.08 62.49 clipbox
82.08 324.94176 m
132.9696 324.94176 l
132.9696 368.68392 l
82.08 368.68392 l
82.08 324.94176 l
0.981 0.921 0.865 setrgbcolor
fill
grestore
gsave
508.9 437.4 82.08 62.49 clipbox
132.9696 324.94176 m
183.8592 324.94176 l
183.8592 368.68392 l
132.9696 368.68392 l
132.9696 324.94176 l
0.981 0.921 0.865 setrgbcolor
fill
grestore
gsave
508.9 437.4 82.08 62.49 clipbox
183.8592 324.94176 m
234.7488 324.94176 l
234.7488 368.68392 l
183.8592 368.68392 l
183.8592 324.94176 l
0.981 0.921 0.865 setrgbcolor
fill
grestore
gsave
508.9 437.4 82.08 62.49 clipbox
234.7488 324.94176 m
285.6384 324.94176 l
285.6384 368.68392 l
234.7488 368.68392 l
234.7488 324.94176 l
0.981 0.921 0.865 setrgbcolor
fill
grestore
gsave
508.9 437.4 82.08 62.49 clipbox
285.6384 324.94176 m
336.528 324.94176 l
336.528 368.68392 l
285.6384 368.68392 l
285.6384 324.94176 l
0.981 0.921 0.865 setrgbcolor
fill
grestore
gsave
508.9 437.4 82.08 62.49 clipbox
336.528 324.94176 m
387.4176 324.94176 l
387.4176 368.68392 l
336.528 368.68392 l
336.528 324.94176 l
0.981 0.921 0.865 setrgbcolor
fill
grestore
gsave
508.9 437.4 82.08 62.49 clipbox
387.4176 324.94176 m
438.3072 324.94176 l
438.3072 368.68392 l
387.4176 368.68392 l
387.4176 324.94176 l
0.981 0.921 0.865 setrgbcolor
fill
grestore
gsave
508.9 437.4 82.08 62.49 clipbox
438.3072 324.94176 m
489.1968 324.94176 l
489.1968 368.68392 l
438.3072 368.68392 l
438.3072 324.94176 l
0.981 0.921 0.865 setrgbcolor
fill
grestore
gsave
508.9 437.4 82.08 62.49 clipbox
489.1968 324.94176 m
540.0864 324.94176 l
540.0864 368.68392 l
489.1968 368.68392 l
489.1968 324.94176 l
0.981 0.921 0.865 setrgbcolor
fill
grestore
gsave
508.9 437.4 82.08 62.49 clipbox
540.0864 324.94176 m
590.976 324.94176 l
590.976 368.68392 l
540.0864 368.68392 l
540.0864 324.94176 l
0.981 0.921 0.865 setrgbcolor
fill
grestore
gsave
508.9 437.4 82.08 62.49 clipbox
82.08 368.68392 m
132.9696 368.68392 l
132.9696 412.42608 l
82.08 412.42608 l
82.08 368.68392 l
0.981 0.921 0.865 setrgbcolor
fill
grestore
gsave
508.9 437.4 82.08 62.49 clipbox
132.9696 368.68392 m
183.8592 368.68392 l
183.8592 412.42608 l
132.9696 412.42608 l
132.9696 368.68392 l
0.981 0.921 0.865 setrgbcolor
fill
grestore
gsave
508.9 437.4 82.08 62.49 clipbox
183.8592 368.68392 m
234.7488 368.68392 l
234.7488 412.42608 l
183.8592 412.42608 l
183.8592 368.68392 l
0.981 0.921 0.865 setrgbcolor
fill
grestore
gsave
508.9 437.4 82.08 62.49 clipbox
234.7488 368.68392 m
285.6384 368.68392 l
285.6384 412.42608 l
234.7488 412.42608 l
234.7488 368.68392 l
0.981 0.921 0.865 setrgbcolor
fill
grestore
gsave
508.9 437.4 82.08 62.49 clipbox
285.6384 368.68392 m
336.528 368.68392 l
336.528 412.42608 l
285.6384 412.42608 l
285.6384 368.68392 l
0.981 0.921 0.865 setrgbcolor
fill
grestore
gsave
508.9 437.4 82.08 62.49 clipbox
336.528 368.68392 m
387.4176 368.68392 l
387.4176 412.42608 l
336.528 412.42608 l
336.528 368.68392 l
0.981 0.921 0.865 setrgbcolor
fill
grestore
gsave
508.9 437.4 82.08 62.49 clipbox
387.4176 368.68392 m
438.3072 368.68392 l
438.3072 412.42608 l
387.4176 412.42608 l
387.4176 368.68392 l
0.981 0.921 0.865 setrgbcolor
fill
grestore
gsave
508.9 437.4 82.08 62.49 clipbox
438.3072 368.68392 m
489.1968 368.68392 l
489.1968 412.42608 l
438.3072 412.42608 l
438.3072 368.68392 l
0.981 0.921 0.865 setrgbcolor
fill
grestore
gsave
508.9 437.4 82.08 62.49 clipbox
489.1968 368.68392 m
540.0864 368.68392 l
540.0864 412.42608 l
489.1968 412.42608 l
489.1968 368.68392 l
0.981 0.921 0.865 setrgbcolor
fill
grestore
gsave
508.9 437.4 82.08 62.49 clipbox
540.0864 368.68392 m
590.976 368.68392 l
590.976 412.42608 l
540.0864 412.42608 l
540.0864 368.68392 l
0.981 0.921 0.865 setrgbcolor
fill
grestore
gsave
508.9 437.4 82.08 62.49 clipbox
82.08 412.42608 m
132.9696 412.42608 l
132.9696 456.16824 l
82.08 456.16824 l
82.08 412.42608 l
0.981 0.921 0.865 setrgbcolor
fill
grestore
gsave
508.9 437.4 82.08 62.49 clipbox
132.9696 412.42608 m
183.8592 412.42608 l
183.8592 456.16824 l
132.9696 456.16824 l
132.9696 412.42608 l
0.981 0.921 0.865 setrgbcolor
fill
grestore
gsave
508.9 437.4 82.08 62.49 clipbox
183.8592 412.42608 m
234.7488 412.42608 l
234.7488 456.16824 l
183.8592 456.16824 l
183.8592 412.42608 l
0.981 0.921 0.865 setrgbcolor
fill
grestore
gsave
508.9 437.4 82.08 62.49 clipbox
234.7488 412.42608 m
285.6384 412.42608 l
285.6384 456.16824 l
234.7488 456.16824 l
234.7488 412.42608 l
0.981 0.921 0.865 setrgbcolor
fill
grestore
gsave
508.9 437.4 82.08 62.49 clipbox
285.6384 412.42608 m
336.528 412.42608 l
336.528 456.16824 l
285.6384 456.16824 l
285.6384 412.42608 l
0.981 0.921 0.865 setrgbcolor
fill
grestore
gsave
508.9 437.4 82.08 62.49 clipbox
336.528 412.42608 m
387.4176 412.42608 l
387.4176 456.16824 l
336.528 456.16824 l
336.528 412.42608 l
0.981 0.921 0.865 setrgbcolor
fill
grestore
gsave
508.9 437.4 82.08 62.49 clipbox
387.4176 412.42608 m
438.3072 412.42608 l
438.3072 456.16824 l
387.4176 456.16824 l
387.4176 412.42608 l
0.981 0.921 0.865 setrgbcolor
fill
grestore
gsave
508.9 437.4 82.08 62.49 clipbox
438.3072 412.42608 m
489.1968 412.42608 l
489.1968 456.16824 l
438.3072 456.16824 l
438.3072 412.42608 l
0.981 0.921 0.865 setrgbcolor
fill
grestore
gsave
508.9 437.4 82.08 62.49 clipbox
489.1968 412.42608 m
540.0864 412.42608 l
540.0864 456.16824 l
489.1968 456.16824 l
489.1968 412.42608 l
0.981 0.921 0.865 setrgbcolor
fill
grestore
gsave
508.9 437.4 82.08 62.49 clipbox
540.0864 412.42608 m
590.976 412.42608 l
590.976 456.16824 l
540.0864 456.16824 l
540.0864 412.42608 l
0.981 0.921 0.865 setrgbcolor
fill
grestore
gsave
508.9 437.4 82.08 62.49 clipbox
82.08 456.16824 m
132.9696 456.16824 l
132.9696 499.9104 l
82.08 499.9104 l
82.08 456.16824 l
0.981 0.921 0.865 setrgbcolor
fill
grestore
gsave
508.9 437.4 82.08 62.49 clipbox
132.9696 456.16824 m
183.8592 456.16824 l
183.8592 499.9104 l
132.9696 499.9104 l
132.9696 456.16824 l
0.981 0.921 0.865 setrgbcolor
fill
grestore
gsave
508.9 437.4 82.08 62.49 clipbox
183.8592 456.16824 m
234.7488 456.16824 l
234.7488 499.9104 l
183.8592 499.9104 l
183.8592 456.16824 l
0.981 0.921 0.865 setrgbcolor
fill
grestore
gsave
508.9 437.4 82.08 62.49 clipbox
234.7488 456.16824 m
285.6384 456.16824 l
285.6384 499.9104 l
234.7488 499.9104 l
234.7488 456.16824 l
0.981 0.921 0.865 setrgbcolor
fill
grestore
gsave
508.9 437.4 82.08 62.49 clipbox
285.6384 456.16824 m
336.528 456.16824 l
336.528 499.9104 l
285.6384 499.9104 l
285.6384 456.16824 l
0.981 0.921 0.865 setrgbcolor
fill
grestore
gsave
508.9 437.4 82.08 62.49 clipbox
336.528 456.16824 m
387.4176 456.16824 l
387.4176 499.9104 l
336.528 499.9104 l
336.528 456.16824 l
0.981 0.921 0.865 setrgbcolor
fill
grestore
gsave
508.9 437.4 82.08 62.49 clipbox
387.4176 456.16824 m
438.3072 456.16824 l
438.3072 499.9104 l
387.4176 499.9104 l
387.4176 456.16824 l
0.981 0.921 0.865 setrgbcolor
fill
grestore
gsave
508.9 437.4 82.08 62.49 clipbox
438.3072 456.16824 m
489.1968 456.16824 l
489.1968 499.9104 l
438.3072 499.9104 l
438.3072 456.16824 l
0.981 0.921 0.865 setrgbcolor
fill
grestore
gsave
508.9 437.4 82.08 62.49 clipbox
489.1968 456.16824 m
540.0864 456.16824 l
540.0864 499.9104 l
489.1968 499.9104 l
489.1968 456.16824 l
0.981 0.921 0.865 setrgbcolor
fill
grestore
gsave
508.9 437.4 82.08 62.49 clipbox
540.0864 456.16824 m
590.976 456.16824 l
590.976 499.9104 l
540.0864 499.9104 l
540.0864 456.16824 l
0.981 0.921 0.865 setrgbcolor
fill
grestore
1.000 setlinewidth
0 setlinejoin
0 setlinecap
[] 0 setdash
1.000 0.000 0.000 setrgbcolor
gsave
508.9 437.4 82.08 62.49 clipbox
158.4144 128.10204 m
180.191069 137.054193 l
180.822277 132.713755 l
565.215596 174.014419 l
565.846804 169.673981 l
181.453485 128.373317 l
182.084693 124.03288 l
cl
gsave
fill
grestore
stroke
grestore
gsave
508.9 437.4 82.08 62.49 clipbox
565.5312 346.81284 m
546.476982 359.551327 l
550.711253 361.977705 l
461.634865 476.826131 l
465.869135 479.252509 l
554.945523 364.404084 l
559.179794 366.830462 l
cl
gsave
fill
grestore
stroke
grestore
gsave
508.9 437.4 82.08 62.49 clipbox
158.4144 171.8442 m
166.04784 191.528172 l
170.119008 188.903642 l
309.047616 348.125105 l
313.118784 345.500575 l
174.190176 186.279113 l
178.261344 183.654583 l
cl
gsave
fill
grestore
stroke
grestore
gsave
508.9 437.4 82.08 62.49 clipbox
260.1936 346.81284 m
281.527407 356.520915 l
282.364027 352.206215 l
565.11289 392.71235 l
565.94951 388.39765 l
283.200646 347.891515 l
284.037266 343.576815 l
cl
gsave
fill
grestore
stroke
grestore
gsave
508.9 437.4 82.08 62.49 clipbox
107.5248 171.8442 m
124.593691 186.515766 l
126.869543 182.603349 l
309.945274 261.284729 l
312.221126 257.372311 l
129.145395 178.690931 l
131.421247 174.778513 l
cl
gsave
fill
grestore
stroke
grestore
gsave
508.9 437.4 82.08 62.49 clipbox
311.0832 259.32852 m
314.496978 279.868713 l
319.048682 277.912504 l
410.586548 435.275264 l
415.138252 433.319056 l
323.600387 275.956295 l
328.152091 274.000086 l
cl
gsave
fill
grestore
stroke
grestore
gsave
508.9 437.4 82.08 62.49 clipbox
311.0832 128.10204 m
324.823392 145.161482 l
327.876768 141.66211 l
513.114912 261.078206 l
516.168288 257.578834 l
330.930144 138.162737 l
333.98352 134.663364 l
cl
gsave
fill
grestore
stroke
grestore
gsave
508.9 437.4 82.08 62.49 clipbox
107.5248 215.58636 m
122.344747 231.964415 l
125.167594 228.324847 l
564.119776 479.859104 l
566.942624 476.219536 l
127.990442 224.685279 l
130.813289 221.045712 l
cl
gsave
fill
grestore
stroke
grestore
0.000 0.502 0.000 setrgbcolor
gsave
508.9 437.4 82.08 62.49 clipbox
565.5312 390.555 m
573.16464 370.871028 l
568.07568 370.871028 l
568.07568 84.35988 l
562.98672 84.35988 l
562.98672 370.871028 l
557.89776 370.871028 l
cl
gsave
fill
grestore
stroke
grestore
gsave
508.9 437.4 82.08 62.49 clipbox
158.4144 390.555 m
177.936526 378.351185 l
173.795469 375.808724 l
414.932929 85.631111 l
410.791871 83.088649 l
169.654412 373.266262 l
165.513355 370.723801 l
cl
gsave
fill
grestore
stroke
grestore
gsave
508.9 437.4 82.08 62.49 clipbox
463.752 390.555 m
487.648447 387.620687 l
485.372595 383.708269 l
566.669126 348.769049 l
564.393274 344.856631 l
483.096743 379.795851 l
480.820891 375.883434 l
cl
gsave
fill
grestore
stroke
grestore
gsave
508.9 437.4 82.08 62.49 clipbox
260.1936 478.03932 m
270.988914 459.481093 l
265.951101 458.862486 l
313.602107 172.153504 l
308.564293 171.534896 l
260.913288 458.243878 l
255.875474 457.625271 l
cl
gsave
fill
grestore
stroke
grestore
gsave
508.9 437.4 82.08 62.49 clipbox
514.6416 478.03932 m
522.27504 458.355348 l
517.18608 458.355348 l
517.18608 346.81284 l
512.09712 346.81284 l
512.09712 458.355348 l
507.00816 458.355348 l
cl
gsave
fill
grestore
stroke
grestore
gsave
508.9 437.4 82.08 62.49 clipbox
311.0832 259.32852 m
328.152091 244.656954 l
323.600387 242.700745 l
364.248652 172.822304 l
359.696948 170.866096 l
319.048682 240.744536 l
314.496978 238.788327 l
cl
gsave
fill
grestore
stroke
grestore
gsave
508.9 437.4 82.08 62.49 clipbox
260.1936 390.555 m
281.784229 381.275887 l
278.185791 378.182849 l
567.330419 129.648559 l
563.731981 126.555521 l
274.587353 375.089811 l
270.988914 371.996773 l
cl
gsave
fill
grestore
stroke
grestore
gsave
508.9 437.4 82.08 62.49 clipbox
463.752 478.03932 m
462.858573 457.304808 l
458.093632 458.840698 l
313.465671 127.334095 l
308.700729 128.869985 l
453.32869 460.376588 l
448.563748 461.912477 l
cl
gsave
fill
grestore
stroke
grestore
1.000 setgray
/DejaVuSans findfont
24.000 scalefont
setfont
gsave
99.891987 77.742692 translate
0.000000 rotate
0.000000 0.000000 m /one glyphshow
grestore
0.150 setgray
gsave
150.781588 77.742692 translate
0.000000 rotate
0.000000 0.000000 m /two glyphshow
grestore
gsave
201.671188 77.742692 translate
0.000000 rotate
0.000000 0.000000 m /three glyphshow
grestore
gsave
252.560788 77.742692 translate
0.000000 rotate
0.000000 0.000000 m /four glyphshow
grestore
gsave
303.450387 77.742692 translate
0.000000 rotate
0.000000 0.000000 m /five glyphshow
grestore
gsave
354.339988 77.742692 translate
0.000000 rotate
0.000000 0.000000 m /six glyphshow
grestore
gsave
405.229587 77.742692 translate
0.000000 rotate
0.000000 0.000000 m /seven glyphshow
grestore
gsave
456.119188 77.742692 translate
0.000000 rotate
0.000000 0.000000 m /eight glyphshow
grestore
gsave
507.008788 77.742692 translate
0.000000 rotate
0.000000 0.000000 m /nine glyphshow
grestore
gsave
550.265575 77.742692 translate
0.000000 rotate
0.000000 0.000000 m /one glyphshow
15.269531 0.000000 m /zero glyphshow
grestore
gsave
92.259175 121.484852 translate
0.000000 rotate
0.000000 0.000000 m /two glyphshow
15.269531 0.000000 m /zero glyphshow
grestore
gsave
143.148775 121.484852 translate
0.000000 rotate
0.000000 0.000000 m /one glyphshow
15.269531 0.000000 m /nine glyphshow
grestore
gsave
194.038375 121.484852 translate
0.000000 rotate
0.000000 0.000000 m /one glyphshow
15.269531 0.000000 m /eight glyphshow
grestore
gsave
244.927975 121.484852 translate
0.000000 rotate
0.000000 0.000000 m /one glyphshow
15.269531 0.000000 m /seven glyphshow
grestore
gsave
295.817575 121.484852 translate
0.000000 rotate
0.000000 0.000000 m /one glyphshow
15.269531 0.000000 m /six glyphshow
grestore
gsave
346.707175 121.484852 translate
0.000000 rotate
0.000000 0.000000 m /one glyphshow
15.269531 0.000000 m /five glyphshow
grestore
gsave
397.596775 121.484852 translate
0.000000 rotate
0.000000 0.000000 m /one glyphshow
15.269531 0.000000 m /four glyphshow
grestore
gsave
448.486375 121.484852 translate
0.000000 rotate
0.000000 0.000000 m /one glyphshow
15.269531 0.000000 m /three glyphshow
grestore
gsave
499.375975 121.484852 translate
0.000000 rotate
0.000000 0.000000 m /one glyphshow
15.269531 0.000000 m /two glyphshow
grestore
gsave
550.265575 121.484852 translate
0.000000 rotate
0.000000 0.000000 m /one glyphshow
15.269531 0.000000 m /one glyphshow
grestore
gsave
92.259175 165.227013 translate
0.000000 rotate
0.000000 0.000000 m /two glyphshow
15.269531 0.000000 m /one glyphshow
grestore
gsave
143.148775 165.227013 translate
0.000000 rotate
0.000000 0.000000 m /two glyphshow
15.269531 0.000000 m /two glyphshow
grestore
gsave
194.038375 165.227013 translate
0.000000 rotate
0.000000 0.000000 m /two glyphshow
15.269531 0.000000 m /three glyphshow
grestore
gsave
244.927975 165.227013 translate
0.000000 rotate
0.000000 0.000000 m /two glyphshow
15.269531 0.000000 m /four glyphshow
grestore
gsave
295.817575 165.227013 translate
0.000000 rotate
0.000000 0.000000 m /two glyphshow
15.269531 0.000000 m /five glyphshow
grestore
gsave
346.707175 165.227013 translate
0.000000 rotate
0.000000 0.000000 m /two glyphshow
15.269531 0.000000 m /six glyphshow
grestore
gsave
397.596775 165.227013 translate
0.000000 rotate
0.000000 0.000000 m /two glyphshow
15.269531 0.000000 m /seven glyphshow
grestore
gsave
448.486375 165.227013 translate
0.000000 rotate
0.000000 0.000000 m /two glyphshow
15.269531 0.000000 m /eight glyphshow
grestore
gsave
499.375975 165.227013 translate
0.000000 rotate
0.000000 0.000000 m /two glyphshow
15.269531 0.000000 m /nine glyphshow
grestore
gsave
550.265575 165.227013 translate
0.000000 rotate
0.000000 0.000000 m /three glyphshow
15.269531 0.000000 m /zero glyphshow
grestore
gsave
92.259175 208.969172 translate
0.000000 rotate
0.000000 0.000000 m /four glyphshow
15.269531 0.000000 m /zero glyphshow
grestore
gsave
143.148775 208.969172 translate
0.000000 rotate
0.000000 0.000000 m /three glyphshow
15.269531 0.000000 m /nine glyphshow
grestore
gsave
194.038375 208.969172 translate
0.000000 rotate
0.000000 0.000000 m /three glyphshow
15.269531 0.000000 m /eight glyphshow
grestore
gsave
244.927975 208.969172 translate
0.000000 rotate
0.000000 0.000000 m /three glyphshow
15.269531 0.000000 m /seven glyphshow
grestore
gsave
295.817575 208.969172 translate
0.000000 rotate
0.000000 0.000000 m /three glyphshow
15.269531 0.000000 m /six glyphshow
grestore
gsave
346.707175 208.969172 translate
0.000000 rotate
0.000000 0.000000 m /three glyphshow
15.269531 0.000000 m /five glyphshow
grestore
gsave
397.596775 208.969172 translate
0.000000 rotate
0.000000 0.000000 m /three glyphshow
15.269531 0.000000 m /four glyphshow
grestore
gsave
448.486375 208.969172 translate
0.000000 rotate
0.000000 0.000000 m /three glyphshow
15.269531 0.000000 m /three glyphshow
grestore
gsave
499.375975 208.969172 translate
0.000000 rotate
0.000000 0.000000 m /three glyphshow
15.269531 0.000000 m /two glyphshow
grestore
gsave
550.265575 208.969172 translate
0.000000 rotate
0.000000 0.000000 m /three glyphshow
15.269531 0.000000 m /one glyphshow
grestore
gsave
92.259175 252.711332 translate
0.000000 rotate
0.000000 0.000000 m /four glyphshow
15.269531 0.000000 m /one glyphshow
grestore
gsave
143.148775 252.711332 translate
0.000000 rotate
0.000000 0.000000 m /four glyphshow
15.269531 0.000000 m /two glyphshow
grestore
gsave
194.038375 252.711332 translate
0.000000 rotate
0.000000 0.000000 m /four glyphshow
15.269531 0.000000 m /three glyphshow
grestore
gsave
244.927975 252.711332 translate
0.000000 rotate
0.000000 0.000000 m /four glyphshow
15.269531 0.000000 m /four glyphshow
grestore
gsave
295.817575 252.711332 translate
0.000000 rotate
0.000000 0.000000 m /four glyphshow
15.269531 0.000000 m /five glyphshow
grestore
gsave
346.707175 252.711332 translate
0.000000 rotate
0.000000 0.000000 m /four glyphshow
15.269531 0.000000 m /six glyphshow
grestore
gsave
397.596775 252.711332 translate
0.000000 rotate
0.000000 0.000000 m /four glyphshow
15.269531 0.000000 m /seven glyphshow
grestore
gsave
448.486375 252.711332 translate
0.000000 rotate
0.000000 0.000000 m /four glyphshow
15.269531 0.000000 m /eight glyphshow
grestore
gsave
499.375975 252.711332 translate
0.000000 rotate
0.000000 0.000000 m /four glyphshow
15.269531 0.000000 m /nine glyphshow
grestore
gsave
550.265575 252.711332 translate
0.000000 rotate
0.000000 0.000000 m /five glyphshow
15.269531 0.000000 m /zero glyphshow
grestore
gsave
92.259175 296.453492 translate
0.000000 rotate
0.000000 0.000000 m /six glyphshow
15.269531 0.000000 m /zero glyphshow
grestore
gsave
143.148775 296.453492 translate
0.000000 rotate
0.000000 0.000000 m /five glyphshow
15.269531 0.000000 m /nine glyphshow
grestore
gsave
194.038375 296.453492 translate
0.000000 rotate
0.000000 0.000000 m /five glyphshow
15.269531 0.000000 m /eight glyphshow
grestore
gsave
244.927975 296.453492 translate
0.000000 rotate
0.000000 0.000000 m /five glyphshow
15.269531 0.000000 m /seven glyphshow
grestore
gsave
295.817575 296.453492 translate
0.000000 rotate
0.000000 0.000000 m /five glyphshow
15.269531 0.000000 m /six glyphshow
grestore
gsave
346.707175 296.453492 translate
0.000000 rotate
0.000000 0.000000 m /five glyphshow
15.269531 0.000000 m /five glyphshow
grestore
gsave
397.596775 296.453492 translate
0.000000 rotate
0.000000 0.000000 m /five glyphshow
15.269531 0.000000 m /four glyphshow
grestore
gsave
448.486375 296.453492 translate
0.000000 rotate
0.000000 0.000000 m /five glyphshow
15.269531 0.000000 m /three glyphshow
grestore
gsave
499.375975 296.453492 translate
0.000000 rotate
0.000000 0.000000 m /five glyphshow
15.269531 0.000000 m /two glyphshow
grestore
gsave
550.265575 296.453492 translate
0.000000 rotate
0.000000 0.000000 m /five glyphshow
15.269531 0.000000 m /one glyphshow
grestore
gsave
92.259175 340.195652 translate
0.000000 rotate
0.000000 0.000000 m /six glyphshow
15.269531 0.000000 m /one glyphshow
grestore
gsave
143.148775 340.195652 translate
0.000000 rotate
0.000000 0.000000 m /six glyphshow
15.269531 0.000000 m /two glyphshow
grestore
gsave
194.038375 340.195652 translate
0.000000 rotate
0.000000 0.000000 m /six glyphshow
15.269531 0.000000 m /three glyphshow
grestore
gsave
244.927975 340.195652 translate
0.000000 rotate
0.000000 0.000000 m /six glyphshow
15.269531 0.000000 m /four glyphshow
grestore
gsave
295.817575 340.195652 translate
0.000000 rotate
0.000000 0.000000 m /six glyphshow
15.269531 0.000000 m /five glyphshow
grestore
gsave
346.707175 340.195652 translate
0.000000 rotate
0.000000 0.000000 m /six glyphshow
15.269531 0.000000 m /six glyphshow
grestore
gsave
397.596775 340.195652 translate
0.000000 rotate
0.000000 0.000000 m /six glyphshow
15.269531 0.000000 m /seven glyphshow
grestore
gsave
448.486375 340.195652 translate
0.000000 rotate
0.000000 0.000000 m /six glyphshow
15.269531 0.000000 m /eight glyphshow
grestore
gsave
499.375975 340.195652 translate
0.000000 rotate
0.000000 0.000000 m /six glyphshow
15.269531 0.000000 m /nine glyphshow
grestore
gsave
550.265575 340.195652 translate
0.000000 rotate
0.000000 0.000000 m /seven glyphshow
15.269531 0.000000 m /zero glyphshow
grestore
gsave
92.259175 383.937812 translate
0.000000 rotate
0.000000 0.000000 m /eight glyphshow
15.269531 0.000000 m /zero glyphshow
grestore
gsave
143.148775 383.937812 translate
0.000000 rotate
0.000000 0.000000 m /seven glyphshow
15.269531 0.000000 m /nine glyphshow
grestore
gsave
194.038375 383.937812 translate
0.000000 rotate
0.000000 0.000000 m /seven glyphshow
15.269531 0.000000 m /eight glyphshow
grestore
gsave
244.927975 383.937812 translate
0.000000 rotate
0.000000 0.000000 m /seven glyphshow
15.269531 0.000000 m /seven glyphshow
grestore
gsave
295.817575 383.937812 translate
0.000000 rotate
0.000000 0.000000 m /seven glyphshow
15.269531 0.000000 m /six glyphshow
grestore
gsave
346.707175 383.937812 translate
0.000000 rotate
0.000000 0.000000 m /seven glyphshow
15.269531 0.000000 m /five glyphshow
grestore
gsave
397.596775 383.937812 translate
0.000000 rotate
0.000000 0.000000 m /seven glyphshow
15.269531 0.000000 m /four glyphshow
grestore
gsave
448.486375 383.937812 translate
0.000000 rotate
0.000000 0.000000 m /seven glyphshow
15.269531 0.000000 m /three glyphshow
grestore
gsave
499.375975 383.937812 translate
0.000000 rotate
0.000000 0.000000 m /seven glyphshow
15.269531 0.000000 m /two glyphshow
grestore
gsave
550.265575 383.937812 translate
0.000000 rotate
0.000000 0.000000 m /seven glyphshow
15.269531 0.000000 m /one glyphshow
grestore
gsave
92.259175 427.679972 translate
0.000000 rotate
0.000000 0.000000 m /eight glyphshow
15.269531 0.000000 m /one glyphshow
grestore
gsave
143.148775 427.679972 translate
0.000000 rotate
0.000000 0.000000 m /eight glyphshow
15.269531 0.000000 m /two glyphshow
grestore
gsave
194.038375 427.679972 translate
0.000000 rotate
0.000000 0.000000 m /eight glyphshow
15.269531 0.000000 m /three glyphshow
grestore
gsave
244.927975 427.679972 translate
0.000000 rotate
0.000000 0.000000 m /eight glyphshow
15.269531 0.000000 m /four glyphshow
grestore
gsave
295.817575 427.679972 translate
0.000000 rotate
0.000000 0.000000 m /eight glyphshow
15.269531 0.000000 m /five glyphshow
grestore
gsave
346.707175 427.679972 translate
0.000000 rotate
0.000000 0.000000 m /eight glyphshow
15.269531 0.000000 m /six glyphshow
grestore
gsave
397.596775 427.679972 translate
0.000000 rotate
0.000000 0.000000 m /eight glyphshow
15.269531 0.000000 m /seven glyphshow
grestore
gsave
448.486375 427.679972 translate
0.000000 rotate
0.000000 0.000000 m /eight glyphshow
15.269531 0.000000 m /eight glyphshow
grestore
gsave
499.375975 427.679972 translate
0.000000 rotate
0.000000 0.000000 m /eight glyphshow
15.269531 0.000000 m /nine glyphshow
grestore
gsave
550.265575 427.679972 translate
0.000000 rotate
0.000000 0.000000 m /nine glyphshow
15.269531 0.000000 m /zero glyphshow
grestore
gsave
84.626362 471.422132 translate
0.000000 rotate
0.000000 0.000000 m /one glyphshow
15.269531 0.000000 m /zero glyphshow
30.539062 0.000000 m /zero glyphshow
grestore
gsave
143.148775 471.422132 translate
0.000000 rotate
0.000000 0.000000 m /nine glyphshow
15.269531 0.000000 m /nine glyphshow
grestore
gsave
194.038375 471.422132 translate
0.000000 rotate
0.000000 0.000000 m /nine glyphshow
15.269531 0.000000 m /eight glyphshow
grestore
gsave
244.927975 471.422132 translate
0.000000 rotate
0.000000 0.000000 m /nine glyphshow
15.269531 0.000000 m /seven glyphshow
grestore
gsave
295.817575 471.422132 translate
0.000000 rotate
0.000000 0.000000 m /nine glyphshow
15.269531 0.000000 m /six glyphshow
grestore
gsave
346.707175 471.422132 translate
0.000000 rotate
0.000000 0.000000 m /nine glyphshow
15.269531 0.000000 m /five glyphshow
grestore
gsave
397.596775 471.422132 translate
0.000000 rotate
0.000000 0.000000 m /nine glyphshow
15.269531 0.000000 m /four glyphshow
grestore
gsave
448.486375 471.422132 translate
0.000000 rotate
0.000000 0.000000 m /nine glyphshow
15.269531 0.000000 m /three glyphshow
grestore
gsave
499.375975 471.422132 translate
0.000000 rotate
0.000000 0.000000 m /nine glyphshow
15.269531 0.000000 m /two glyphshow
grestore
gsave
550.265575 471.422132 translate
0.000000 rotate
0.000000 0.000000 m /nine glyphshow
15.269531 0.000000 m /one glyphshow
grestore

end
showpage
