%!PS-Adobe-3.0 EPSF-3.0
%%Title: Sample/Figures/MovesTillVictoryPdf.eps
%%Creator: matplotlib version 3.0.2, http://matplotlib.org/
%%CreationDate: Mon Jan 14 17:22:55 2019
%%Orientation: portrait
%%BoundingBox: 75 223 536 568
%%EndComments
%%BeginProlog
/mpldict 8 dict def
mpldict begin
/m { moveto } bind def
/l { lineto } bind def
/r { rlineto } bind def
/c { curveto } bind def
/cl { closepath } bind def
/box {
m
1 index 0 r
0 exch r
neg 0 r
cl
} bind def
/clipbox {
box
clip
newpath
} bind def
%!PS-Adobe-3.0 Resource-Font
%%Title: DejaVu Sans
%%Copyright: Copyright (c) 2003 by Bitstream, Inc. All Rights Reserved. Copyright (c) 2006 by Tavmjong Bah. All Rights Reserved. DejaVu changes are in public domain 
%%Creator: Converted from TrueType to type 3 by PPR
25 dict begin
/_d{bind def}bind def
/_m{moveto}_d
/_l{lineto}_d
/_cl{closepath eofill}_d
/_c{curveto}_d
/_sc{7 -1 roll{setcachedevice}{pop pop pop pop pop pop}ifelse}_d
/_e{exec}_d
/FontName /DejaVuSans def
/PaintType 0 def
/FontMatrix[.001 0 0 .001 0 0]def
/FontBBox[-1021 -463 1793 1232]def
/FontType 3 def
/Encoding [ /space /zero /one /two /four /five /six /eight /A /M /S /a /b /c /d /e /f /g /h /i /l /m /n /o /q /r /s /t /u /v /y /z ] def
/FontInfo 10 dict dup begin
/FamilyName (DejaVu Sans) def
/FullName (DejaVu Sans) def
/Notice (Copyright (c) 2003 by Bitstream, Inc. All Rights Reserved. Copyright (c) 2006 by Tavmjong Bah. All Rights Reserved. DejaVu changes are in public domain ) def
/Weight (Book) def
/Version (Version 2.35) def
/ItalicAngle 0.0 def
/isFixedPitch false def
/UnderlinePosition -130 def
/UnderlineThickness 90 def
end readonly def
/CharStrings 33 dict dup begin
/.notdef 0 def
/space{318 0 0 0 0 0 _sc
}_d
/zero{636 0 66 -13 570 742 _sc
318 664 _m
267 664 229 639 203 589 _c
177 539 165 464 165 364 _c
165 264 177 189 203 139 _c
229 89 267 64 318 64 _c
369 64 407 89 433 139 _c
458 189 471 264 471 364 _c
471 464 458 539 433 589 _c
407 639 369 664 318 664 _c
318 742 _m
399 742 461 709 505 645 _c
548 580 570 486 570 364 _c
570 241 548 147 505 83 _c
461 19 399 -13 318 -13 _c
236 -13 173 19 130 83 _c
87 147 66 241 66 364 _c
66 486 87 580 130 645 _c
173 709 236 742 318 742 _c
_cl}_d
/one{636 0 110 0 544 729 _sc
124 83 _m
285 83 _l
285 639 _l
110 604 _l
110 694 _l
284 729 _l
383 729 _l
383 83 _l
544 83 _l
544 0 _l
124 0 _l
124 83 _l
_cl}_d
/two{{636 0 73 0 536 742 _sc
192 83 _m
536 83 _l
536 0 _l
73 0 _l
73 83 _l
110 121 161 173 226 239 _c
290 304 331 346 348 365 _c
380 400 402 430 414 455 _c
426 479 433 504 433 528 _c
433 566 419 598 392 622 _c
365 646 330 659 286 659 _c
255 659 222 653 188 643 _c
154 632 117 616 78 594 _c
78 694 _l
118 710 155 722 189 730 _c
223 738 255 742 284 742 _c
}_e{359 742 419 723 464 685 _c
509 647 532 597 532 534 _c
532 504 526 475 515 449 _c
504 422 484 390 454 354 _c
446 344 420 317 376 272 _c
332 227 271 164 192 83 _c
_cl}_e}_d
/four{636 0 49 0 580 729 _sc
378 643 _m
129 254 _l
378 254 _l
378 643 _l
352 729 _m
476 729 _l
476 254 _l
580 254 _l
580 172 _l
476 172 _l
476 0 _l
378 0 _l
378 172 _l
49 172 _l
49 267 _l
352 729 _l
_cl}_d
/five{{636 0 77 -13 549 729 _sc
108 729 _m
495 729 _l
495 646 _l
198 646 _l
198 467 _l
212 472 227 476 241 478 _c
255 480 270 482 284 482 _c
365 482 429 459 477 415 _c
525 370 549 310 549 234 _c
549 155 524 94 475 51 _c
426 8 357 -13 269 -13 _c
238 -13 207 -10 175 -6 _c
143 -1 111 6 77 17 _c
77 116 _l
106 100 136 88 168 80 _c
199 72 232 69 267 69 _c
}_e{323 69 368 83 401 113 _c
433 143 450 183 450 234 _c
450 284 433 324 401 354 _c
368 384 323 399 267 399 _c
241 399 214 396 188 390 _c
162 384 135 375 108 363 _c
108 729 _l
_cl}_e}_d
/six{{636 0 70 -13 573 742 _sc
330 404 _m
286 404 251 388 225 358 _c
199 328 186 286 186 234 _c
186 181 199 139 225 109 _c
251 79 286 64 330 64 _c
374 64 409 79 435 109 _c
461 139 474 181 474 234 _c
474 286 461 328 435 358 _c
409 388 374 404 330 404 _c
526 713 _m
526 623 _l
501 635 476 644 451 650 _c
425 656 400 659 376 659 _c
310 659 260 637 226 593 _c
}_e{192 549 172 482 168 394 _c
187 422 211 444 240 459 _c
269 474 301 482 336 482 _c
409 482 467 459 509 415 _c
551 371 573 310 573 234 _c
573 159 550 99 506 54 _c
462 9 403 -13 330 -13 _c
246 -13 181 19 137 83 _c
92 147 70 241 70 364 _c
70 479 97 571 152 639 _c
206 707 280 742 372 742 _c
396 742 421 739 447 735 _c
472 730 498 723 526 713 _c
_cl}_e}_d
/eight{{636 0 68 -13 568 742 _sc
318 346 _m
271 346 234 333 207 308 _c
180 283 167 249 167 205 _c
167 161 180 126 207 101 _c
234 76 271 64 318 64 _c
364 64 401 76 428 102 _c
455 127 469 161 469 205 _c
469 249 455 283 429 308 _c
402 333 365 346 318 346 _c
219 388 _m
177 398 144 418 120 447 _c
96 476 85 511 85 553 _c
85 611 105 657 147 691 _c
188 725 245 742 318 742 _c
}_e{390 742 447 725 489 691 _c
530 657 551 611 551 553 _c
551 511 539 476 515 447 _c
491 418 459 398 417 388 _c
464 377 501 355 528 323 _c
554 291 568 251 568 205 _c
568 134 546 80 503 43 _c
459 5 398 -13 318 -13 _c
237 -13 175 5 132 43 _c
89 80 68 134 68 205 _c
68 251 81 291 108 323 _c
134 355 171 377 219 388 _c
183 544 _m
183 506 194 476 218 455 _c
}_e{242 434 275 424 318 424 _c
360 424 393 434 417 455 _c
441 476 453 506 453 544 _c
453 582 441 611 417 632 _c
393 653 360 664 318 664 _c
275 664 242 653 218 632 _c
194 611 183 582 183 544 _c
_cl}_e}_d
/A{684 0 8 0 676 729 _sc
342 632 _m
208 269 _l
476 269 _l
342 632 _l
286 729 _m
398 729 _l
676 0 _l
573 0 _l
507 187 _l
178 187 _l
112 0 _l
8 0 _l
286 729 _l
_cl}_d
/M{863 0 98 0 765 729 _sc
98 729 _m
245 729 _l
431 233 _l
618 729 _l
765 729 _l
765 0 _l
669 0 _l
669 640 _l
481 140 _l
382 140 _l
194 640 _l
194 0 _l
98 0 _l
98 729 _l
_cl}_d
/S{{635 0 66 -13 579 742 _sc
535 705 _m
535 609 _l
497 627 462 640 429 649 _c
395 657 363 662 333 662 _c
279 662 237 651 208 631 _c
179 610 165 580 165 542 _c
165 510 174 485 194 469 _c
213 452 250 439 304 429 _c
364 417 _l
437 403 491 378 526 343 _c
561 307 579 260 579 201 _c
579 130 555 77 508 41 _c
460 5 391 -13 300 -13 _c
265 -13 228 -9 189 -2 _c
}_e{150 5 110 16 69 32 _c
69 134 _l
109 111 148 94 186 83 _c
224 71 262 66 300 66 _c
356 66 399 77 430 99 _c
460 121 476 152 476 194 _c
476 230 465 258 443 278 _c
421 298 385 313 335 323 _c
275 335 _l
201 349 148 372 115 404 _c
82 435 66 478 66 534 _c
66 598 88 649 134 686 _c
179 723 242 742 322 742 _c
356 742 390 739 426 733 _c
461 727 497 717 535 705 _c
}_e{_cl}_e}_d
/a{{613 0 60 -13 522 560 _sc
343 275 _m
270 275 220 266 192 250 _c
164 233 150 205 150 165 _c
150 133 160 107 181 89 _c
202 70 231 61 267 61 _c
317 61 357 78 387 114 _c
417 149 432 196 432 255 _c
432 275 _l
343 275 _l
522 312 _m
522 0 _l
432 0 _l
432 83 _l
411 49 385 25 355 10 _c
325 -5 287 -13 243 -13 _c
187 -13 142 2 109 33 _c
76 64 60 106 60 159 _c
}_e{60 220 80 266 122 298 _c
163 329 224 345 306 345 _c
432 345 _l
432 354 _l
432 395 418 427 391 450 _c
364 472 326 484 277 484 _c
245 484 215 480 185 472 _c
155 464 127 453 100 439 _c
100 522 _l
132 534 164 544 195 550 _c
226 556 256 560 286 560 _c
365 560 424 539 463 498 _c
502 457 522 395 522 312 _c
_cl}_e}_d
/b{{635 0 91 -13 580 760 _sc
487 273 _m
487 339 473 390 446 428 _c
418 466 381 485 334 485 _c
286 485 249 466 222 428 _c
194 390 181 339 181 273 _c
181 207 194 155 222 117 _c
249 79 286 61 334 61 _c
381 61 418 79 446 117 _c
473 155 487 207 487 273 _c
181 464 _m
199 496 223 520 252 536 _c
281 552 316 560 356 560 _c
422 560 476 533 518 481 _c
559 428 580 359 580 273 _c
}_e{580 187 559 117 518 65 _c
476 13 422 -13 356 -13 _c
316 -13 281 -5 252 10 _c
223 25 199 49 181 82 _c
181 0 _l
91 0 _l
91 760 _l
181 760 _l
181 464 _l
_cl}_e}_d
/c{{550 0 55 -13 488 560 _sc
488 526 _m
488 442 _l
462 456 437 466 411 473 _c
385 480 360 484 334 484 _c
276 484 230 465 198 428 _c
166 391 150 339 150 273 _c
150 206 166 154 198 117 _c
230 80 276 62 334 62 _c
360 62 385 65 411 72 _c
437 79 462 90 488 104 _c
488 21 _l
462 9 436 0 410 -5 _c
383 -10 354 -13 324 -13 _c
242 -13 176 12 128 64 _c
}_e{79 115 55 185 55 273 _c
55 362 79 432 128 483 _c
177 534 244 560 330 560 _c
358 560 385 557 411 551 _c
437 545 463 537 488 526 _c
_cl}_e}_d
/d{{635 0 55 -13 544 760 _sc
454 464 _m
454 760 _l
544 760 _l
544 0 _l
454 0 _l
454 82 _l
435 49 411 25 382 10 _c
353 -5 319 -13 279 -13 _c
213 -13 159 13 117 65 _c
75 117 55 187 55 273 _c
55 359 75 428 117 481 _c
159 533 213 560 279 560 _c
319 560 353 552 382 536 _c
411 520 435 496 454 464 _c
148 273 _m
148 207 161 155 188 117 _c
215 79 253 61 301 61 _c
}_e{348 61 385 79 413 117 _c
440 155 454 207 454 273 _c
454 339 440 390 413 428 _c
385 466 348 485 301 485 _c
253 485 215 466 188 428 _c
161 390 148 339 148 273 _c
_cl}_e}_d
/e{{615 0 55 -13 562 560 _sc
562 296 _m
562 252 _l
149 252 _l
153 190 171 142 205 110 _c
238 78 284 62 344 62 _c
378 62 412 66 444 74 _c
476 82 509 95 541 113 _c
541 28 _l
509 14 476 3 442 -3 _c
408 -9 373 -13 339 -13 _c
251 -13 182 12 131 62 _c
80 112 55 181 55 268 _c
55 357 79 428 127 481 _c
175 533 241 560 323 560 _c
397 560 455 536 498 489 _c
}_e{540 441 562 377 562 296 _c
472 322 _m
471 371 457 410 431 440 _c
404 469 368 484 324 484 _c
274 484 234 469 204 441 _c
174 413 156 373 152 322 _c
472 322 _l
_cl}_e}_d
/f{352 0 23 0 371 760 _sc
371 760 _m
371 685 _l
285 685 _l
253 685 230 678 218 665 _c
205 652 199 629 199 595 _c
199 547 _l
347 547 _l
347 477 _l
199 477 _l
199 0 _l
109 0 _l
109 477 _l
23 477 _l
23 547 _l
109 547 _l
109 585 _l
109 645 123 690 151 718 _c
179 746 224 760 286 760 _c
371 760 _l
_cl}_d
/g{{635 0 55 -207 544 560 _sc
454 280 _m
454 344 440 395 414 431 _c
387 467 349 485 301 485 _c
253 485 215 467 188 431 _c
161 395 148 344 148 280 _c
148 215 161 165 188 129 _c
215 93 253 75 301 75 _c
349 75 387 93 414 129 _c
440 165 454 215 454 280 _c
544 68 _m
544 -24 523 -93 482 -139 _c
440 -184 377 -207 292 -207 _c
260 -207 231 -204 203 -200 _c
175 -195 147 -188 121 -178 _c
}_e{121 -91 _l
147 -105 173 -115 199 -122 _c
225 -129 251 -133 278 -133 _c
336 -133 380 -117 410 -87 _c
439 -56 454 -10 454 52 _c
454 96 _l
435 64 411 40 382 24 _c
353 8 319 0 279 0 _c
211 0 157 25 116 76 _c
75 127 55 195 55 280 _c
55 364 75 432 116 483 _c
157 534 211 560 279 560 _c
319 560 353 552 382 536 _c
411 520 435 496 454 464 _c
454 547 _l
544 547 _l
}_e{544 68 _l
_cl}_e}_d
/h{634 0 91 0 549 760 _sc
549 330 _m
549 0 _l
459 0 _l
459 327 _l
459 379 448 417 428 443 _c
408 469 378 482 338 482 _c
289 482 251 466 223 435 _c
195 404 181 362 181 309 _c
181 0 _l
91 0 _l
91 760 _l
181 760 _l
181 462 _l
202 494 227 519 257 535 _c
286 551 320 560 358 560 _c
420 560 468 540 500 501 _c
532 462 549 405 549 330 _c
_cl}_d
/i{278 0 94 0 184 760 _sc
94 547 _m
184 547 _l
184 0 _l
94 0 _l
94 547 _l
94 760 _m
184 760 _l
184 646 _l
94 646 _l
94 760 _l
_cl}_d
/l{278 0 94 0 184 760 _sc
94 760 _m
184 760 _l
184 0 _l
94 0 _l
94 760 _l
_cl}_d
/m{{974 0 91 0 889 560 _sc
520 442 _m
542 482 569 511 600 531 _c
631 550 668 560 711 560 _c
767 560 811 540 842 500 _c
873 460 889 403 889 330 _c
889 0 _l
799 0 _l
799 327 _l
799 379 789 418 771 444 _c
752 469 724 482 686 482 _c
639 482 602 466 575 435 _c
548 404 535 362 535 309 _c
535 0 _l
445 0 _l
445 327 _l
445 379 435 418 417 444 _c
398 469 369 482 331 482 _c
}_e{285 482 248 466 221 435 _c
194 404 181 362 181 309 _c
181 0 _l
91 0 _l
91 547 _l
181 547 _l
181 462 _l
201 495 226 520 255 536 _c
283 552 317 560 357 560 _c
397 560 430 550 458 530 _c
486 510 506 480 520 442 _c
_cl}_e}_d
/n{634 0 91 0 549 560 _sc
549 330 _m
549 0 _l
459 0 _l
459 327 _l
459 379 448 417 428 443 _c
408 469 378 482 338 482 _c
289 482 251 466 223 435 _c
195 404 181 362 181 309 _c
181 0 _l
91 0 _l
91 547 _l
181 547 _l
181 462 _l
202 494 227 519 257 535 _c
286 551 320 560 358 560 _c
420 560 468 540 500 501 _c
532 462 549 405 549 330 _c
_cl}_d
/o{612 0 55 -13 557 560 _sc
306 484 _m
258 484 220 465 192 427 _c
164 389 150 338 150 273 _c
150 207 163 156 191 118 _c
219 80 257 62 306 62 _c
354 62 392 80 420 118 _c
448 156 462 207 462 273 _c
462 337 448 389 420 427 _c
392 465 354 484 306 484 _c
306 560 _m
384 560 445 534 490 484 _c
534 433 557 363 557 273 _c
557 183 534 113 490 63 _c
445 12 384 -13 306 -13 _c
227 -13 165 12 121 63 _c
77 113 55 183 55 273 _c
55 363 77 433 121 484 _c
165 534 227 560 306 560 _c
_cl}_d
/q{{635 0 55 -207 544 560 _sc
148 273 _m
148 207 161 155 188 117 _c
215 79 253 61 301 61 _c
348 61 385 79 413 117 _c
440 155 454 207 454 273 _c
454 339 440 390 413 428 _c
385 466 348 485 301 485 _c
253 485 215 466 188 428 _c
161 390 148 339 148 273 _c
454 82 _m
435 49 411 25 382 10 _c
353 -5 319 -13 279 -13 _c
213 -13 159 13 117 65 _c
75 117 55 187 55 273 _c
}_e{55 359 75 428 117 481 _c
159 533 213 560 279 560 _c
319 560 353 552 382 536 _c
411 520 435 496 454 464 _c
454 547 _l
544 547 _l
544 -207 _l
454 -207 _l
454 82 _l
_cl}_e}_d
/r{411 0 91 0 411 560 _sc
411 463 _m
401 469 390 473 378 476 _c
366 478 353 480 339 480 _c
288 480 249 463 222 430 _c
194 397 181 350 181 288 _c
181 0 _l
91 0 _l
91 547 _l
181 547 _l
181 462 _l
199 495 224 520 254 536 _c
284 552 321 560 365 560 _c
371 560 378 559 386 559 _c
393 558 401 557 411 555 _c
411 463 _l
_cl}_d
/s{{521 0 54 -13 472 560 _sc
443 531 _m
443 446 _l
417 458 391 468 364 475 _c
336 481 308 485 279 485 _c
234 485 200 478 178 464 _c
156 450 145 430 145 403 _c
145 382 153 366 169 354 _c
185 342 217 330 265 320 _c
296 313 _l
360 299 405 279 432 255 _c
458 230 472 195 472 151 _c
472 100 452 60 412 31 _c
372 1 316 -13 246 -13 _c
216 -13 186 -10 154 -5 _c
}_e{122 0 89 8 54 20 _c
54 113 _l
87 95 120 82 152 74 _c
184 65 216 61 248 61 _c
290 61 323 68 346 82 _c
368 96 380 117 380 144 _c
380 168 371 187 355 200 _c
339 213 303 226 247 238 _c
216 245 _l
160 257 119 275 95 299 _c
70 323 58 356 58 399 _c
58 450 76 490 112 518 _c
148 546 200 560 268 560 _c
301 560 332 557 362 552 _c
391 547 418 540 443 531 _c
}_e{_cl}_e}_d
/t{392 0 27 0 368 702 _sc
183 702 _m
183 547 _l
368 547 _l
368 477 _l
183 477 _l
183 180 _l
183 135 189 106 201 94 _c
213 81 238 75 276 75 _c
368 75 _l
368 0 _l
276 0 _l
206 0 158 13 132 39 _c
106 65 93 112 93 180 _c
93 477 _l
27 477 _l
27 547 _l
93 547 _l
93 702 _l
183 702 _l
_cl}_d
/u{634 0 85 -13 543 560 _sc
85 216 _m
85 547 _l
175 547 _l
175 219 _l
175 167 185 129 205 103 _c
225 77 255 64 296 64 _c
344 64 383 79 411 110 _c
439 141 453 183 453 237 _c
453 547 _l
543 547 _l
543 0 _l
453 0 _l
453 84 _l
431 50 405 26 377 10 _c
348 -5 315 -13 277 -13 _c
214 -13 166 6 134 45 _c
101 83 85 140 85 216 _c
311 560 _m
311 560 _l
_cl}_d
/v{592 0 30 0 562 547 _sc
30 547 _m
125 547 _l
296 88 _l
467 547 _l
562 547 _l
357 0 _l
235 0 _l
30 547 _l
_cl}_d
/y{592 0 30 -207 562 547 _sc
322 -50 _m
296 -114 271 -157 247 -177 _c
223 -197 191 -207 151 -207 _c
79 -207 _l
79 -132 _l
132 -132 _l
156 -132 175 -126 189 -114 _c
203 -102 218 -75 235 -31 _c
251 9 _l
30 547 _l
125 547 _l
296 119 _l
467 547 _l
562 547 _l
322 -50 _l
_cl}_d
/z{525 0 43 0 482 547 _sc
55 547 _m
482 547 _l
482 465 _l
144 72 _l
482 72 _l
482 0 _l
43 0 _l
43 82 _l
381 475 _l
55 475 _l
55 547 _l
_cl}_d
end readonly def

/BuildGlyph
 {exch begin
 CharStrings exch
 2 copy known not{pop /.notdef}if
 true 3 1 roll get exec
 end}_d

/BuildChar {
 1 index /Encoding get exch get
 1 index /BuildGlyph get exec
}_d

FontName currentdict end definefont pop
end
%%EndProlog
mpldict begin
75.6 223.2 translate
460.8 345.6 0 0 clipbox
gsave
0 0 m
460.8 0 l
460.8 345.6 l
0 345.6 l
cl
1.000 setgray
fill
grestore
gsave
57.6 38.016 m
414.72 38.016 l
414.72 304.128 l
57.6 304.128 l
cl
0.898 setgray
fill
grestore
0.800 setlinewidth
1 setlinejoin
2 setlinecap
[] 0 setdash
1.000 setgray
gsave
357.1 266.1 57.6 38.02 clipbox
73.832727 38.016 m
73.832727 304.128 l
stroke
grestore
0 setlinecap
0.333 setgray
gsave
/o {
gsave
newpath
translate
0.8 setlinewidth
1 setlinejoin
0 setlinecap
0 0 m
0 -3.5 l

gsave
0.333 setgray
fill
grestore
stroke
grestore
} bind def
73.8327 38.016 o
grestore
/DejaVuSans findfont
10.000 scalefont
setfont
gsave
70.653040 23.422250 translate
0.000000 rotate
0.000000 0.000000 m /zero glyphshow
grestore
2 setlinecap
1.000 setgray
gsave
357.1 266.1 57.6 38.02 clipbox
140.088757 38.016 m
140.088757 304.128 l
stroke
grestore
0 setlinecap
0.333 setgray
gsave
/o {
gsave
newpath
translate
0.8 setlinewidth
1 setlinejoin
0 setlinecap
0 0 m
0 -3.5 l

gsave
0.333 setgray
fill
grestore
stroke
grestore
} bind def
140.089 38.016 o
grestore
gsave
133.729382 23.422250 translate
0.000000 rotate
0.000000 0.000000 m /two glyphshow
6.362305 0.000000 m /zero glyphshow
grestore
2 setlinecap
1.000 setgray
gsave
357.1 266.1 57.6 38.02 clipbox
206.344787 38.016 m
206.344787 304.128 l
stroke
grestore
0 setlinecap
0.333 setgray
gsave
/o {
gsave
newpath
translate
0.8 setlinewidth
1 setlinejoin
0 setlinecap
0 0 m
0 -3.5 l

gsave
0.333 setgray
fill
grestore
stroke
grestore
} bind def
206.345 38.016 o
grestore
gsave
199.985412 23.422250 translate
0.000000 rotate
0.000000 0.000000 m /four glyphshow
6.362305 0.000000 m /zero glyphshow
grestore
2 setlinecap
1.000 setgray
gsave
357.1 266.1 57.6 38.02 clipbox
272.600816 38.016 m
272.600816 304.128 l
stroke
grestore
0 setlinecap
0.333 setgray
gsave
/o {
gsave
newpath
translate
0.8 setlinewidth
1 setlinejoin
0 setlinecap
0 0 m
0 -3.5 l

gsave
0.333 setgray
fill
grestore
stroke
grestore
} bind def
272.601 38.016 o
grestore
gsave
266.241441 23.422250 translate
0.000000 rotate
0.000000 0.000000 m /six glyphshow
6.362305 0.000000 m /zero glyphshow
grestore
2 setlinecap
1.000 setgray
gsave
357.1 266.1 57.6 38.02 clipbox
338.856846 38.016 m
338.856846 304.128 l
stroke
grestore
0 setlinecap
0.333 setgray
gsave
/o {
gsave
newpath
translate
0.8 setlinewidth
1 setlinejoin
0 setlinecap
0 0 m
0 -3.5 l

gsave
0.333 setgray
fill
grestore
stroke
grestore
} bind def
338.857 38.016 o
grestore
gsave
332.497471 23.422250 translate
0.000000 rotate
0.000000 0.000000 m /eight glyphshow
6.362305 0.000000 m /zero glyphshow
grestore
2 setlinecap
1.000 setgray
gsave
357.1 266.1 57.6 38.02 clipbox
405.112876 38.016 m
405.112876 304.128 l
stroke
grestore
0 setlinecap
0.333 setgray
gsave
/o {
gsave
newpath
translate
0.8 setlinewidth
1 setlinejoin
0 setlinecap
0 0 m
0 -3.5 l

gsave
0.333 setgray
fill
grestore
stroke
grestore
} bind def
405.113 38.016 o
grestore
gsave
395.573813 23.422250 translate
0.000000 rotate
0.000000 0.000000 m /one glyphshow
6.362305 0.000000 m /zero glyphshow
12.724609 0.000000 m /zero glyphshow
grestore
/DejaVuSans findfont
16.000 scalefont
setfont
gsave
201.542812 5.187875 translate
0.000000 rotate
0.000000 0.000000 m /S glyphshow
10.156250 0.000000 m /t glyphshow
16.429688 0.000000 m /a glyphshow
26.234375 0.000000 m /r glyphshow
32.812500 0.000000 m /t glyphshow
39.085938 0.000000 m /space glyphshow
44.171875 0.000000 m /t glyphshow
50.445312 0.000000 m /i glyphshow
54.890625 0.000000 m /l glyphshow
59.335938 0.000000 m /e glyphshow
grestore
2 setlinecap
1.000 setgray
gsave
357.1 266.1 57.6 38.02 clipbox
57.6 39.456124 m
414.72 39.456124 l
stroke
grestore
0 setlinecap
0.333 setgray
gsave
/o {
gsave
newpath
translate
0.8 setlinewidth
1 setlinejoin
0 setlinecap
0 0 m
-3.5 0 l

gsave
0.333 setgray
fill
grestore
stroke
grestore
} bind def
57.6 39.4561 o
grestore
/DejaVuSans findfont
10.000 scalefont
setfont
gsave
44.240625 35.659249 translate
0.000000 rotate
0.000000 0.000000 m /zero glyphshow
grestore
2 setlinecap
1.000 setgray
gsave
357.1 266.1 57.6 38.02 clipbox
57.6 92.735502 m
414.72 92.735502 l
stroke
grestore
0 setlinecap
0.333 setgray
gsave
/o {
gsave
newpath
translate
0.8 setlinewidth
1 setlinejoin
0 setlinecap
0 0 m
-3.5 0 l

gsave
0.333 setgray
fill
grestore
stroke
grestore
} bind def
57.6 92.7355 o
grestore
gsave
44.240625 88.938627 translate
0.000000 rotate
0.000000 0.000000 m /five glyphshow
grestore
2 setlinecap
1.000 setgray
gsave
357.1 266.1 57.6 38.02 clipbox
57.6 146.01488 m
414.72 146.01488 l
stroke
grestore
0 setlinecap
0.333 setgray
gsave
/o {
gsave
newpath
translate
0.8 setlinewidth
1 setlinejoin
0 setlinecap
0 0 m
-3.5 0 l

gsave
0.333 setgray
fill
grestore
stroke
grestore
} bind def
57.6 146.015 o
grestore
gsave
37.881250 142.218005 translate
0.000000 rotate
0.000000 0.000000 m /one glyphshow
6.362305 0.000000 m /zero glyphshow
grestore
2 setlinecap
1.000 setgray
gsave
357.1 266.1 57.6 38.02 clipbox
57.6 199.294258 m
414.72 199.294258 l
stroke
grestore
0 setlinecap
0.333 setgray
gsave
/o {
gsave
newpath
translate
0.8 setlinewidth
1 setlinejoin
0 setlinecap
0 0 m
-3.5 0 l

gsave
0.333 setgray
fill
grestore
stroke
grestore
} bind def
57.6 199.294 o
grestore
gsave
37.881250 195.497383 translate
0.000000 rotate
0.000000 0.000000 m /one glyphshow
6.362305 0.000000 m /five glyphshow
grestore
2 setlinecap
1.000 setgray
gsave
357.1 266.1 57.6 38.02 clipbox
57.6 252.573637 m
414.72 252.573637 l
stroke
grestore
0 setlinecap
0.333 setgray
gsave
/o {
gsave
newpath
translate
0.8 setlinewidth
1 setlinejoin
0 setlinecap
0 0 m
-3.5 0 l

gsave
0.333 setgray
fill
grestore
stroke
grestore
} bind def
57.6 252.574 o
grestore
gsave
37.881250 248.776762 translate
0.000000 rotate
0.000000 0.000000 m /two glyphshow
6.362305 0.000000 m /zero glyphshow
grestore
/DejaVuSans findfont
16.000 scalefont
setfont
gsave
30.553125 66.337625 translate
90.000000 rotate
0.000000 0.000000 m /A glyphshow
10.945312 0.000000 m /v glyphshow
20.414062 0.000000 m /e glyphshow
30.257812 0.000000 m /r glyphshow
36.835938 0.000000 m /a glyphshow
46.640625 0.000000 m /g glyphshow
56.796875 0.000000 m /e glyphshow
66.640625 0.000000 m /space glyphshow
71.726562 0.000000 m /m glyphshow
87.312500 0.000000 m /o glyphshow
97.101562 0.000000 m /v glyphshow
106.570312 0.000000 m /e glyphshow
116.414062 0.000000 m /s glyphshow
124.750000 0.000000 m /space glyphshow
129.835938 0.000000 m /t glyphshow
136.109375 0.000000 m /i glyphshow
140.554688 0.000000 m /l glyphshow
145.000000 0.000000 m /l glyphshow
149.445312 0.000000 m /space glyphshow
154.531250 0.000000 m /v glyphshow
164.000000 0.000000 m /i glyphshow
168.445312 0.000000 m /c glyphshow
177.242188 0.000000 m /t glyphshow
183.515625 0.000000 m /o glyphshow
193.304688 0.000000 m /r glyphshow
199.882812 0.000000 m /y glyphshow
grestore
1.500 setlinewidth
2 setlinecap
0.886 0.290 0.200 setrgbcolor
gsave
357.1 266.1 57.6 38.02 clipbox
73.832727 259.707023 m
77.145529 255.3678 l
80.45833 248.892728 l
83.771132 247.000277 l
87.083933 244.944724 l
90.396735 238.010881 l
93.709536 240.305527 l
97.022338 239.430463 l
100.335139 236.722499 l
103.647941 238.336637 l
106.960742 232.626656 l
110.273544 235.930204 l
113.586345 225.890628 l
116.899147 216.73204 l
120.211948 209.331055 l
123.52475 192.77556 l
126.837551 185.732274 l
130.150353 180.097643 l
133.463154 179.72708 l
136.775955 182.922357 l
140.088757 157.559096 l
143.401558 157.559096 l
146.71436 178.244835 l
150.027161 195.703487 l
153.339963 248.743931 l
156.652764 254.28592 l
159.965566 260.987911 l
163.278367 265.538197 l
166.591169 268.26799 l
169.90397 292.032 l
173.216772 287.795915 l
176.529573 283.739363 l
179.842375 279.187174 l
183.155176 274.783258 l
186.467978 270.851541 l
189.780779 267.513125 l
193.093581 260.978386 l
196.406382 257.167565 l
199.719184 255.124643 l
203.031985 254.159437 l
206.344787 234.839389 l
209.657588 241.924255 l
212.97039 246.952939 l
216.283191 250.298607 l
219.595993 273.194908 l
222.908794 270.263752 l
226.221596 267.067695 l
229.534397 263.68129 l
232.847199 262.828649 l
236.16 258.53911 l
239.472801 254.283444 l
242.785603 250.135648 l
246.098404 245.733841 l
249.411206 241.380925 l
252.724007 237.260758 l
256.036809 233.544441 l
259.34961 228.126588 l
262.662412 223.969234 l
265.975213 220.78007 l
269.288015 218.679153 l
272.600816 206.455152 l
275.913618 207.339798 l
279.226419 208.023398 l
282.539221 210.275473 l
285.852022 201.31189 l
289.164824 210.878383 l
292.477625 210.757801 l
295.790427 219.283782 l
299.103228 251.143666 l
302.41603 250.101432 l
305.728831 257.677269 l
309.041633 253.387757 l
312.354434 249.144411 l
315.667236 244.975468 l
318.980037 240.57886 l
322.292839 236.229683 l
325.60564 232.171001 l
328.918442 228.299674 l
332.231243 222.992405 l
335.544045 218.832951 l
338.856846 215.936252 l
342.169647 212.814345 l
345.482449 201.763305 l
348.79525 202.195117 l
352.108052 204.349444 l
355.420853 200.3267 l
358.733655 224.476754 l
362.046456 203.922366 l
365.359258 212.966765 l
368.672059 184.235703 l
371.984861 137.063768 l
375.297662 121.704703 l
378.610464 73.445142 l
381.923265 69.311307 l
385.236067 65.471446 l
388.548868 60.268381 l
391.86167 56.10593 l
395.174471 52.775969 l
398.487273 50.112 l
stroke
grestore
1.000 setlinewidth
0 setlinejoin
[] 0 setdash
0.000 setgray
gsave
57.6 38.016 m
57.6 304.128 l
stroke
grestore
gsave
414.72 38.016 m
414.72 304.128 l
stroke
grestore
gsave
57.6 38.016 m
414.72 38.016 l
stroke
grestore
gsave
57.6 304.128 m
414.72 304.128 l
stroke
grestore
/DejaVuSans findfont
18.000 scalefont
setfont
gsave
-4.496250 330.284250 translate
0.000000 rotate
0.000000 0.000000 m /A glyphshow
12.297852 0.000000 m /v glyphshow
22.950195 0.000000 m /e glyphshow
34.024414 0.000000 m /r glyphshow
41.424805 0.000000 m /a glyphshow
52.455078 0.000000 m /g glyphshow
63.880859 0.000000 m /e glyphshow
74.955078 0.000000 m /space glyphshow
80.676758 0.000000 m /m glyphshow
98.210938 0.000000 m /o glyphshow
109.223633 0.000000 m /v glyphshow
119.875977 0.000000 m /e glyphshow
130.950195 0.000000 m /s glyphshow
140.328125 0.000000 m /space glyphshow
146.049805 0.000000 m /t glyphshow
153.107422 0.000000 m /i glyphshow
158.108398 0.000000 m /l glyphshow
163.109375 0.000000 m /l glyphshow
168.110352 0.000000 m /space glyphshow
173.832031 0.000000 m /v glyphshow
184.484375 0.000000 m /i glyphshow
189.485352 0.000000 m /c glyphshow
199.381836 0.000000 m /t glyphshow
206.439453 0.000000 m /o glyphshow
217.452148 0.000000 m /r glyphshow
224.852539 0.000000 m /y glyphshow
235.504883 0.000000 m /space glyphshow
241.226562 0.000000 m /s glyphshow
250.604492 0.000000 m /t glyphshow
257.662109 0.000000 m /a glyphshow
268.692383 0.000000 m /r glyphshow
276.092773 0.000000 m /t glyphshow
283.150391 0.000000 m /i glyphshow
288.151367 0.000000 m /n glyphshow
299.559570 0.000000 m /g glyphshow
310.985352 0.000000 m /space glyphshow
316.707031 0.000000 m /f glyphshow
323.043945 0.000000 m /r glyphshow
330.444336 0.000000 m /o glyphshow
341.457031 0.000000 m /m glyphshow
358.991211 0.000000 m /space glyphshow
364.712891 0.000000 m /e glyphshow
375.787109 0.000000 m /a glyphshow
386.817383 0.000000 m /c glyphshow
396.713867 0.000000 m /h glyphshow
408.122070 0.000000 m /space glyphshow
413.843750 0.000000 m /s glyphshow
423.221680 0.000000 m /q glyphshow
434.647461 0.000000 m /u glyphshow
446.055664 0.000000 m /a glyphshow
457.085938 0.000000 m /r glyphshow
464.486328 0.000000 m /e glyphshow
475.560547 0.000000 m /space glyphshow
grestore
gsave
132.816250 310.128000 translate
0.000000 rotate
0.000000 0.000000 m /space glyphshow
5.721680 0.000000 m /o glyphshow
16.734375 0.000000 m /n glyphshow
28.142578 0.000000 m /space glyphshow
33.864258 0.000000 m /a glyphshow
44.894531 0.000000 m /space glyphshow
50.616211 0.000000 m /b glyphshow
62.041992 0.000000 m /o glyphshow
73.054688 0.000000 m /a glyphshow
84.084961 0.000000 m /r glyphshow
91.485352 0.000000 m /d glyphshow
102.911133 0.000000 m /space glyphshow
108.632812 0.000000 m /o glyphshow
119.645508 0.000000 m /f glyphshow
125.982422 0.000000 m /space glyphshow
131.704102 0.000000 m /s glyphshow
141.082031 0.000000 m /i glyphshow
146.083008 0.000000 m /z glyphshow
155.531250 0.000000 m /e glyphshow
166.605469 0.000000 m /space glyphshow
172.327148 0.000000 m /one glyphshow
183.779297 0.000000 m /zero glyphshow
195.231445 0.000000 m /zero glyphshow
grestore
0.500 setlinewidth
0 setlinecap
0.800 setgray
gsave
67.4 45.016 m
379.54375 45.016 l
381.410417 45.016 382.34375 45.949333 382.34375 47.816 c
382.34375 66.962875 l
382.34375 68.829542 381.410417 69.762875 379.54375 69.762875 c
67.4 69.762875 l
65.533333 69.762875 64.6 68.829542 64.6 66.962875 c
64.6 47.816 l
64.6 45.949333 65.533333 45.016 67.4 45.016 c
cl
gsave
0.898 setgray
fill
grestore
stroke
grestore
1.500 setlinewidth
1 setlinejoin
2 setlinecap
[] 0 setdash
0.886 0.290 0.200 setrgbcolor
gsave
70.2 58.42225 m
98.2 58.42225 l
stroke
grestore
0.000 setgray
/DejaVuSans findfont
14.000 scalefont
setfont
gsave
109.400000 53.522250 translate
0.000000 rotate
0.000000 0.000000 m /M glyphshow
12.079102 0.000000 m /o glyphshow
20.644531 0.000000 m /v glyphshow
28.929688 0.000000 m /e glyphshow
37.542969 0.000000 m /s glyphshow
44.836914 0.000000 m /space glyphshow
49.287109 0.000000 m /t glyphshow
54.776367 0.000000 m /i glyphshow
58.666016 0.000000 m /l glyphshow
62.555664 0.000000 m /l glyphshow
66.445312 0.000000 m /space glyphshow
70.895508 0.000000 m /v glyphshow
79.180664 0.000000 m /i glyphshow
83.070312 0.000000 m /c glyphshow
90.767578 0.000000 m /t glyphshow
96.256836 0.000000 m /o glyphshow
104.822266 0.000000 m /r glyphshow
110.578125 0.000000 m /y glyphshow
118.863281 0.000000 m /space glyphshow
123.313477 0.000000 m /f glyphshow
128.242188 0.000000 m /r glyphshow
133.998047 0.000000 m /o glyphshow
142.563477 0.000000 m /m glyphshow
156.201172 0.000000 m /space glyphshow
160.651367 0.000000 m /s glyphshow
167.945312 0.000000 m /t glyphshow
173.434570 0.000000 m /a glyphshow
182.013672 0.000000 m /r glyphshow
187.769531 0.000000 m /t glyphshow
193.258789 0.000000 m /i glyphshow
197.148438 0.000000 m /n glyphshow
206.021484 0.000000 m /g glyphshow
214.908203 0.000000 m /space glyphshow
219.358398 0.000000 m /s glyphshow
226.652344 0.000000 m /q glyphshow
235.539062 0.000000 m /u glyphshow
244.412109 0.000000 m /a glyphshow
252.991211 0.000000 m /r glyphshow
258.747070 0.000000 m /e glyphshow
grestore

end
showpage
