%!PS-Adobe-3.0 EPSF-3.0
%%Title: Sample/Figures/NetMovement.eps
%%Creator: matplotlib version 3.0.2, http://matplotlib.org/
%%CreationDate: Sat Jan  5 17:55:06 2019
%%Orientation: portrait
%%BoundingBox: 27 189 585 603
%%EndComments
%%BeginProlog
/mpldict 8 dict def
mpldict begin
/m { moveto } bind def
/l { lineto } bind def
/r { rlineto } bind def
/c { curveto } bind def
/cl { closepath } bind def
/box {
m
1 index 0 r
0 exch r
neg 0 r
cl
} bind def
/clipbox {
box
clip
newpath
} bind def
%!PS-Adobe-3.0 Resource-Font
%%Title: DejaVu Sans
%%Copyright: Copyright (c) 2003 by Bitstream, Inc. All Rights Reserved. Copyright (c) 2006 by Tavmjong Bah. All Rights Reserved. DejaVu changes are in public domain 
%%Creator: Converted from TrueType to type 3 by PPR
25 dict begin
/_d{bind def}bind def
/_m{moveto}_d
/_l{lineto}_d
/_cl{closepath eofill}_d
/_c{curveto}_d
/_sc{7 -1 roll{setcachedevice}{pop pop pop pop pop pop}ifelse}_d
/_e{exec}_d
/FontName /DejaVuSans def
/PaintType 0 def
/FontMatrix[.001 0 0 .001 0 0]def
/FontBBox[-1021 -463 1793 1232]def
/FontType 3 def
/Encoding [ /space /zero /one /two /four /five /six /seven /eight /C /E /S /a /b /c /d /e /f /g /h /i /k /l /m /n /o /p /q /r /s /t /u /v /w /x /minus ] def
/FontInfo 10 dict dup begin
/FamilyName (DejaVu Sans) def
/FullName (DejaVu Sans) def
/Notice (Copyright (c) 2003 by Bitstream, Inc. All Rights Reserved. Copyright (c) 2006 by Tavmjong Bah. All Rights Reserved. DejaVu changes are in public domain ) def
/Weight (Book) def
/Version (Version 2.35) def
/ItalicAngle 0.0 def
/isFixedPitch false def
/UnderlinePosition -130 def
/UnderlineThickness 90 def
end readonly def
/CharStrings 37 dict dup begin
/.notdef 0 def
/space{318 0 0 0 0 0 _sc
}_d
/zero{636 0 66 -13 570 742 _sc
318 664 _m
267 664 229 639 203 589 _c
177 539 165 464 165 364 _c
165 264 177 189 203 139 _c
229 89 267 64 318 64 _c
369 64 407 89 433 139 _c
458 189 471 264 471 364 _c
471 464 458 539 433 589 _c
407 639 369 664 318 664 _c
318 742 _m
399 742 461 709 505 645 _c
548 580 570 486 570 364 _c
570 241 548 147 505 83 _c
461 19 399 -13 318 -13 _c
236 -13 173 19 130 83 _c
87 147 66 241 66 364 _c
66 486 87 580 130 645 _c
173 709 236 742 318 742 _c
_cl}_d
/one{636 0 110 0 544 729 _sc
124 83 _m
285 83 _l
285 639 _l
110 604 _l
110 694 _l
284 729 _l
383 729 _l
383 83 _l
544 83 _l
544 0 _l
124 0 _l
124 83 _l
_cl}_d
/two{{636 0 73 0 536 742 _sc
192 83 _m
536 83 _l
536 0 _l
73 0 _l
73 83 _l
110 121 161 173 226 239 _c
290 304 331 346 348 365 _c
380 400 402 430 414 455 _c
426 479 433 504 433 528 _c
433 566 419 598 392 622 _c
365 646 330 659 286 659 _c
255 659 222 653 188 643 _c
154 632 117 616 78 594 _c
78 694 _l
118 710 155 722 189 730 _c
223 738 255 742 284 742 _c
}_e{359 742 419 723 464 685 _c
509 647 532 597 532 534 _c
532 504 526 475 515 449 _c
504 422 484 390 454 354 _c
446 344 420 317 376 272 _c
332 227 271 164 192 83 _c
_cl}_e}_d
/four{636 0 49 0 580 729 _sc
378 643 _m
129 254 _l
378 254 _l
378 643 _l
352 729 _m
476 729 _l
476 254 _l
580 254 _l
580 172 _l
476 172 _l
476 0 _l
378 0 _l
378 172 _l
49 172 _l
49 267 _l
352 729 _l
_cl}_d
/five{{636 0 77 -13 549 729 _sc
108 729 _m
495 729 _l
495 646 _l
198 646 _l
198 467 _l
212 472 227 476 241 478 _c
255 480 270 482 284 482 _c
365 482 429 459 477 415 _c
525 370 549 310 549 234 _c
549 155 524 94 475 51 _c
426 8 357 -13 269 -13 _c
238 -13 207 -10 175 -6 _c
143 -1 111 6 77 17 _c
77 116 _l
106 100 136 88 168 80 _c
199 72 232 69 267 69 _c
}_e{323 69 368 83 401 113 _c
433 143 450 183 450 234 _c
450 284 433 324 401 354 _c
368 384 323 399 267 399 _c
241 399 214 396 188 390 _c
162 384 135 375 108 363 _c
108 729 _l
_cl}_e}_d
/six{{636 0 70 -13 573 742 _sc
330 404 _m
286 404 251 388 225 358 _c
199 328 186 286 186 234 _c
186 181 199 139 225 109 _c
251 79 286 64 330 64 _c
374 64 409 79 435 109 _c
461 139 474 181 474 234 _c
474 286 461 328 435 358 _c
409 388 374 404 330 404 _c
526 713 _m
526 623 _l
501 635 476 644 451 650 _c
425 656 400 659 376 659 _c
310 659 260 637 226 593 _c
}_e{192 549 172 482 168 394 _c
187 422 211 444 240 459 _c
269 474 301 482 336 482 _c
409 482 467 459 509 415 _c
551 371 573 310 573 234 _c
573 159 550 99 506 54 _c
462 9 403 -13 330 -13 _c
246 -13 181 19 137 83 _c
92 147 70 241 70 364 _c
70 479 97 571 152 639 _c
206 707 280 742 372 742 _c
396 742 421 739 447 735 _c
472 730 498 723 526 713 _c
_cl}_e}_d
/seven{636 0 82 0 551 729 _sc
82 729 _m
551 729 _l
551 687 _l
286 0 _l
183 0 _l
432 646 _l
82 646 _l
82 729 _l
_cl}_d
/eight{{636 0 68 -13 568 742 _sc
318 346 _m
271 346 234 333 207 308 _c
180 283 167 249 167 205 _c
167 161 180 126 207 101 _c
234 76 271 64 318 64 _c
364 64 401 76 428 102 _c
455 127 469 161 469 205 _c
469 249 455 283 429 308 _c
402 333 365 346 318 346 _c
219 388 _m
177 398 144 418 120 447 _c
96 476 85 511 85 553 _c
85 611 105 657 147 691 _c
188 725 245 742 318 742 _c
}_e{390 742 447 725 489 691 _c
530 657 551 611 551 553 _c
551 511 539 476 515 447 _c
491 418 459 398 417 388 _c
464 377 501 355 528 323 _c
554 291 568 251 568 205 _c
568 134 546 80 503 43 _c
459 5 398 -13 318 -13 _c
237 -13 175 5 132 43 _c
89 80 68 134 68 205 _c
68 251 81 291 108 323 _c
134 355 171 377 219 388 _c
183 544 _m
183 506 194 476 218 455 _c
}_e{242 434 275 424 318 424 _c
360 424 393 434 417 455 _c
441 476 453 506 453 544 _c
453 582 441 611 417 632 _c
393 653 360 664 318 664 _c
275 664 242 653 218 632 _c
194 611 183 582 183 544 _c
_cl}_e}_d
/C{{698 0 56 -13 644 742 _sc
644 673 _m
644 569 _l
610 599 575 622 537 638 _c
499 653 460 661 418 661 _c
334 661 270 635 226 584 _c
182 533 160 460 160 364 _c
160 268 182 194 226 143 _c
270 92 334 67 418 67 _c
460 67 499 74 537 90 _c
575 105 610 128 644 159 _c
644 56 _l
609 32 572 15 534 4 _c
496 -7 455 -13 412 -13 _c
302 -13 215 20 151 87 _c
}_e{87 154 56 246 56 364 _c
56 481 87 573 151 641 _c
215 708 302 742 412 742 _c
456 742 497 736 535 725 _c
573 713 610 696 644 673 _c
_cl}_e}_d
/E{632 0 98 0 568 729 _sc
98 729 _m
559 729 _l
559 646 _l
197 646 _l
197 430 _l
544 430 _l
544 347 _l
197 347 _l
197 83 _l
568 83 _l
568 0 _l
98 0 _l
98 729 _l
_cl}_d
/S{{635 0 66 -13 579 742 _sc
535 705 _m
535 609 _l
497 627 462 640 429 649 _c
395 657 363 662 333 662 _c
279 662 237 651 208 631 _c
179 610 165 580 165 542 _c
165 510 174 485 194 469 _c
213 452 250 439 304 429 _c
364 417 _l
437 403 491 378 526 343 _c
561 307 579 260 579 201 _c
579 130 555 77 508 41 _c
460 5 391 -13 300 -13 _c
265 -13 228 -9 189 -2 _c
}_e{150 5 110 16 69 32 _c
69 134 _l
109 111 148 94 186 83 _c
224 71 262 66 300 66 _c
356 66 399 77 430 99 _c
460 121 476 152 476 194 _c
476 230 465 258 443 278 _c
421 298 385 313 335 323 _c
275 335 _l
201 349 148 372 115 404 _c
82 435 66 478 66 534 _c
66 598 88 649 134 686 _c
179 723 242 742 322 742 _c
356 742 390 739 426 733 _c
461 727 497 717 535 705 _c
}_e{_cl}_e}_d
/a{{613 0 60 -13 522 560 _sc
343 275 _m
270 275 220 266 192 250 _c
164 233 150 205 150 165 _c
150 133 160 107 181 89 _c
202 70 231 61 267 61 _c
317 61 357 78 387 114 _c
417 149 432 196 432 255 _c
432 275 _l
343 275 _l
522 312 _m
522 0 _l
432 0 _l
432 83 _l
411 49 385 25 355 10 _c
325 -5 287 -13 243 -13 _c
187 -13 142 2 109 33 _c
76 64 60 106 60 159 _c
}_e{60 220 80 266 122 298 _c
163 329 224 345 306 345 _c
432 345 _l
432 354 _l
432 395 418 427 391 450 _c
364 472 326 484 277 484 _c
245 484 215 480 185 472 _c
155 464 127 453 100 439 _c
100 522 _l
132 534 164 544 195 550 _c
226 556 256 560 286 560 _c
365 560 424 539 463 498 _c
502 457 522 395 522 312 _c
_cl}_e}_d
/b{{635 0 91 -13 580 760 _sc
487 273 _m
487 339 473 390 446 428 _c
418 466 381 485 334 485 _c
286 485 249 466 222 428 _c
194 390 181 339 181 273 _c
181 207 194 155 222 117 _c
249 79 286 61 334 61 _c
381 61 418 79 446 117 _c
473 155 487 207 487 273 _c
181 464 _m
199 496 223 520 252 536 _c
281 552 316 560 356 560 _c
422 560 476 533 518 481 _c
559 428 580 359 580 273 _c
}_e{580 187 559 117 518 65 _c
476 13 422 -13 356 -13 _c
316 -13 281 -5 252 10 _c
223 25 199 49 181 82 _c
181 0 _l
91 0 _l
91 760 _l
181 760 _l
181 464 _l
_cl}_e}_d
/c{{550 0 55 -13 488 560 _sc
488 526 _m
488 442 _l
462 456 437 466 411 473 _c
385 480 360 484 334 484 _c
276 484 230 465 198 428 _c
166 391 150 339 150 273 _c
150 206 166 154 198 117 _c
230 80 276 62 334 62 _c
360 62 385 65 411 72 _c
437 79 462 90 488 104 _c
488 21 _l
462 9 436 0 410 -5 _c
383 -10 354 -13 324 -13 _c
242 -13 176 12 128 64 _c
}_e{79 115 55 185 55 273 _c
55 362 79 432 128 483 _c
177 534 244 560 330 560 _c
358 560 385 557 411 551 _c
437 545 463 537 488 526 _c
_cl}_e}_d
/d{{635 0 55 -13 544 760 _sc
454 464 _m
454 760 _l
544 760 _l
544 0 _l
454 0 _l
454 82 _l
435 49 411 25 382 10 _c
353 -5 319 -13 279 -13 _c
213 -13 159 13 117 65 _c
75 117 55 187 55 273 _c
55 359 75 428 117 481 _c
159 533 213 560 279 560 _c
319 560 353 552 382 536 _c
411 520 435 496 454 464 _c
148 273 _m
148 207 161 155 188 117 _c
215 79 253 61 301 61 _c
}_e{348 61 385 79 413 117 _c
440 155 454 207 454 273 _c
454 339 440 390 413 428 _c
385 466 348 485 301 485 _c
253 485 215 466 188 428 _c
161 390 148 339 148 273 _c
_cl}_e}_d
/e{{615 0 55 -13 562 560 _sc
562 296 _m
562 252 _l
149 252 _l
153 190 171 142 205 110 _c
238 78 284 62 344 62 _c
378 62 412 66 444 74 _c
476 82 509 95 541 113 _c
541 28 _l
509 14 476 3 442 -3 _c
408 -9 373 -13 339 -13 _c
251 -13 182 12 131 62 _c
80 112 55 181 55 268 _c
55 357 79 428 127 481 _c
175 533 241 560 323 560 _c
397 560 455 536 498 489 _c
}_e{540 441 562 377 562 296 _c
472 322 _m
471 371 457 410 431 440 _c
404 469 368 484 324 484 _c
274 484 234 469 204 441 _c
174 413 156 373 152 322 _c
472 322 _l
_cl}_e}_d
/f{352 0 23 0 371 760 _sc
371 760 _m
371 685 _l
285 685 _l
253 685 230 678 218 665 _c
205 652 199 629 199 595 _c
199 547 _l
347 547 _l
347 477 _l
199 477 _l
199 0 _l
109 0 _l
109 477 _l
23 477 _l
23 547 _l
109 547 _l
109 585 _l
109 645 123 690 151 718 _c
179 746 224 760 286 760 _c
371 760 _l
_cl}_d
/g{{635 0 55 -207 544 560 _sc
454 280 _m
454 344 440 395 414 431 _c
387 467 349 485 301 485 _c
253 485 215 467 188 431 _c
161 395 148 344 148 280 _c
148 215 161 165 188 129 _c
215 93 253 75 301 75 _c
349 75 387 93 414 129 _c
440 165 454 215 454 280 _c
544 68 _m
544 -24 523 -93 482 -139 _c
440 -184 377 -207 292 -207 _c
260 -207 231 -204 203 -200 _c
175 -195 147 -188 121 -178 _c
}_e{121 -91 _l
147 -105 173 -115 199 -122 _c
225 -129 251 -133 278 -133 _c
336 -133 380 -117 410 -87 _c
439 -56 454 -10 454 52 _c
454 96 _l
435 64 411 40 382 24 _c
353 8 319 0 279 0 _c
211 0 157 25 116 76 _c
75 127 55 195 55 280 _c
55 364 75 432 116 483 _c
157 534 211 560 279 560 _c
319 560 353 552 382 536 _c
411 520 435 496 454 464 _c
454 547 _l
544 547 _l
}_e{544 68 _l
_cl}_e}_d
/h{634 0 91 0 549 760 _sc
549 330 _m
549 0 _l
459 0 _l
459 327 _l
459 379 448 417 428 443 _c
408 469 378 482 338 482 _c
289 482 251 466 223 435 _c
195 404 181 362 181 309 _c
181 0 _l
91 0 _l
91 760 _l
181 760 _l
181 462 _l
202 494 227 519 257 535 _c
286 551 320 560 358 560 _c
420 560 468 540 500 501 _c
532 462 549 405 549 330 _c
_cl}_d
/i{278 0 94 0 184 760 _sc
94 547 _m
184 547 _l
184 0 _l
94 0 _l
94 547 _l
94 760 _m
184 760 _l
184 646 _l
94 646 _l
94 760 _l
_cl}_d
/k{579 0 91 0 576 760 _sc
91 760 _m
181 760 _l
181 311 _l
449 547 _l
564 547 _l
274 291 _l
576 0 _l
459 0 _l
181 267 _l
181 0 _l
91 0 _l
91 760 _l
_cl}_d
/l{278 0 94 0 184 760 _sc
94 760 _m
184 760 _l
184 0 _l
94 0 _l
94 760 _l
_cl}_d
/m{{974 0 91 0 889 560 _sc
520 442 _m
542 482 569 511 600 531 _c
631 550 668 560 711 560 _c
767 560 811 540 842 500 _c
873 460 889 403 889 330 _c
889 0 _l
799 0 _l
799 327 _l
799 379 789 418 771 444 _c
752 469 724 482 686 482 _c
639 482 602 466 575 435 _c
548 404 535 362 535 309 _c
535 0 _l
445 0 _l
445 327 _l
445 379 435 418 417 444 _c
398 469 369 482 331 482 _c
}_e{285 482 248 466 221 435 _c
194 404 181 362 181 309 _c
181 0 _l
91 0 _l
91 547 _l
181 547 _l
181 462 _l
201 495 226 520 255 536 _c
283 552 317 560 357 560 _c
397 560 430 550 458 530 _c
486 510 506 480 520 442 _c
_cl}_e}_d
/n{634 0 91 0 549 560 _sc
549 330 _m
549 0 _l
459 0 _l
459 327 _l
459 379 448 417 428 443 _c
408 469 378 482 338 482 _c
289 482 251 466 223 435 _c
195 404 181 362 181 309 _c
181 0 _l
91 0 _l
91 547 _l
181 547 _l
181 462 _l
202 494 227 519 257 535 _c
286 551 320 560 358 560 _c
420 560 468 540 500 501 _c
532 462 549 405 549 330 _c
_cl}_d
/o{612 0 55 -13 557 560 _sc
306 484 _m
258 484 220 465 192 427 _c
164 389 150 338 150 273 _c
150 207 163 156 191 118 _c
219 80 257 62 306 62 _c
354 62 392 80 420 118 _c
448 156 462 207 462 273 _c
462 337 448 389 420 427 _c
392 465 354 484 306 484 _c
306 560 _m
384 560 445 534 490 484 _c
534 433 557 363 557 273 _c
557 183 534 113 490 63 _c
445 12 384 -13 306 -13 _c
227 -13 165 12 121 63 _c
77 113 55 183 55 273 _c
55 363 77 433 121 484 _c
165 534 227 560 306 560 _c
_cl}_d
/p{{635 0 91 -207 580 560 _sc
181 82 _m
181 -207 _l
91 -207 _l
91 547 _l
181 547 _l
181 464 _l
199 496 223 520 252 536 _c
281 552 316 560 356 560 _c
422 560 476 533 518 481 _c
559 428 580 359 580 273 _c
580 187 559 117 518 65 _c
476 13 422 -13 356 -13 _c
316 -13 281 -5 252 10 _c
223 25 199 49 181 82 _c
487 273 _m
487 339 473 390 446 428 _c
418 466 381 485 334 485 _c
}_e{286 485 249 466 222 428 _c
194 390 181 339 181 273 _c
181 207 194 155 222 117 _c
249 79 286 61 334 61 _c
381 61 418 79 446 117 _c
473 155 487 207 487 273 _c
_cl}_e}_d
/q{{635 0 55 -207 544 560 _sc
148 273 _m
148 207 161 155 188 117 _c
215 79 253 61 301 61 _c
348 61 385 79 413 117 _c
440 155 454 207 454 273 _c
454 339 440 390 413 428 _c
385 466 348 485 301 485 _c
253 485 215 466 188 428 _c
161 390 148 339 148 273 _c
454 82 _m
435 49 411 25 382 10 _c
353 -5 319 -13 279 -13 _c
213 -13 159 13 117 65 _c
75 117 55 187 55 273 _c
}_e{55 359 75 428 117 481 _c
159 533 213 560 279 560 _c
319 560 353 552 382 536 _c
411 520 435 496 454 464 _c
454 547 _l
544 547 _l
544 -207 _l
454 -207 _l
454 82 _l
_cl}_e}_d
/r{411 0 91 0 411 560 _sc
411 463 _m
401 469 390 473 378 476 _c
366 478 353 480 339 480 _c
288 480 249 463 222 430 _c
194 397 181 350 181 288 _c
181 0 _l
91 0 _l
91 547 _l
181 547 _l
181 462 _l
199 495 224 520 254 536 _c
284 552 321 560 365 560 _c
371 560 378 559 386 559 _c
393 558 401 557 411 555 _c
411 463 _l
_cl}_d
/s{{521 0 54 -13 472 560 _sc
443 531 _m
443 446 _l
417 458 391 468 364 475 _c
336 481 308 485 279 485 _c
234 485 200 478 178 464 _c
156 450 145 430 145 403 _c
145 382 153 366 169 354 _c
185 342 217 330 265 320 _c
296 313 _l
360 299 405 279 432 255 _c
458 230 472 195 472 151 _c
472 100 452 60 412 31 _c
372 1 316 -13 246 -13 _c
216 -13 186 -10 154 -5 _c
}_e{122 0 89 8 54 20 _c
54 113 _l
87 95 120 82 152 74 _c
184 65 216 61 248 61 _c
290 61 323 68 346 82 _c
368 96 380 117 380 144 _c
380 168 371 187 355 200 _c
339 213 303 226 247 238 _c
216 245 _l
160 257 119 275 95 299 _c
70 323 58 356 58 399 _c
58 450 76 490 112 518 _c
148 546 200 560 268 560 _c
301 560 332 557 362 552 _c
391 547 418 540 443 531 _c
}_e{_cl}_e}_d
/t{392 0 27 0 368 702 _sc
183 702 _m
183 547 _l
368 547 _l
368 477 _l
183 477 _l
183 180 _l
183 135 189 106 201 94 _c
213 81 238 75 276 75 _c
368 75 _l
368 0 _l
276 0 _l
206 0 158 13 132 39 _c
106 65 93 112 93 180 _c
93 477 _l
27 477 _l
27 547 _l
93 547 _l
93 702 _l
183 702 _l
_cl}_d
/u{634 0 85 -13 543 560 _sc
85 216 _m
85 547 _l
175 547 _l
175 219 _l
175 167 185 129 205 103 _c
225 77 255 64 296 64 _c
344 64 383 79 411 110 _c
439 141 453 183 453 237 _c
453 547 _l
543 547 _l
543 0 _l
453 0 _l
453 84 _l
431 50 405 26 377 10 _c
348 -5 315 -13 277 -13 _c
214 -13 166 6 134 45 _c
101 83 85 140 85 216 _c
311 560 _m
311 560 _l
_cl}_d
/v{592 0 30 0 562 547 _sc
30 547 _m
125 547 _l
296 88 _l
467 547 _l
562 547 _l
357 0 _l
235 0 _l
30 547 _l
_cl}_d
/w{818 0 42 0 776 547 _sc
42 547 _m
132 547 _l
244 120 _l
356 547 _l
462 547 _l
574 120 _l
686 547 _l
776 547 _l
633 0 _l
527 0 _l
409 448 _l
291 0 _l
185 0 _l
42 547 _l
_cl}_d
/x{592 0 29 0 559 547 _sc
549 547 _m
351 281 _l
559 0 _l
453 0 _l
294 215 _l
135 0 _l
29 0 _l
241 286 _l
47 547 _l
153 547 _l
298 352 _l
443 547 _l
549 547 _l
_cl}_d
/minus{838 0 106 272 732 355 _sc
106 355 _m
732 355 _l
732 272 _l
106 272 _l
106 355 _l
_cl}_d
end readonly def

/BuildGlyph
 {exch begin
 CharStrings exch
 2 copy known not{pop /.notdef}if
 true 3 1 roll get exec
 end}_d

/BuildChar {
 1 index /Encoding get exch get
 1 index /BuildGlyph get exec
}_d

FontName currentdict end definefont pop
end
%%EndProlog
mpldict begin
27 189 translate
558 414 0 0 clipbox
gsave
0 0 m
558 0 l
558 414 l
0 414 l
cl
1.000 setgray
fill
grestore
gsave
69.75 45.54 m
502.2 45.54 l
502.2 364.32 l
69.75 364.32 l
cl
0.898 setgray
fill
grestore
0.800 setlinewidth
1 setlinejoin
2 setlinecap
[] 0 setdash
1.000 setgray
gsave
432.4 318.8 69.75 45.54 clipbox
123.653286 45.54 m
123.653286 364.32 l
stroke
grestore
0 setlinecap
0.333 setgray
gsave
/o {
gsave
newpath
translate
0.8 setlinewidth
1 setlinejoin
0 setlinecap
0 0 m
0 -3.5 l

gsave
0.333 setgray
fill
grestore
stroke
grestore
} bind def
123.653 45.54 o
grestore
/DejaVuSans findfont
10.000 scalefont
setfont
gsave
109.926724 30.946250 translate
0.000000 rotate
0.000000 0.000000 m /minus glyphshow
8.378906 0.000000 m /seven glyphshow
14.741211 0.000000 m /five glyphshow
21.103516 0.000000 m /zero glyphshow
grestore
2 setlinecap
1.000 setgray
gsave
432.4 318.8 69.75 45.54 clipbox
180.728432 45.54 m
180.728432 364.32 l
stroke
grestore
0 setlinecap
0.333 setgray
gsave
/o {
gsave
newpath
translate
0.8 setlinewidth
1 setlinejoin
0 setlinecap
0 0 m
0 -3.5 l

gsave
0.333 setgray
fill
grestore
stroke
grestore
} bind def
180.728 45.54 o
grestore
gsave
167.001869 30.946250 translate
0.000000 rotate
0.000000 0.000000 m /minus glyphshow
8.378906 0.000000 m /five glyphshow
14.741211 0.000000 m /zero glyphshow
21.103516 0.000000 m /zero glyphshow
grestore
2 setlinecap
1.000 setgray
gsave
432.4 318.8 69.75 45.54 clipbox
237.803577 45.54 m
237.803577 364.32 l
stroke
grestore
0 setlinecap
0.333 setgray
gsave
/o {
gsave
newpath
translate
0.8 setlinewidth
1 setlinejoin
0 setlinecap
0 0 m
0 -3.5 l

gsave
0.333 setgray
fill
grestore
stroke
grestore
} bind def
237.804 45.54 o
grestore
gsave
224.077015 30.946250 translate
0.000000 rotate
0.000000 0.000000 m /minus glyphshow
8.378906 0.000000 m /two glyphshow
14.741211 0.000000 m /five glyphshow
21.103516 0.000000 m /zero glyphshow
grestore
2 setlinecap
1.000 setgray
gsave
432.4 318.8 69.75 45.54 clipbox
294.878723 45.54 m
294.878723 364.32 l
stroke
grestore
0 setlinecap
0.333 setgray
gsave
/o {
gsave
newpath
translate
0.8 setlinewidth
1 setlinejoin
0 setlinecap
0 0 m
0 -3.5 l

gsave
0.333 setgray
fill
grestore
stroke
grestore
} bind def
294.879 45.54 o
grestore
gsave
291.699035 30.946250 translate
0.000000 rotate
0.000000 0.000000 m /zero glyphshow
grestore
2 setlinecap
1.000 setgray
gsave
432.4 318.8 69.75 45.54 clipbox
351.953868 45.54 m
351.953868 364.32 l
stroke
grestore
0 setlinecap
0.333 setgray
gsave
/o {
gsave
newpath
translate
0.8 setlinewidth
1 setlinejoin
0 setlinecap
0 0 m
0 -3.5 l

gsave
0.333 setgray
fill
grestore
stroke
grestore
} bind def
351.954 45.54 o
grestore
gsave
342.414806 30.946250 translate
0.000000 rotate
0.000000 0.000000 m /two glyphshow
6.362305 0.000000 m /five glyphshow
12.724609 0.000000 m /zero glyphshow
grestore
2 setlinecap
1.000 setgray
gsave
432.4 318.8 69.75 45.54 clipbox
409.029014 45.54 m
409.029014 364.32 l
stroke
grestore
0 setlinecap
0.333 setgray
gsave
/o {
gsave
newpath
translate
0.8 setlinewidth
1 setlinejoin
0 setlinecap
0 0 m
0 -3.5 l

gsave
0.333 setgray
fill
grestore
stroke
grestore
} bind def
409.029 45.54 o
grestore
gsave
399.489951 30.946250 translate
0.000000 rotate
0.000000 0.000000 m /five glyphshow
6.362305 0.000000 m /zero glyphshow
12.724609 0.000000 m /zero glyphshow
grestore
2 setlinecap
1.000 setgray
gsave
432.4 318.8 69.75 45.54 clipbox
466.104159 45.54 m
466.104159 364.32 l
stroke
grestore
0 setlinecap
0.333 setgray
gsave
/o {
gsave
newpath
translate
0.8 setlinewidth
1 setlinejoin
0 setlinecap
0 0 m
0 -3.5 l

gsave
0.333 setgray
fill
grestore
stroke
grestore
} bind def
466.104 45.54 o
grestore
gsave
456.565097 30.946250 translate
0.000000 rotate
0.000000 0.000000 m /seven glyphshow
6.362305 0.000000 m /five glyphshow
12.724609 0.000000 m /zero glyphshow
grestore
/DejaVuSans findfont
16.000 scalefont
setfont
gsave
198.092188 12.711875 translate
0.000000 rotate
0.000000 0.000000 m /S glyphshow
10.156250 0.000000 m /n glyphshow
20.296875 0.000000 m /a glyphshow
30.101562 0.000000 m /k glyphshow
39.367188 0.000000 m /e glyphshow
49.210938 0.000000 m /s glyphshow
57.546875 0.000000 m /space glyphshow
62.632812 0.000000 m /m glyphshow
78.218750 0.000000 m /i glyphshow
82.664062 0.000000 m /n glyphshow
92.804688 0.000000 m /u glyphshow
102.945312 0.000000 m /s glyphshow
111.281250 0.000000 m /space glyphshow
116.367188 0.000000 m /l glyphshow
120.812500 0.000000 m /a glyphshow
130.617188 0.000000 m /d glyphshow
140.773438 0.000000 m /d glyphshow
150.929688 0.000000 m /e glyphshow
160.773438 0.000000 m /r glyphshow
167.351562 0.000000 m /s glyphshow
grestore
2 setlinecap
1.000 setgray
gsave
432.4 318.8 69.75 45.54 clipbox
69.75 45.54 m
502.2 45.54 l
stroke
grestore
0 setlinecap
0.333 setgray
gsave
/o {
gsave
newpath
translate
0.8 setlinewidth
1 setlinejoin
0 setlinecap
0 0 m
-3.5 0 l

gsave
0.333 setgray
fill
grestore
stroke
grestore
} bind def
69.75 45.54 o
grestore
/DejaVuSans findfont
10.000 scalefont
setfont
gsave
56.390625 41.743125 translate
0.000000 rotate
0.000000 0.000000 m /zero glyphshow
grestore
2 setlinecap
1.000 setgray
gsave
432.4 318.8 69.75 45.54 clipbox
69.75 109.296 m
502.2 109.296 l
stroke
grestore
0 setlinecap
0.333 setgray
gsave
/o {
gsave
newpath
translate
0.8 setlinewidth
1 setlinejoin
0 setlinecap
0 0 m
-3.5 0 l

gsave
0.333 setgray
fill
grestore
stroke
grestore
} bind def
69.75 109.296 o
grestore
gsave
50.031250 105.499125 translate
0.000000 rotate
0.000000 0.000000 m /two glyphshow
6.362305 0.000000 m /zero glyphshow
grestore
2 setlinecap
1.000 setgray
gsave
432.4 318.8 69.75 45.54 clipbox
69.75 173.052 m
502.2 173.052 l
stroke
grestore
0 setlinecap
0.333 setgray
gsave
/o {
gsave
newpath
translate
0.8 setlinewidth
1 setlinejoin
0 setlinecap
0 0 m
-3.5 0 l

gsave
0.333 setgray
fill
grestore
stroke
grestore
} bind def
69.75 173.052 o
grestore
gsave
50.031250 169.255125 translate
0.000000 rotate
0.000000 0.000000 m /four glyphshow
6.362305 0.000000 m /zero glyphshow
grestore
2 setlinecap
1.000 setgray
gsave
432.4 318.8 69.75 45.54 clipbox
69.75 236.808 m
502.2 236.808 l
stroke
grestore
0 setlinecap
0.333 setgray
gsave
/o {
gsave
newpath
translate
0.8 setlinewidth
1 setlinejoin
0 setlinecap
0 0 m
-3.5 0 l

gsave
0.333 setgray
fill
grestore
stroke
grestore
} bind def
69.75 236.808 o
grestore
gsave
50.031250 233.011125 translate
0.000000 rotate
0.000000 0.000000 m /six glyphshow
6.362305 0.000000 m /zero glyphshow
grestore
2 setlinecap
1.000 setgray
gsave
432.4 318.8 69.75 45.54 clipbox
69.75 300.564 m
502.2 300.564 l
stroke
grestore
0 setlinecap
0.333 setgray
gsave
/o {
gsave
newpath
translate
0.8 setlinewidth
1 setlinejoin
0 setlinecap
0 0 m
-3.5 0 l

gsave
0.333 setgray
fill
grestore
stroke
grestore
} bind def
69.75 300.564 o
grestore
gsave
50.031250 296.767125 translate
0.000000 rotate
0.000000 0.000000 m /eight glyphshow
6.362305 0.000000 m /zero glyphshow
grestore
2 setlinecap
1.000 setgray
gsave
432.4 318.8 69.75 45.54 clipbox
69.75 364.32 m
502.2 364.32 l
stroke
grestore
0 setlinecap
0.333 setgray
gsave
/o {
gsave
newpath
translate
0.8 setlinewidth
1 setlinejoin
0 setlinecap
0 0 m
-3.5 0 l

gsave
0.333 setgray
fill
grestore
stroke
grestore
} bind def
69.75 364.32 o
grestore
gsave
43.671875 360.523125 translate
0.000000 rotate
0.000000 0.000000 m /one glyphshow
6.362305 0.000000 m /zero glyphshow
12.724609 0.000000 m /zero glyphshow
grestore
/DejaVuSans findfont
16.000 scalefont
setfont
gsave
36.343750 102.031562 translate
90.000000 rotate
0.000000 0.000000 m /E glyphshow
10.109375 0.000000 m /x glyphshow
19.578125 0.000000 m /p glyphshow
29.734375 0.000000 m /e glyphshow
39.578125 0.000000 m /c glyphshow
48.375000 0.000000 m /t glyphshow
54.648438 0.000000 m /e glyphshow
64.492188 0.000000 m /d glyphshow
74.648438 0.000000 m /space glyphshow
79.734375 0.000000 m /m glyphshow
95.320312 0.000000 m /o glyphshow
105.109375 0.000000 m /v glyphshow
114.578125 0.000000 m /e glyphshow
124.421875 0.000000 m /s glyphshow
132.757812 0.000000 m /space glyphshow
137.843750 0.000000 m /t glyphshow
144.117188 0.000000 m /i glyphshow
148.562500 0.000000 m /l glyphshow
153.007812 0.000000 m /l glyphshow
157.453125 0.000000 m /space glyphshow
162.539062 0.000000 m /f glyphshow
168.171875 0.000000 m /i glyphshow
172.617188 0.000000 m /n glyphshow
182.757812 0.000000 m /i glyphshow
187.203125 0.000000 m /s glyphshow
195.539062 0.000000 m /h glyphshow
grestore
0.500 setlinewidth
0.886 0.290 0.200 setrgbcolor
gsave
432.4 318.8 69.75 45.54 clipbox
/o {
gsave
newpath
translate
0.5 setlinewidth
1 setlinejoin
0 setlinecap
0 -3 m
0.795609 -3 1.55874 -2.683901 2.12132 -2.12132 c
2.683901 -1.55874 3 -0.795609 3 0 c
3 0.795609 2.683901 1.55874 2.12132 2.12132 c
1.55874 2.683901 0.795609 3 0 3 c
-0.795609 3 -1.55874 2.683901 -2.12132 2.12132 c
-2.683901 1.55874 -3 0.795609 -3 0 c
-3 -0.795609 -2.683901 -1.55874 -2.12132 -2.12132 c
-1.55874 -2.683901 -0.795609 -3 0 -3 c
cl

gsave
0.886 0.290 0.200 setrgbcolor
fill
grestore
stroke
grestore
} bind def
306.75 147.562 o
305.837 152.771 o
304.924 161.416 o
298.532 178.027 o
314.284 130.652 o
344.648 126.524 o
349.443 118.201 o
354.237 104.163 o
353.552 99.2508 o
356.292 122.359 o
390.08 97.0029 o
401.267 98.9849 o
387.569 90.945 o
403.778 80.7753 o
365.195 145.849 o
421.129 82.7812 o
440.763 78.2642 o
453.548 67.8149 o
398.071 89.8335 o
437.11 88.0785 o
459.255 94.799 o
454.233 78.3945 o
482.542 76.5018 o
291.454 224.354 o
280.724 185.008 o
302.413 153.689 o
304.467 157.702 o
316.567 178.672 o
292.139 206.054 o
332.777 127.223 o
379.578 110.793 o
356.52 141.25 o
379.578 99.8426 o
347.388 94.1726 o
364.282 94.0121 o
393.505 75.3974 o
370.903 127.484 o
413.823 85.2892 o
406.518 101.166 o
423.64 80.9095 o
373.642 112.191 o
392.363 106.697 o
398.071 111.855 o
448.297 91.9028 o
475.236 77.3035 o
446.699 130.938 o
294.65 186.147 o
302.413 166.883 o
302.184 175.287 o
276.386 220.638 o
280.952 175.13 o
320.677 179.456 o
341.909 171.936 o
335.288 148.594 o
356.976 146.267 o
360.629 130.021 o
400.354 74.5942 o
370.675 95.3955 o
337.343 120.733 o
359.944 106.588 o
381.405 90.4133 o
416.791 105.533 o
405.605 68.9791 o
402.408 93.8384 o
435.284 71.9334 o
446.242 101.599 o
424.325 119.125 o
420.901 95.4755 o
446.014 80.512 o
268.396 299.239 o
274.788 298.901 o
274.788 308.045 o
305.152 151.242 o
287.117 300.849 o
290.998 150.389 o
316.339 148.061 o
317.024 173.882 o
336.201 195.824 o
337.343 125.669 o
330.494 93.9462 o
366.565 87.0052 o
348.073 123.94 o
366.109 97.9981 o
395.559 79.255 o
359.031 148.19 o
387.112 100.221 o
416.791 76.7878 o
453.548 111.78 o
429.576 114.265 o
472.268 88.4292 o
422.727 86.158 o
463.593 73.5878 o
322.162 415 o
270.716 415 o
283.235 315.403 o
284.377 141.994 o
298.76 159.041 o
304.467 145.207 o
286.66 370.312 o
314.284 107.824 o
325.014 128.595 o
303.554 190.608 o
341.909 157.938 o
333.233 153.38 o
343.963 101.012 o
360.401 87.4615 o
356.976 116.205 o
355.378 114.622 o
376.154 107.151 o
378.437 84.9543 o
414.508 89.7769 o
401.267 84.9901 o
399.897 104.758 o
397.157 112.118 o
432.544 84.4493 o
460.853 73.5015 o
306.865 415 o
278.244 415 o
278.898 407.105 o
258.122 396.722 o
303.782 229.918 o
322.275 107.392 o
325.014 168.504 o
273.19 173.271 o
290.084 396.679 o
350.127 261.925 o
317.937 138.78 o
322.275 188.412 o
358.118 127.507 o
393.048 90.9371 o
369.305 118.277 o
420.216 89.6286 o
411.312 99.2902 o
390.993 291.374 o
398.071 90.6487 o
392.591 95.8895 o
373.414 98.1032 o
413.595 72.6208 o
298.896 415 o
254.954 415 o
255.154 377.632 o
289.4 212.267 o
272.049 300.182 o
271.364 183.472 o
270.188 415 o
297.346 415 o
309.49 165.584 o
295.107 142.75 o
288.715 121.304 o
302.869 168.665 o
342.594 173.672 o
372.044 111.824 o
332.092 195.429 o
309.947 229.298 o
318.394 225.636 o
373.871 81.5577 o
385.286 94.8181 o
404.92 90.1046 o
292.824 171.816 o
400.125 134.561 o
349.899 105.529 o
358.346 206.013 o
403.778 76.9153 o
376.451 415 o
247.929 415 o
248.077 313.812 o
273.647 288.401 o
274.56 191.862 o
265.19 415 o
285.093 415 o
296.705 300.108 o
311.773 117.028 o
296.933 117.248 o
271.135 160.766 o
345.79 148.122 o
348.073 116.966 o
344.648 108.466 o
358.766 415 o
352.871 415 o
324.101 148.923 o
336.429 105.474 o
348.529 102.291 o
367.478 107.309 o
379.35 113.252 o
356.063 142.192 o
377.524 114.249 o
375.241 80.0635 o
388.939 92.2273 o
423.64 98.4032 o
395.023 415 o
257.67 415 o
265.428 134.615 o
272.067 415 o
276.902 415 o
283.464 307.465 o
245.109 312.686 o
289.171 115.316 o
292.823 415 o
292.839 415 o
325.014 235.531 o
316.339 114.592 o
322.731 90.9831 o
316.796 222.596 o
317.252 119.509 o
358.346 335.902 o
326.384 120.477 o
354.693 95.7608 o
364.054 92.2305 o
330.265 273.199 o
325.243 153.568 o
440.534 90.6655 o
384.373 140.658 o
377.524 99.5515 o
422.955 205.443 o
376.551 415 o
233.768 415 o
219.083 189.17 o
270.222 178.177 o
256.13 415 o
262.788 415 o
270.222 301.608 o
261.547 179.056 o
322.96 176.568 o
290.541 135.905 o
296.477 101.165 o
363.141 124.943 o
302.641 133.839 o
355.15 81.4206 o
318.394 161.97 o
318.165 124.698 o
376.382 127.979 o
356.976 148.672 o
346.703 147.75 o
359.944 186.9 o
366.976 415 o
391.837 415 o
403.093 78.8105 o
392.51 415 o
218.833 415 o
247.621 349.69 o
259.036 301.578 o
271.82 292.388 o
263.145 365.818 o
263.145 189.854 o
297.847 209.444 o
266.569 273.091 o
242.598 246.364 o
290.769 114.183 o
280.496 217.174 o
354.922 97.0123 o
317.937 148.951 o
329.124 161.746 o
303.326 380.622 o
357.89 117.608 o
363.369 147.261 o
361.684 415 o
362.714 415 o
364.967 87.9102 o
348.418 415 o
349.345 415 o
387.34 66.8833 o
415.193 333.459 o
330.722 148.303 o
292.007 415 o
236.782 415 o
237.347 215.347 o
253.328 400.481 o
261.09 325.325 o
276.615 223.693 o
248.762 320.865 o
251.519 415 o
268.695 415 o
268.168 158.669 o
262.71 415 o
267.832 415 o
285.975 169.193 o
335.516 159.066 o
271.364 184.68 o
301.499 121.445 o
303.782 278.314 o
328.211 115.856 o
299.216 131.912 o
317.388 415 o
335.881 415 o
346.018 91.9969 o
414.508 78.4954 o
333.462 75.9589 o
396.929 81.2484 o
406.98 415 o
238.422 415 o
246.251 167.354 o
230.131 415 o
266.847 415 o
263.83 149.781 o
273.998 415 o
275.588 415 o
270.907 274.997 o
319.535 252.258 o
325.471 125.259 o
357.433 114.455 o
321.59 397.163 o
280.039 199.193 o
307.207 206.234 o
336.429 204.462 o
378.437 75.2453 o
360.173 102.872 o
361.086 125.299 o
409.029 98.0077 o
365.047 415 o
260.185 415 o
267.026 330.252 o
266.805 415 o
254.665 415 o
241.685 114.083 o
248.665 415 o
281.143 415 o
297.847 104.278 o
312.914 221.006 o
363.825 243.646 o
280.724 229.728 o
296.477 188.828 o
311.658 415 o
332.427 415 o
337.571 300.446 o
379.35 139.641 o
351.726 97.6912 o
326.156 227.445 o
326.018 415 o
247.656 415 o
265.2 180.379 o
291.911 147.748 o
273.587 415 o
325.783 415 o
331.179 220.541 o
288.258 119.273 o
309.49 96.2096 o
336.429 252.352 o
334.831 263.716 o
337.571 82.3014 o
335.394 415 o
351.052 415 o
355.835 211.464 o
364.967 105.221 o
429.348 87.2645 o
354.922 97.8664 o
288.4 415 o
260.744 415 o
261.547 284.691 o
243.897 415 o
213.803 415 o
217.028 126.884 o
232.346 415 o
292.239 415 o
294.422 187.93 o
257.437 265.873 o
237.347 197.607 o
260.634 218.657 o
293.737 162.146 o
311.088 269.059 o
315.882 110.087 o
334.831 86.414 o
408.116 100.337 o
262.232 141.557 o
357.661 129.511 o
314.513 117.191 o
334.375 79.4908 o
286.708 415 o
211.711 415 o
216.343 117.341 o
215.837 415 o
183.318 415 o
183.011 350.063 o
219.768 240.881 o
195.34 209.346 o
199.513 415 o
275.245 415 o
275.245 289.842 o
269.081 112.873 o
239.173 299.99 o
294.879 320.238 o
280.952 311.148 o
311.545 348.78 o
305.609 161.375 o
289.856 98.0549 o
313.371 107.786 o
337.571 137.079 o
331.407 95.1938 o
356.976 109.023 o
326.384 157.502 o
292.604 415 o
169.998 415 o
169.998 -1 o
150.821 -1 o
150.821 415 o
239.942 415 o
252.187 285.177 o
248.711 415 o
191.075 415 o
190.774 355.912 o
200.591 279.107 o
209.796 415 o
287.029 415 o
296.477 167.079 o
277.071 323.237 o
292.139 151.612 o
311.545 102.014 o
302.869 197.243 o
329.124 102.814 o
329.124 -1 o
323.873 -1 o
323.873 131.986 o
323.642 415 o
169.623 415 o
169.998 157.79 o
169.83 415 o
208.809 415 o
208.809 -1 o
209.494 -1 o
209.494 415 o
255.792 415 o
262.232 85.1517 o
296.477 133.892 o
289.66 415 o
260.252 415 o
258.579 270.705 o
258.242 415 o
252.032 415 o
252.187 156.328 o
258.529 415 o
275.148 415 o
277.071 101.765 o
343.963 77.4205 o
291.226 99.1865 o
331.179 122.792 o
336.154 415 o
355.881 415 o
355.835 120.677 o
355.768 415 o
194.882 415 o
196.709 183.266 o
196.697 415 o
192.143 415 o
192.143 -1 o
194.655 -1 o
194.655 230.853 o
212.17 415 o
244.385 415 o
236.662 109.919 o
246.251 178.435 o
257.583 415 o
267.381 415 o
261.775 257.622 o
260.942 415 o
283.3 415 o
286.203 95.8176 o
287.345 68.0489 o
268.316 415 o
305.208 415 o
333.918 280.915 o
259.036 204.037 o
264.727 415 o
298.385 415 o
298.532 80.919 o
296.933 75.3269 o
296.131 415 o
157.157 415 o
157.213 283.022 o
188.491 312.265 o
188.491 415 o
205.635 415 o
208.125 127.474 o
207.148 415 o
245.573 415 o
252.643 98.0672 o
259.72 102.451 o
286.432 153.597 o
281.058 415 o
274.694 415 o
273.647 244.623 o
324.786 76.3448 o
265.428 118.875 o
393.276 99.7359 o
306.294 352.375 o
307.557 415 o
131.084 415 o
125.48 239.605 o
128.808 415 o
222.353 415 o
222.353 -1 o
231.411 -1 o
231.411 119.628 o
250.817 275.08 o
232.324 175.682 o
218.626 215.58 o
257.666 388.863 o
257.666 415 o
237.113 415 o
225.247 168.431 o
230.276 415 o
273.177 415 o
275.701 186.072 o
229.585 347.011 o
304.239 159.99 o
294.294 415 o
127.306 415 o
127.306 -1 o
153.154 -1 o
153.154 415 o
186.261 415 o
186.664 98.7505 o
185.705 415 o
278.177 415 o
279.811 164.151 o
279.811 415 o
224.106 415 o
224.106 319.26 o
223.215 415 o
249.69 415 o
276.158 283.025 o
285.975 103.232 o
302.413 144.825 o
316.111 94.951 o
351.092 415 o
347.517 415 o
294.422 179.181 o
283.692 214.713 o
320.905 144.148 o
309.262 137.866 o
338.941 119.361 o
306.75 138.341 o
361.542 89.0125 o
367.022 107.63 o
377.752 96.177 o
332.092 143.33 o
377.98 109.033 o
340.767 126.06 o
387.797 94.3634 o
392.135 93.2166 o
372.501 95.2408 o
410.171 92.7513 o
381.176 97.6612 o
390.765 101.216 o
411.997 81.3083 o
449.895 86.9291 o
435.968 76.6673 o
468.615 84.2202 o
443.731 68.2813 o
277.528 183.646 o
296.705 175.617 o
302.413 152.938 o
306.065 159.271 o
330.722 154.627 o
360.173 106.482 o
356.063 121.873 o
317.48 118.152 o
399.44 104.556 o
369.99 91.1125 o
360.401 103.02 o
377.752 120.397 o
379.35 122.465 o
380.491 82.4355 o
395.103 89.7634 o
372.501 86.1679 o
406.746 79.8018 o
443.502 86.1593 o
447.612 70.9851 o
424.325 86.7481 o
428.435 78.3738 o
460.853 84.0999 o
470.214 84.0276 o
264.743 373.044 o
267.939 302.693 o
288.03 195.58 o
293.737 205.095 o
303.326 144.816 o
322.046 114.113 o
327.982 103.491 o
352.867 92.868 o
312.914 127.924 o
344.648 101.531 o
359.031 106.255 o
347.16 183.122 o
396.701 72.9164 o
364.51 102.096 o
400.582 96.5374 o
382.546 114.972 o
427.75 73.1331 o
441.676 80.4099 o
397.614 78.2495 o
429.119 95.2784 o
408.344 129.976 o
450.351 99.6944 o
457.657 68.5931 o
264.743 326.622 o
294.879 159.08 o
297.618 317.673 o
297.39 167.268 o
279.811 291.041 o
307.664 208.303 o
325.471 117.81 o
322.046 141.049 o
331.407 234.549 o
343.735 90.2207 o
329.809 274.431 o
369.761 102.069 o
378.665 109.504 o
369.761 89.6734 o
411.312 178.967 o
398.071 93.983 o
392.82 110.164 o
388.254 145.46 o
411.084 94.088 o
467.931 78.4063 o
390.765 95.4408 o
433.914 89.0726 o
432.772 114.159 o
301.229 415 o
262.022 415 o
277.528 304.43 o
294.422 211.591 o
295.335 174.726 o
304.467 202.645 o
298.76 144.594 o
334.603 239.705 o
314.284 129.46 o
320.677 157.786 o
330.265 123.006 o
322.275 129.183 o
330.037 136.046 o
375.012 90.2927 o
383.231 104.539 o
342.137 275.837 o
374.099 181.987 o
359.488 115.055 o
418.161 83.8367 o
402.18 288.306 o
439.621 107.115 o
394.646 110.183 o
475.236 65.065 o
354.237 141.775 o
323.575 415 o
251.488 415 o
251.958 299.56 o
279.354 245.349 o
293.509 234.448 o
295.792 339.611 o
308.577 154.622 o
287.801 139.126 o
323.188 178.799 o
325.471 169.754 o
290.313 173.08 o
295.107 164.867 o
346.703 141.82 o
330.95 104.004 o
356.292 126.654 o
352.41 81.2165 o
370.218 126.773 o
395.331 125.571 o
380.72 88.9943 o
445.785 88.2693 o
412.682 100.229 o
437.338 120.599 o
407.888 80.6958 o
285.988 415 o
239.383 415 o
232.781 343.129 o
273.647 215.884 o
251.045 147.426 o
284.605 255.693 o
297.162 322.861 o
300.358 144.018 o
293.509 119.159 o
312.686 162.402 o
300.586 237.303 o
349.443 127.093 o
303.782 116.687 o
353.552 155.978 o
390.993 290.981 o
345.333 115.349 o
392.82 94.8207 o
360.401 79.3177 o
375.241 98.1554 o
359.488 124.741 o
444.187 228.963 o
405.833 129.376 o
389.395 86.8128 o
461.31 116.134 o
259.601 415 o
278.776 415 o
281.181 193.208 o
277.984 122.391 o
261.319 323.811 o
305.837 86.0514 o
330.722 117.533 o
332.092 72.2217 o
349.899 133.89 o
338.789 415 o
341.095 415 o
355.607 152.5 o
341.579 415 o
374.673 415 o
435.968 93.1003 o
381.405 160.409 o
360.173 113.504 o
415.193 88.4704 o
368.163 118.794 o
417.476 78.2397 o
383.231 91.8185 o
406.289 139.439 o
384.144 227.661 o
370.555 415 o
260.655 415 o
262.46 155.567 o
307.207 194.011 o
306.922 415 o
318.784 415 o
326.841 100.477 o
269.081 347.369 o
316.796 270.834 o
312.686 142.169 o
291.454 224.783 o
348.301 84.3514 o
359.488 87.2928 o
314.056 262.082 o
387.569 105.542 o
366.793 83.9013 o
351.497 157.766 o
399.897 93.9603 o
369.99 78.2899 o
412.91 117.813 o
428.891 286.274 o
371.816 130.179 o
363.627 415 o
227.756 415 o
230.498 183.552 o
232.629 415 o
246.566 415 o
316.796 106.126 o
282.779 161.912 o
274.026 415 o
281.297 415 o
291.683 244.831 o
305.837 237.066 o
295.107 292.713 o
295.107 111.023 o
314.056 146.274 o
325.014 177.129 o
332.777 163.529 o
344.192 77.5496 o
334.146 90.8518 o
330.037 116.935 o
389.623 143.055 o
377.98 227.107 o
341.909 94.9377 o
377.752 294.363 o
373.892 415 o
233.481 415 o
233.922 276.5 o
233.971 415 o
256.427 415 o
290.313 104.518 o
288.586 415 o
292.327 415 o
297.618 212.33 o
320.448 215.947 o
260.634 101.913 o
335.516 83.3078 o
298.532 288.2 o
280.267 103.232 o
326.613 129.107 o
338.028 90.4998 o
324.786 137.854 o
362.912 105.741 o
373.186 96.181 o
337.114 283.454 o
432.087 76.8664 o
340.767 342.135 o
385.286 126.709 o
355.182 415 o
237.115 415 o
244.196 100.197 o
238.032 360.157 o
237.419 415 o
252.043 415 o
238.945 142.121 o
254.071 415 o
301.479 415 o
303.782 398.212 o
253.328 113.586 o
269.994 135.993 o
304.011 204.038 o
308.348 136.695 o
366.565 119.555 o
366.565 415 o
346.246 415 o
346.246 101.694 o
354.009 93.364 o
402.637 116.377 o
335.06 201.778 o
334.831 168.129 o
410.171 177.845 o
388.482 111.292 o
381.633 76.5688 o
378.192 415 o
212.709 415 o
222.507 160.269 o
215.43 341.991 o
219.54 287.997 o
241.228 148.751 o
238.717 231.545 o
257.437 243.106 o
285.518 167.102 o
270.496 415 o
273.764 415 o
261.775 143.436 o
314.267 415 o
320.305 415 o
379.35 116.226 o
331.703 415 o
306.033 415 o
299.216 177.402 o
315.197 173.862 o
345.79 108.096 o
390.308 91.1834 o
384.144 156.342 o
351.954 82.9019 o
361.314 95.9767 o
384.601 85.715 o
217.941 136.172 o
217.254 415 o
277.488 415 o
278.213 377.559 o
273.605 415 o
229.723 415 o
234.151 286.335 o
277.071 201.607 o
269.384 415 o
272.907 415 o
306.75 141.834 o
306.75 -1 o
278.898 -1 o
278.898 137.172 o
301.4 415 o
327.352 415 o
325.243 85.6675 o
337.799 98.1842 o
293.509 88.284 o
346.246 153.335 o
395.559 102.615 o
352.41 109.732 o
372.958 220.452 o
372.306 415 o
221.356 415 o
221.366 382.618 o
221.373 415 o
251.188 415 o
251.73 199.953 o
250.475 415 o
253.814 415 o
255.383 189.021 o
257.209 149.942 o
256.106 415 o
246.616 415 o
261.775 98.5942 o
326.156 258.143 o
292.824 218.057 o
291.789 415 o
310.199 415 o
342.365 93.7626 o
315.654 182.412 o
342.822 360.63 o
364.967 92.4321 o
339.854 117.187 o
320.448 106.882 o
343.455 415 o
209.93 415 o
211.092 218.751 o
210.106 415 o
201.142 415 o
191.459 329.027 o
235.977 201.119 o
280.952 179.891 o
198.308 165.875 o
209.037 415 o
274.718 415 o
272.277 150.026 o
276.615 299.81 o
275.206 415 o
274.827 415 o
277.3 207.344 o
304.467 102.567 o
311.545 187.948 o
278.441 130.316 o
310.403 117.34 o
354.465 162.524 o
324.329 89.411 o
353.552 234.673 o
322.731 133.832 o
382.546 260.346 o
353.034 415 o
206.983 415 o
206.983 -1 o
183.696 -1 o
183.696 415 o
259.868 415 o
260.177 175.749 o
260.177 415 o
218.046 415 o
226.16 84.9514 o
251.958 365.062 o
252.267 415 o
320.635 415 o
323.873 137.657 o
241.228 125.994 o
286.425 415 o
288.273 415 o
275.93 206.723 o
288.03 272.701 o
307.207 161.701 o
284.605 374.356 o
267.483 250.643 o
328.896 126.292 o
373.414 113.972 o
384.601 96.8638 o
339.854 146.956 o
227.53 291.749 o
227.206 415 o
225.104 415 o
228.443 166.957 o
249.219 272.705 o
231.497 415 o
234.461 415 o
235.064 410.631 o
235.144 415 o
261.801 415 o
261.319 364.553 o
258.413 415 o
231.782 415 o
230.041 120.45 o
234.775 415 o
273.68 415 o
348.529 207.59 o
348.529 -1 o
287.345 -1 o
287.345 94.8978 o
298.303 129.873 o
295.564 152.737 o
333.918 103.406 o
332.343 415 o
209.832 415 o
209.951 339.599 o
209.943 415 o
162.713 415 o
162.693 126.138 o
194.672 415 o
267.571 415 o
271.592 361.136 o
267.892 415 o
266.696 415 o
285.975 117.713 o
282.959 415 o
218.426 415 o
218.398 406.125 o
267.026 325.513 o
267.026 415 o
314.513 415 o
314.513 249.255 o
297.618 87.8541 o
297.308 415 o
370.505 415 o
384.601 78.852 o
301.271 70.6233 o
350.127 227.216 o
350.116 415 o
183.043 415 o
188.491 206.642 o
188.491 -1 o
154.246 -1 o
154.246 415 o
194.198 415 o
194.198 407.577 o
194.319 415 o
218.574 415 o
208.809 210.891 o
221.594 171.061 o
269.065 415 o
308.16 415 o
312.458 100.078 o
272.734 291.378 o
271.65 415 o
283.189 415 o
308.577 142.493 o
303.86 415 o
281.029 415 o
309.947 155.457 o
302.394 415 o
158.568 415 o
157.442 170.575 o
157.579 415 o
174.096 415 o
167.715 287.828 o
171.426 415 o
206.3 415 o
216.572 195.009 o
215.786 415 o
231.105 415 o
232.553 140.64 o
232.553 415 o
202.189 415 o
202.189 186.02 o
202.189 415 o
284.149 415 o
284.149 261.174 o
282.541 415 o
257.657 415 o
257.437 410.85 o
257.196 415 o
285.476 415 o
325.014 130.512 o
304.924 155.474 o
348.986 82.5006 o
348.867 415 o
207.697 415 o
208.125 266.308 o
208.125 415 o
194.159 415 o
217.257 249.14 o
200.678 415 o
212.325 415 o
214.06 127.505 o
268.624 129.883 o
251.769 415 o
247.89 415 o
254.47 117.931 o
211.092 179.547 o
313.143 237.24 o
257.894 127.959 o
229.336 415 o
257.49 415 o
290.541 222.985 o
270.451 149.515 o
360.858 197.243 o
285.518 94.3296 o
123.653 135.082 o
123.653 415 o
183.466 415 o
183.468 311.158 o
183.468 415 o
174.099 415 o
174.099 -1 o
204.243 -1 o
204.243 121.153 o
204.243 -1 o
125.708 -1 o
125.708 287.399 o
128.586 415 o
234.967 415 o
259.264 113.794 o
259.412 415 o
260.862 415 o
260.862 190.355 o
260.862 -1 o
303.554 -1 o
303.554 68.4954 o
300.425 415 o
238.738 415 o
226.617 89.2164 o
227.594 415 o
286.84 415 o
291.226 233.124 o
320.905 129.935 o
307.664 142.666 o
316.111 135.45 o
322.503 140.33 o
325.014 127.015 o
322.96 122.292 o
348.073 103.009 o
362.456 88.6455 o
343.278 122.231 o
340.995 109.521 o
366.109 100.699 o
398.984 104.206 o
414.28 88.9381 o
419.303 112.475 o
404.691 93.3714 o
433.001 75.4345 o
409.942 97.3774 o
390.308 81.9607 o
414.28 89.51 o
414.28 83.0106 o
466.104 80.9072 o
441.448 80.8712 o
278.441 241.532 o
299.673 197.286 o
302.869 188.642 o
290.313 212.865 o
302.641 165.256 o
329.809 133.084 o
343.507 130.318 o
352.182 126.689 o
359.259 156.36 o
349.214 105.409 o
354.693 100.174 o
390.308 82.8776 o
401.723 122.629 o
352.867 147.821 o
364.282 100.064 o
425.238 94.4883 o
390.765 88.2881 o
408.344 109.562 o
438.023 79.404 o
411.084 78.7038 o
397.157 84.3817 o
468.159 93.9072 o
433.685 76.1707 o
280.952 199.782 o
289.856 275.561 o
299.445 135.99 o
293.966 155.162 o
302.413 138.038 o
328.211 135.097 o
325.243 109.313 o
308.348 213.049 o
322.503 132.966 o
338.484 104.308 o
356.063 99.9843 o
339.169 123.312 o
379.122 93.0408 o
376.839 104.715 o
394.418 93.8748 o
394.418 81.8124 o
403.093 94.9102 o
392.135 81.9107 o
400.125 83.218 o
405.376 121.592 o
447.155 91.9171 o
437.795 84.0949 o
444.644 81.9247 o
269.766 301.93 o
284.377 333.338 o
303.326 132.623 o
266.262 415 o
267.88 415 o
308.577 178.82 o
329.809 114.303 o
311.545 189.789 o
324.558 193.941 o
333.005 109.06 o
325.699 116.404 o
343.507 85.8769 o
337.799 121.96 o
380.72 196.168 o
362.684 118.604 o
370.903 107.89 o
372.958 91.9226 o
404.92 86.5608 o
424.553 85.4893 o
415.421 86.6928 o
402.865 221.289 o
412.91 106.225 o
410.627 88.368 o
420.216 81.4465 o
266.569 299.183 o
261.032 415 o
272.104 415 o
291.911 228.416 o
286.432 388.422 o
290.541 147.04 o
312.914 204.349 o
321.818 207.908 o
344.648 315.098 o
306.065 162.721 o
330.722 128.908 o
333.462 121.617 o
352.182 110.244 o
366.793 175.537 o
375.241 124.254 o
356.52 129.46 o
377.295 108.624 o
384.144 91.488 o
363.825 143.658 o
402.637 150.122 o
408.116 70.7409 o
401.038 106.556 o
438.48 102.351 o
416.791 92.1788 o
318.981 415 o
264.82 415 o
286.432 204.207 o
279.802 415 o
277.704 415 o
277.528 196.732 o
279.583 262.424 o
308.577 123.401 o
322.96 111.952 o
295.564 199.886 o
315.197 143.239 o
353.78 232.376 o
340.995 291.376 o
332.32 135.627 o
331.407 92.1465 o
362.912 110.862 o
330.494 128.291 o
396.701 84.7024 o
431.174 117.15 o
366.565 73.7513 o
404.235 85.1139 o
393.505 91.6887 o
457.885 89.3866 o
433.914 91.6425 o
452.634 147.402 o
409.484 415 o
243.461 415 o
235.521 366.522 o
280.952 169.507 o
272.505 317.757 o
264.971 124.517 o
295.107 163.056 o
283.464 138.823 o
289.4 180.508 o
306.75 318.748 o
348.758 103.674 o
343.735 114.096 o
334.831 164.239 o
374.099 107.93 o
361.314 120.388 o
354.693 134.877 o
397.157 94.8582 o
367.935 188.059 o
392.591 99.8819 o
386.427 89.2701 o
398.299 120.628 o
424.553 79.726 o
419.303 78.3609 o
360.716 415 o
235.168 415 o
228.9 270.891 o
257.764 415 o
267.327 415 o
273.875 412.732 o
304.239 96.9109 o
301.871 415 o
315.77 415 o
322.731 138.068 o
327.754 150.966 o
290.998 111.997 o
358.575 92.2886 o
329.58 110.892 o
353.095 175.359 o
344.42 82.6386 o
365.88 184.647 o
359.259 83.2953 o
380.263 268.472 o
364.739 105.616 o
413.823 111.587 o
398.984 98.1373 o
405.605 75.2976 o
429.348 76.402 o
402.73 415 o
273.089 415 o
277.3 198.374 o
267.069 415 o
267.286 415 o
267.939 401.377 o
263.145 294.696 o
260.682 415 o
274.911 415 o
281.866 199.487 o
280.794 415 o
291.951 415 o
292.367 355.822 o
289.918 415 o
301.156 415 o
319.763 103.385 o
357.205 199.167 o
317.48 198.397 o
311.088 93.2632 o
300.815 121.324 o
340.539 123.088 o
330.265 408.29 o
354.465 184.686 o
387.569 84.3245 o
372.273 127.824 o
389.167 210.66 o
380.491 237.524 o
397.842 174.819 o
392.991 415 o
233.489 415 o
231.639 252.887 o
270.679 206.938 o
233.694 208.883 o
239.439 415 o
286.753 415 o
317.709 166.524 o
265.015 415 o
266.092 415 o
351.954 111.186 o
288.03 234.028 o
340.082 96.3356 o
315.426 113.152 o
370.903 92.7816 o
352.867 124.173 o
358.803 110.951 o
365.88 105.74 o
363.141 74.142 o
377.067 98.4051 o
399.44 94.469 o
418.618 105.712 o
376.839 106.688 o
213.832 163.589 o
199.449 409.951 o
253.785 160.295 o
264.286 185.052 o
282.55 159.143 o
276.814 415 o
262.303 415 o
264.971 234.133 o
284.833 171.265 o
316.796 119.796 o
296.152 415 o
287.887 415 o
283.007 299.38 o
288.486 261.053 o
303.098 153.314 o
294.422 125.252 o
296.314 415 o
380.904 415 o
403.55 101.413 o
320.677 178.605 o
369.305 105.907 o
356.976 197.639 o
355.707 415 o
345.985 415 o
342.594 117.189 o
346.018 155.729 o
420.216 84.5811 o
405.319 415 o
220.425 415 o
216.572 251.366 o
234.56 415 o
279.762 415 o
280.039 140.742 o
302.413 220.442 o
278.669 353.609 o
260.177 137.488 o
308.12 89.5989 o
326.841 102.772 o
347.844 119.005 o
318.85 106.366 o
291.226 152.926 o
339.854 98.6048 o
353.095 94.2158 o
348.073 114.377 o
368.62 98.7191 o
370.903 124.284 o
357.89 239.629 o
379.807 172.652 o
316.686 415 o
221.708 415 o
221.823 325.611 o
222.753 415 o
260.129 415 o
266.113 162.729 o
248.001 415 o
228.542 415 o
225.932 204.754 o
284.833 175.63 o
256.179 415 o
254.156 415 o
258.579 176.501 o
290.475 415 o
305.228 415 o
293.052 138.206 o
327.526 104.96 o
350.356 73.6833 o
343.369 415 o
346.475 415 o
346.475 116.918 o
311.088 139.813 o
364.282 98.7111 o
308.348 305.285 o
380.035 270.62 o
379.909 415 o
219.477 415 o
222.507 179.369 o
220.977 415 o
227.404 415 o
230.498 94.278 o
258.351 267.295 o
242.908 415 o
262.961 415 o
300.358 150.065 o
297.847 246.765 o
294.879 125.309 o
321.818 299.263 o
293.018 415 o
292.863 415 o
343.278 94.9864 o
384.829 321.532 o
312.458 139.715 o
348.986 126.297 o
349.214 124.583 o
337.906 415 o
203.955 415 o
204.015 200.241 o
204.168 415 o
235.51 415 o
235.521 303.46 o
240.087 109.697 o
269.309 321.378 o
255.611 340.715 o
309.328 415 o
319.364 415 o
299.901 138.95 o
230.27 386.027 o
239.369 415 o
279.517 415 o
236.434 103.374 o
325.243 109.33 o
269.309 308.416 o
303.782 146.258 o
358.803 114.004 o
339.169 66.4655 o
346.246 213.111 o
309.262 115.148 o
313.47 415 o
197.521 415 o
189.86 240.556 o
202.189 214.167 o
202.08 415 o
230.38 415 o
230.726 240.064 o
224.79 234.182 o
235.749 111.743 o
236.777 415 o
214.278 415 o
214.06 400.201 o
277.3 180.563 o
273.81 415 o
319.079 415 o
319.079 118.028 o
298.532 168.998 o
301.728 135.334 o
299.445 155.077 o
341.224 169.998 o
346.747 415 o
347.097 415 o
342.365 190.041 o
390.08 125.133 o
386.735 415 o
357.317 415 o
354.693 94.8191 o
354.535 415 o
225.788 415 o
226.16 338.165 o
226.883 415 o
268.064 415 o
269.766 190.825 o
260.865 415 o
260.192 415 o
263.373 113.438 o
262.676 415 o
280.431 415 o
280.952 274.543 o
250.588 121.77 o
283.692 81.3 o
334.375 184.737 o
274.788 139.276 o
265.656 152.188 o
337.343 74.5614 o
326.156 84.9619 o
314.056 163.421 o
314.056 -1 o
345.561 -1 o
345.561 252.1 o
345.46 415 o
237.696 415 o
240.087 185.66 o
227.302 203.598 o
247.621 263.444 o
233.535 415 o
252.077 415 o
265.885 213.144 o
265.885 -1 o
253.328 -1 o
253.328 415 o
252.461 415 o
250.588 122.05 o
250.588 -1 o
360.173 -1 o
360.173 230.777 o
248.762 146.189 o
301.499 173.378 o
289.628 85.6288 o
312.914 246.109 o
331.407 294.801 o
348.986 186.464 o
346.622 415 o
195.704 415 o
196.025 289.987 o
196.011 415 o
202.31 415 o
204.928 161.64 o
218.17 145.42 o
218.633 415 o
236.662 415 o
236.662 -1 o
236.205 -1 o
236.205 264.515 o
236.945 415 o
261.245 415 o
261.09 164.5 o
297.162 124.818 o
287.299 415 o
306.899 415 o
325.471 79.2668 o
289.72 415 o
276.227 415 o
276.227 -1 o
334.146 -1 o
334.146 95.0325 o
313.828 85.5681 o
306.902 415 o
202.108 415 o
202.189 309.136 o
202.035 415 o
176.002 415 o
175.934 231.224 o
214.517 308.598 o
237.575 267.924 o
207.211 176.172 o
207.211 183.486 o
222.396 415 o
256.979 415 o
286.432 137.018 o
284.159 415 o
312.032 415 o
329.352 196.687 o
311.545 87.5762 o
272.277 90.9207 o
324.101 79.6164 o
334.831 98.1333 o
334.831 -1 o
148.081 -1 o
148.081 135.69 o
147.966 415 o
227.846 415 o
231.639 131.459 o
231.639 -1 o
248.077 -1 o
248.077 117.873 o
247.586 415 o
230.562 415 o
230.726 201.727 o
261.547 99.9479 o
258.84 415 o
247.807 415 o
209.494 207.86 o
212.934 415 o
262.997 415 o
282.779 102.476 o
264.918 415 o
294.026 415 o
345.105 120.156 o
333.69 91.6364 o
351.041 116.721 o
305.609 337.704 o
304.689 415 o
172.295 415 o
172.51 167.739 o
172.51 415 o
202.649 415 o
199.221 306.328 o
219.996 105.53 o
221.508 415 o
355.655 415 o
356.292 139.799 o
342.453 415 o
264.774 415 o
267.711 206.212 o
266.395 415 o
301.561 415 o
329.58 112.71 o
276.615 204.429 o
305.609 233.928 o
303.258 415 o
154.034 415 o
154.017 314.878 o
152.725 415 o
206.862 415 o
222.736 115.551 o
198.225 415 o
196.55 415 o
187.349 150.789 o
188.381 415 o
251.71 415 o
253.556 83.0139 o
217.713 285.654 o
245.337 165.756 o
250.325 415 o
286.919 415 o
288.486 257.111 o
286.067 415 o
275.506 415 o
271.82 189.004 o
301.271 103.929 o
309.033 83.0028 o
287.573 163.749 o
251.73 266.193 o
289.4 193.794 o
289.628 172.92 o
313.599 126.138 o
323.645 117.577 o
304.924 159.809 o
339.169 117.75 o
305.381 141.091 o
365.652 84.2605 o
340.767 112.705 o
353.324 99.8451 o
396.016 70.6336 o
403.55 89.8377 o
393.505 90.2553 o
415.878 94.7842 o
417.933 89.3312 o
433.229 88.5809 o
415.193 81.4294 o
422.955 88.7221 o
419.303 91.9273 o
438.251 125.015 o
433.229 102.176 o
462.223 95.0594 o
459.483 83.6625 o
297.618 178.075 o
312.23 100.754 o
291.226 192.466 o
304.239 200.201 o
319.079 122.728 o
342.365 143.16 o
351.041 147.582 o
380.491 94.9029 o
351.041 114.922 o
369.076 104.931 o
361.086 104.092 o
365.424 102.891 o
401.038 76.5064 o
408.572 76.1202 o
421.357 104.139 o
395.788 122.255 o
385.514 87.3584 o
426.152 73.8202 o
416.563 88.7815 o
454.004 94.6552 o
446.014 88.3511 o
439.393 85.9835 o
453.319 86.987 o
279.811 266.552 o
289.4 228.441 o
290.084 119.163 o
292.367 209.509 o
335.288 116.29 o
317.937 303.315 o
305.381 141.47 o
318.394 121.067 o
349.214 105.866 o
346.475 118.289 o
332.548 115.039 o
374.099 92.2228 o
405.833 169.198 o
392.82 84.4318 o
359.488 102.009 o
396.929 128.352 o
367.022 92.2823 o
387.569 81.6882 o
395.559 112.279 o
404.691 196.019 o
381.176 94.565 o
444.187 82.3686 o
453.319 81.8587 o
284.605 233.079 o
297.162 178.163 o
271.38 415 o
276.309 415 o
316.111 166.049 o
321.362 122.296 o
322.731 124.762 o
319.079 138.602 o
330.037 113.95 o
320.448 117.432 o
332.777 127.123 o
332.777 127.511 o
353.78 121.262 o
367.707 149.64 o
388.939 108.197 o
374.556 135.754 o
369.533 104.897 o
384.829 94.665 o
404.691 134.381 o
384.373 124.845 o
383.459 107.875 o
421.357 101.402 o
422.727 79.6591 o
427.065 106.381 o
305.312 415 o
267.899 415 o
279.354 186.206 o
264.743 193.952 o
286.432 136.119 o
306.75 204.979 o
313.564 415 o
315 415 o
319.992 115.437 o
311.088 121.452 o
304.696 164.195 o
277.071 135.456 o
363.825 103.091 o
347.388 133.575 o
357.89 129.994 o
392.135 89.619 o
356.748 93.4671 o
365.652 122.408 o
398.984 105.056 o
405.148 91.8382 o
372.044 175.28 o
431.174 166.578 o
376.61 88.0701 o
398.071 97.0258 o
453.548 74.7288 o
293.281 172.974 o
271.135 296.273 o
273.418 323.13 o
280.039 139.195 o
275.575 415 o
281.351 415 o
287.117 212.21 o
285.29 169.027 o
290.769 215.966 o
322.731 232.123 o
334.603 134.48 o
354.922 104.119 o
345.105 97.9112 o
358.803 101.513 o
389.852 149.32 o
403.55 117.408 o
382.546 97.8573 o
350.812 98.5241 o
397.157 165.188 o
398.984 85.1065 o
383.916 93.8624 o
416.791 78.606 o
422.042 82.0774 o
399.897 86.1397 o
326.951 415 o
267.218 415 o
279.811 206.403 o
280.724 297.837 o
297.847 227.814 o
294.492 415 o
287.185 415 o
287.573 388.791 o
277.3 167.859 o
333.233 99.6638 o
312.001 118.734 o
354.465 194.884 o
299.673 212.317 o
315.654 202.092 o
321.133 147.646 o
347.532 415 o
365.426 415 o
410.399 77.3237 o
334.603 115.575 o
362.227 110.07 o
331.179 95.0596 o
429.804 113.856 o
411.997 90.4217 o
421.814 163.25 o
436.653 119.038 o
429.576 76.0825 o
299.343 415 o
256.825 415 o
251.958 310.707 o
278.213 228.358 o
303.554 284.121 o
291.834 415 o
302.326 415 o
337.571 109.817 o
275.017 175.975 o
294.194 386.407 o
332.777 171.228 o
322.96 108.788 o
358.346 91.1423 o
317.48 262.51 o
307.664 140.931 o
350.812 157.506 o
359.944 117.978 o
387.797 106.477 o
385.057 91.8128 o
352.639 80.6611 o
373.414 91.123 o
386.656 132.72 o
437.795 86.1692 o
401.038 388.821 o
396.346 415 o
256.502 415 o
257.894 329.163 o
235.964 415 o
227.607 415 o
262.917 203.827 o
260.29 415 o
270.363 415 o
278.898 151.605 o
272.734 221.514 o
268.663 415 o
279.06 415 o
298.988 155.679 o
312.001 95.2676 o
292.367 308.459 o
294.814 415 o
301.914 415 o
300.815 319.331 o
329.124 156.119 o
312.686 214.462 o
365.652 181.369 o
349.671 279.782 o
359.031 112.7 o
388.71 98.2959 o
397.386 107.449 o
405.833 153.468 o
363.597 73.1154 o
409.029 130.152 o
301.153 415 o
239.175 415 o
222.507 174.505 o
218.744 415 o
262.665 415 o
286.888 179.51 o
225.475 296.981 o
309.262 289.389 o
286.203 355.228 o
305.381 167.41 o
234.836 154.335 o
297.162 222.411 o
310.403 149.715 o
346.246 184.338 o
330.95 222.73 o
324.329 367.996 o
295.564 122.989 o
290.313 149.559 o
314.969 136.375 o
401.952 209.131 o
379.122 97.8581 o
329.352 141.374 o
448.753 187.541 o
353.324 406.676 o
437.795 102.077 o
426.647 415 o
218.438 415 o
218.398 410.469 o
218.67 415 o
247.272 415 o
269.537 114.014 o
308.805 111.841 o
299.196 415 o
272.213 415 o
274.103 118.176 o
277.163 415 o
254.587 415 o
255.611 251.838 o
279.986 415 o
328.508 415 o
347.844 258.778 o
366.565 113.803 o
305.609 89.0885 o
336.429 142.925 o
324.786 100.364 o
384.601 122.738 o
456.972 188.345 o
362.684 104.552 o
340.539 118.349 o
334.746 415 o
237.096 415 o
237.119 277.367 o
236.547 415 o
251.647 415 o
258.807 128.066 o
241.228 147.055 o
256.753 369.348 o
265.656 256.419 o
262.699 415 o
270.359 415 o
275.93 223.347 o
293.966 280.382 o
285.54 415 o
315.017 415 o
334.603 157.699 o
319.535 171.511 o
329.352 145.565 o
352.639 81.3011 o
371.131 60.3577 o
403.321 278.394 o
353.095 256.657 o
343.735 127.562 o
339.626 211.075 o
372.958 114.524 o
371.143 415 o
274.286 415 o
275.93 106.931 o
219.768 129.293 o
220.253 415 o
239.15 415 o
239.173 352.689 o
275.245 129.222 o
292.596 98.9535 o
287.844 415 o
300.878 415 o
306.75 251.333 o
293.197 415 o
304.824 415 o
329.809 245.11 o
307.435 200.602 o
353.78 113.293 o
306.75 103.526 o
320.905 150.341 o
332.548 85.6227 o
371.131 135.092 o
345.561 120.978 o
341.452 113.408 o
395.103 156.153 o
280.04 415 o
230.73 415 o
254.013 181.91 o
253.285 415 o
277.999 415 o
280.496 291.276 o
268.672 415 o
272.962 415 o
272.962 108.423 o
252.046 415 o
297.106 415 o
287.573 165.305 o
295.564 99.1382 o
305.382 415 o
317.735 415 o
358.346 118.956 o
331.635 186.861 o
332.548 121.098 o
318.622 93.8027 o
321.59 194.513 o
338.523 415 o
197.394 415 o
197.394 130.988 o
224.976 415 o
252.849 415 o
244.424 128.757 o
243.319 415 o
243.44 415 o
241.228 117.006 o
240.924 415 o
317.116 415 o
320.677 327.526 o
272.505 404.602 o
313.828 110.111 o
267.215 415 o
265.109 415 o
300.358 119.182 o
279.126 153.194 o
281.181 351.998 o
288.715 62.6138 o
336.658 108.128 o
302.869 126.227 o
361.771 91.3823 o
323.188 149.799 o
349.214 251.788 o
349.093 415 o
230.151 415 o
215.887 218.335 o
216.291 415 o
254.859 415 o
255.611 128.585 o
245.518 415 o
263.959 415 o
290.084 230.362 o
289.962 415 o
239.41 415 o
243.739 192.338 o
277.585 415 o
303.054 415 o
323.188 202.285 o
282.55 134.895 o
289.377 415 o
333.737 415 o
347.844 168.085 o
352.639 350.011 o
312.001 339.084 o
279.811 128.383 o
392.82 113.713 o
385.641 415 o
219.083 415 o
219.083 -1 o
222.736 -1 o
222.736 342.199 o
222.716 415 o
236.146 415 o
242.141 162.047 o
223.192 214.725 o
228.443 176.402 o
242.37 400.41 o
242.222 415 o
248.216 415 o
250.817 194.736 o
266.908 415 o
267.245 415 o
303.554 146.206 o
338.256 114.507 o
367.25 77.6703 o
356.748 122.432 o
288.486 130.878 o
297.162 113.501 o
310.631 112.802 o
359.716 87.2504 o
359.636 415 o
228.657 415 o
232.553 270.17 o
198.308 328.491 o
198.139 415 o
217.501 415 o
217.713 356.314 o
192.6 180.024 o
246.936 286.771 o
244.475 415 o
249.549 415 o
250.132 240.579 o
258.305 415 o
276.93 415 o
277.528 168.329 o
288.715 130.781 o
337.799 104.143 o
262.46 162.016 o
290.998 94.7743 o
305.125 415 o
349.393 415 o
367.022 159.808 o
365.015 415 o
136.895 415 o
136.895 -1 o
219.54 -1 o
219.54 145.753 o
216.8 413.14 o
191.915 239.002 o
192.355 415 o
245.367 415 o
246.022 325.631 o
244.71 415 o
219.783 415 o
219.311 94.0262 o
284.149 127.783 o
261.547 133.039 o
287.117 199.902 o
283.464 144.541 o
300.13 411.618 o
300.248 415 o
315.426 415 o
315.882 152.547 o
305.381 398.332 o
369.076 304.514 o
359.259 102.562 o
359.259 415 o
225.704 415 o
236.662 233.007 o
177.304 277.511 o
178.925 415 o
272.033 415 o
273.418 133.918 o
234.167 415 o
293.046 415 o
295.107 109.017 o
303.554 79.534 o
351.041 105.464 o
286.432 369.926 o
271.364 331.886 o
311.545 265.755 o
330.265 98.2975 o
318.156 415 o
303.051 415 o
311.773 106.108 o
311.759 415 o
203.949 415 o
203.787 139.228 o
206.03 415 o
189.482 415 o
186.436 168.169 o
193.285 150.08 o
205.225 415 o
298.137 415 o
298.76 121.465 o
291.1 415 o
300.429 415 o
310.403 149.932 o
333.69 104.214 o
329.58 142.457 o
287.117 78.9057 o
305.381 140.371 o
283.692 374.566 o
150.821 406.648 o
150.821 415 o
148.535 415 o
148.538 150.41 o
153.332 152.87 o
160.196 415 o
210.4 415 o
210.864 306.107 o
210.198 415 o
200.316 415 o
201.504 177.146 o
278.441 126.916 o
276.286 415 o
281.925 415 o
286.66 289.289 o
298.76 245.147 o
276.158 92.2798 o
312.914 124.653 o
360.858 174.368 o
333.462 234.133 o
353.095 111.116 o
353.094 415 o
148.766 415 o
148.766 -1 o
206.07 -1 o
206.07 415 o
206.958 415 o
206.983 218.257 o
199.449 244.879 o
185.751 186.63 o
185.76 415 o
239.197 415 o
252.415 373.863 o
252.436 415 o
178.036 415 o
177.532 213.867 o
288.715 123.4 o
213.832 262.656 o
218.907 415 o
300.208 415 o
301.956 158.614 o
265.2 259.276 o
229.585 188.475 o
229.585 415 o
261.775 415 o
261.775 161.655 o
342.365 135.494 o
281.637 221.438 o
290.313 194.925 o
291.226 202.279 o
314.741 140.629 o
340.311 110.276 o
316.796 133.398 o
339.626 92.8957 o
358.118 134.285 o
338.256 143.1 o
377.752 93.9181 o
375.012 92.883 o
383.231 131.535 o
373.186 95.167 o
394.646 94.6282 o
414.28 86.3531 o
379.122 93.5865 o
420.901 86.4038 o
439.85 80.3762 o
465.648 90.6533 o
409.257 87.6151 o
421.814 93.2845 o
451.036 73.9014 o
434.37 74.132 o
298.988 166.183 o
307.892 139.061 o
305.837 137.055 o
315.197 120.466 o
301.728 152.456 o
318.622 133.157 o
337.114 97.4023 o
335.288 137.149 o
340.311 137.857 o
362.912 109.292 o
387.569 110.025 o
392.363 88.3368 o
377.295 89.818 o
386.427 111.182 o
363.597 123.485 o
360.629 125.868 o
405.605 82.9798 o
438.936 80.0776 o
397.386 103.703 o
446.699 79.8993 o
433.457 82.4857 o
449.667 70.2844 o
427.521 93.7383 o
281.409 223.08 o
286.432 188.796 o
295.107 221.922 o
292.367 233.758 o
295.564 272.753 o
352.639 86.4298 o
316.567 140.003 o
354.465 108.003 o
325.471 145.516 o
319.992 128.603 o
349.214 141.459 o
393.048 91.2371 o
404.235 71.2195 o
394.874 68.8917 o
438.48 83.684 o
380.948 101.202 o
381.861 188.256 o
430.718 124.021 o
411.084 90.7204 o
453.776 100.727 o
425.923 83.2895 o
420.216 81.9367 o
451.721 115.845 o
286.203 196.859 o
280.724 274.781 o
279.354 225.172 o
287.046 415 o
294.586 415 o
303.326 177.487 o
290.313 346.572 o
317.024 195.369 o
317.252 151.308 o
314.513 116.363 o
342.365 97.6035 o
385.286 126.759 o
365.424 100.427 o
386.884 128.724 o
359.716 93.3324 o
378.208 99.4655 o
373.871 83.4917 o
376.61 103.626 o
436.882 81.0223 o
441.676 81.3879 o
438.48 79.0012 o
417.933 84.0252 o
389.623 95.6542 o
438.023 108.068 o
270.907 391.987 o
295.335 235.254 o
269.777 415 o
267.381 415 o
305.609 115.324 o
282.779 153.363 o
323.873 96.1396 o
310.403 177.36 o
307.664 122.646 o
314.741 164.262 o
379.35 94.4931 o
334.375 127.325 o
372.958 85.7673 o
346.703 178.817 o
389.623 105.668 o
376.839 131.43 o
356.52 116.564 o
354.693 123.6 o
416.791 65.9274 o
411.312 105.82 o
427.978 157.194 o
384.144 87.2788 o
418.846 176.674 o
396.016 68.9686 o
349.435 415 o
277.101 415 o
290.313 152.444 o
258.351 388.609 o
303.326 191.277 o
301.271 181.16 o
305.152 141.083 o
273.19 180.633 o
275.245 135.563 o
358.346 89.8682 o
299.216 220.918 o
336.429 90.6987 o
331.863 213.616 o
362.456 125.413 o
343.507 109.079 o
356.748 97.9304 o
379.122 87.9103 o
340.767 99.0754 o
377.98 110.063 o
390.765 99.7991 o
409.029 99.8914 o
412.454 112.471 o
439.165 70.6552 o
382.774 79.4297 o
333.539 415 o
260.281 415 o
260.862 388.55 o
267.775 415 o
268.145 415 o
296.933 219.178 o
267.026 261.989 o
300.815 161.751 o
295.792 258.608 o
321.362 106.964 o
315.882 163.988 o
354.465 108.777 o
348.529 129.281 o
303.782 173.422 o
328.896 142.632 o
353.552 94.5987 o
390.308 107.312 o
417.476 91.8948 o
414.508 71.1243 o
399.212 113.74 o
354.009 128.369 o
400.125 111.798 o
388.71 100.37 o
270.679 228.917 o
257.518 415 o
239.539 415 o
239.858 342.524 o
244.807 415 o
298.781 415 o
318.165 149.182 o
296.705 168.009 o
312.458 130.409 o
312.001 204.599 o
330.722 231.662 o
312.686 94.4302 o
304.924 208.119 o
383.916 75.4949 o
324.101 129.162 o
374.784 286.775 o
363.141 122.21 o
364.054 118.947 o
380.263 178.385 o
391.222 87.1501 o
360.173 166.76 o
381.861 92.8465 o
399.44 120.345 o
459.027 96.6297 o
399.796 415 o
236.159 415 o
235.977 366.037 o
252.871 153.538 o
263.373 353.365 o
290.998 132.997 o
288.152 415 o
312.574 415 o
328.439 115.248 o
287.801 184.133 o
323.416 169.286 o
314.507 415 o
325.724 415 o
362.684 141.93 o
330.494 184.375 o
339.626 106.423 o
372.958 99.885 o
352.867 93.4978 o
377.98 145.042 o
405.376 121.907 o
422.27 84.9696 o
335.973 201.581 o
243.968 193.185 o
245.653 415 o
245.152 415 o
244.196 295.299 o
241.294 415 o
256.532 415 o
269.994 181.154 o
275.017 330.58 o
271.415 415 o
277.967 415 o
290.541 166.23 o
274.788 107.285 o
304.924 200.204 o
285.29 229.459 o
326.156 122.158 o
393.505 108.438 o
287.573 152.349 o
381.633 222.666 o
343.05 116.957 o
361.314 92.3301 o
380.491 103.845 o
390.308 199.468 o
374.556 80.7211 o
341.68 237.5 o
396.016 209.402 o
386.631 415 o
245.392 415 o
267.939 193.924 o
265.428 163.675 o
271.996 415 o
268.426 415 o
257.894 203.737 o
276.843 168.531 o
281.409 101.574 o
297.567 415 o
284.903 415 o
253.328 185.555 o
338.028 200.613 o
322.046 167.641 o
303.326 202.739 o
376.154 147.246 o
364.054 135.643 o
315.197 105.72 o
320.965 415 o
323.849 415 o
328.211 168.181 o
416.335 82.981 o
395.103 64.2957 o
358.603 415 o
224.738 415 o
224.79 404.122 o
225.123 415 o
244.887 415 o
239.858 131.27 o
250.392 415 o
248.901 415 o
234.607 272.032 o
246.246 415 o
270.405 415 o
271.592 198.998 o
361.086 102.241 o
320.905 88.8384 o
347.388 109.642 o
368.163 199.151 o
341.452 120.414 o
364.739 86.4384 o
386.199 107.666 o
385.742 248.502 o
305.381 84.4911 o
428.663 103.062 o
415.989 415 o
237.187 415 o
237.804 149.584 o
238.799 415 o
251.53 415 o
267.026 366.917 o
267.048 415 o
287.285 415 o
309.718 351.945 o
254.241 237.22 o
294.65 115.205 o
325.699 121.193 o
334.146 102.026 o
274.332 170.101 o
302.869 100.195 o
372.273 87.5503 o
381.861 93.8806 o
341.909 118.065 o
346.931 153.452 o
350.812 106.172 o
352.867 84.8906 o
394.189 116.737 o
371.282 415 o
293.288 415 o
298.532 196.024 o
294.041 415 o
252.207 415 o
260.634 111.45 o
338.256 122.285 o
313.143 413.713 o
313.07 415 o
326.16 415 o
338.028 245.48 o
333.918 118.49 o
327.526 116.829 o
309.649 415 o
316.513 415 o
358.118 140.364 o
406.746 88.4937 o
340.311 67.5385 o
332.213 415 o
205.641 415 o
206.07 338.346 o
206.076 415 o
208.809 415 o
208.809 -1 o
235.521 -1 o
235.521 415 o
238.798 415 o
251.73 115.514 o
247.259 415 o
268.018 415 o
290.541 106.03 o
314.741 220.408 o
329.58 100.416 o
290.084 111.472 o
289.064 415 o
312.316 415 o
314.969 120.827 o
322.503 309.103 o
336.429 131.816 o
334.467 415 o
339.26 415 o
340.995 275.442 o
339.028 415 o
352.982 415 o
356.063 266.159 o
355.986 415 o
190.517 415 o
190.545 357.645 o
239.402 277.918 o
239.402 415 o
216.115 415 o
216.115 328.881 o
216.159 415 o
238.337 415 o
241.456 140.245 o
241.714 415 o
283.915 415 o
284.149 162.99 o
291.226 103.606 o
285.518 120.99 o
331.635 121.517 o
342.822 130.84 o
272.734 261.951 o
285.655 415 o
311.832 415 o
309.033 127.903 o
362.456 73.6709 o
354.693 85.8598 o
343.735 67.381 o
222.164 415 o
218.245 415 o
230.955 119.068 o
255.839 404.818 o
255.729 415 o
208.025 415 o
208.125 350.203 o
248.305 117.451 o
248.305 145.314 o
280.724 172.238 o
280.225 415 o
219.399 415 o
218.855 375.201 o
218.855 415 o
279.811 415 o
279.811 206 o
314.513 152.166 o
347.16 95.4539 o
323.873 141.911 o
287.117 309.272 o
325.699 104.726 o
289.171 247.025 o
286.432 183.678 o
347.844 88.4997 o
341.925 415 o
172.408 415 o
172.281 210.601 o
192.143 161.467 o
192.18 415 o
221.826 415 o
240.543 116.819 o
262.917 135.233 o
235.064 300.525 o
241.163 415 o
231.404 415 o
212.234 161.966 o
295.107 231.402 o
291.345 415 o
313.135 415 o
321.133 108.965 o
319.74 415 o
303.687 415 o
304.239 150.633 o
355.15 89.4252 o
314.969 131.891 o
334.375 115.651 o
321.362 125.844 o
376.154 72.8613 o
362.033 415 o
211.743 415 o
212.462 160.597 o
209.396 415 o
219.311 415 o
219.311 -1 o
214.745 -1 o
214.745 178.039 o
186.893 177.992 o
243.283 405.139 o
249.675 113.496 o
231.639 209.848 o
236.608 415 o
273.56 415 o
281.866 109.644 o
281.318 415 o
321.626 415 o
323.416 71.863 o
340.04 415 o
329.552 415 o
315.197 234.918 o
311.316 153.758 o
379.122 75.9823 o
281.409 105.245 o
360.173 127.565 o
150.593 204.417 o
154.057 415 o
193.145 415 o
200.134 229.016 o
191.459 250.798 o
190.949 415 o
215.513 415 o
220.909 145.982 o
233.009 161.034 o
239.63 282.235 o
243.283 270.139 o
262.917 326.278 o
250.36 110.652 o
264.529 415 o
266.64 415 o
259.264 228.782 o
301.956 74.1024 o
334.603 164.975 o
309.262 99.0649 o
259.264 370.777 o
265.072 415 o
321.089 415 o
319.307 103.913 o
319.307 415 o
194.168 415 o
142.602 96.6439 o
157.442 241.79 o
177.304 184.825 o
190.774 313.149 o
217.713 117.844 o
219.447 415 o
247.58 415 o
276.615 119.849 o
252.871 268.401 o
223.421 367.12 o
208.353 135.168 o
304.239 85.6222 o
264.521 415 o
257.375 415 o
268.168 167.489 o
312.686 264.035 o
330.95 378.393 o
345.561 177.883 o
345.561 -1 o
153.332 -1 o
153.332 415 o
155.494 415 o
171.14 153.72 o
189.404 91.931 o
189.404 415 o
198.536 415 o
198.536 202.155 o
204.472 380.372 o
209.723 179.087 o
207.033 415 o
229.548 415 o
243.054 84.0449 o
277.071 346.324 o
276.19 415 o
183.011 415 o
183.011 309.591 o
286.203 314.175 o
281.123 415 o
247.845 415 o
247.392 373.615 o
254.013 193.63 o
290.541 91.1416 o
268.516 415 o
308.058 415 o
366.337 147.67 o
322.96 166.981 o
322.96 415 o
241.456 415 o
241.456 -1 o
185.523 -1 o
185.523 302.701 o
186.487 415 o
236.26 415 o
238.488 265.224 o
252.871 397.669 o
272.049 95.3743 o
284.851 415 o
285.076 415 o
285.747 160.97 o
285.736 415 o
266.111 415 o
266.113 280.306 o
243.739 211.344 o
351.041 90.5752 o
300.586 217.068 o
grestore
1.000 setlinewidth
0 setlinejoin
2 setlinecap
[] 0 setdash
0.000 setgray
gsave
69.75 45.54 m
69.75 364.32 l
stroke
grestore
gsave
502.2 45.54 m
502.2 364.32 l
stroke
grestore
gsave
69.75 45.54 m
502.2 45.54 l
stroke
grestore
gsave
69.75 364.32 m
502.2 364.32 l
stroke
grestore
/DejaVuSans findfont
18.000 scalefont
setfont
gsave
60.389063 390.476250 translate
0.000000 rotate
0.000000 0.000000 m /C glyphshow
12.568359 0.000000 m /o glyphshow
23.581055 0.000000 m /r glyphshow
30.981445 0.000000 m /r glyphshow
38.381836 0.000000 m /e glyphshow
49.456055 0.000000 m /l glyphshow
54.457031 0.000000 m /a glyphshow
65.487305 0.000000 m /t glyphshow
72.544922 0.000000 m /i glyphshow
77.545898 0.000000 m /o glyphshow
88.558594 0.000000 m /n glyphshow
99.966797 0.000000 m /space glyphshow
105.688477 0.000000 m /b glyphshow
117.114258 0.000000 m /e glyphshow
128.188477 0.000000 m /t glyphshow
135.246094 0.000000 m /w glyphshow
149.967773 0.000000 m /e glyphshow
161.041992 0.000000 m /e glyphshow
172.116211 0.000000 m /n glyphshow
183.524414 0.000000 m /space glyphshow
189.246094 0.000000 m /t glyphshow
196.303711 0.000000 m /o glyphshow
207.316406 0.000000 m /t glyphshow
214.374023 0.000000 m /a glyphshow
225.404297 0.000000 m /l glyphshow
230.405273 0.000000 m /space glyphshow
236.126953 0.000000 m /l glyphshow
241.127930 0.000000 m /e glyphshow
252.202148 0.000000 m /n glyphshow
263.610352 0.000000 m /g glyphshow
275.036133 0.000000 m /t glyphshow
282.093750 0.000000 m /h glyphshow
293.501953 0.000000 m /space glyphshow
299.223633 0.000000 m /o glyphshow
310.236328 0.000000 m /f glyphshow
316.573242 0.000000 m /space glyphshow
322.294922 0.000000 m /s glyphshow
331.672852 0.000000 m /n glyphshow
343.081055 0.000000 m /a glyphshow
354.111328 0.000000 m /k glyphshow
364.535156 0.000000 m /e glyphshow
375.609375 0.000000 m /s glyphshow
384.987305 0.000000 m /space glyphshow
390.708984 0.000000 m /m glyphshow
408.243164 0.000000 m /i glyphshow
413.244141 0.000000 m /n glyphshow
424.652344 0.000000 m /u glyphshow
436.060547 0.000000 m /s glyphshow
445.438477 0.000000 m /space glyphshow
grestore
gsave
84.170313 370.320000 translate
0.000000 rotate
0.000000 0.000000 m /space glyphshow
5.721680 0.000000 m /l glyphshow
10.722656 0.000000 m /a glyphshow
21.752930 0.000000 m /d glyphshow
33.178711 0.000000 m /d glyphshow
44.604492 0.000000 m /e glyphshow
55.678711 0.000000 m /r glyphshow
63.079102 0.000000 m /s glyphshow
72.457031 0.000000 m /space glyphshow
78.178711 0.000000 m /a glyphshow
89.208984 0.000000 m /n glyphshow
100.617188 0.000000 m /d glyphshow
112.042969 0.000000 m /space glyphshow
117.764648 0.000000 m /f glyphshow
124.101562 0.000000 m /i glyphshow
129.102539 0.000000 m /n glyphshow
140.510742 0.000000 m /i glyphshow
145.511719 0.000000 m /s glyphshow
154.889648 0.000000 m /h glyphshow
166.297852 0.000000 m /space glyphshow
172.019531 0.000000 m /t glyphshow
179.077148 0.000000 m /i glyphshow
184.078125 0.000000 m /m glyphshow
201.612305 0.000000 m /e glyphshow
212.686523 0.000000 m /space glyphshow
218.408203 0.000000 m /f glyphshow
224.745117 0.000000 m /r glyphshow
232.145508 0.000000 m /o glyphshow
243.158203 0.000000 m /m glyphshow
260.692383 0.000000 m /space glyphshow
266.414062 0.000000 m /s glyphshow
275.791992 0.000000 m /t glyphshow
282.849609 0.000000 m /a glyphshow
293.879883 0.000000 m /r glyphshow
301.280273 0.000000 m /t glyphshow
308.337891 0.000000 m /i glyphshow
313.338867 0.000000 m /n glyphshow
324.747070 0.000000 m /g glyphshow
336.172852 0.000000 m /space glyphshow
341.894531 0.000000 m /s glyphshow
351.272461 0.000000 m /q glyphshow
362.698242 0.000000 m /u glyphshow
374.106445 0.000000 m /a glyphshow
385.136719 0.000000 m /r glyphshow
392.537109 0.000000 m /e glyphshow
grestore

end
showpage
