%!PS-Adobe-3.0 EPSF-3.0
%%Title: Sample/Figures/ShortestPath.eps
%%Creator: matplotlib version 3.0.2, http://matplotlib.org/
%%CreationDate: Thu Jan  3 21:43:47 2019
%%Orientation: portrait
%%BoundingBox: 24 172 587 619
%%EndComments
%%BeginProlog
/mpldict 8 dict def
mpldict begin
/m { moveto } bind def
/l { lineto } bind def
/r { rlineto } bind def
/c { curveto } bind def
/cl { closepath } bind def
/box {
m
1 index 0 r
0 exch r
neg 0 r
cl
} bind def
/clipbox {
box
clip
newpath
} bind def
%!PS-Adobe-3.0 Resource-Font
%%Title: DejaVu Sans
%%Copyright: Copyright (c) 2003 by Bitstream, Inc. All Rights Reserved. Copyright (c) 2006 by Tavmjong Bah. All Rights Reserved. DejaVu changes are in public domain 
%%Creator: Converted from TrueType to type 3 by PPR
25 dict begin
/_d{bind def}bind def
/_m{moveto}_d
/_l{lineto}_d
/_cl{closepath eofill}_d
/_c{curveto}_d
/_sc{7 -1 roll{setcachedevice}{pop pop pop pop pop pop}ifelse}_d
/_e{exec}_d
/FontName /DejaVuSans def
/PaintType 0 def
/FontMatrix[.001 0 0 .001 0 0]def
/FontBBox[-1021 -463 1793 1232]def
/FontType 3 def
/Encoding [ /zero /one /two /three /four /five /six /seven /eight /nine ] def
/FontInfo 10 dict dup begin
/FamilyName (DejaVu Sans) def
/FullName (DejaVu Sans) def
/Notice (Copyright (c) 2003 by Bitstream, Inc. All Rights Reserved. Copyright (c) 2006 by Tavmjong Bah. All Rights Reserved. DejaVu changes are in public domain ) def
/Weight (Book) def
/Version (Version 2.35) def
/ItalicAngle 0.0 def
/isFixedPitch false def
/UnderlinePosition -130 def
/UnderlineThickness 90 def
end readonly def
/CharStrings 11 dict dup begin
/.notdef 0 def
/zero{636 0 66 -13 570 742 _sc
318 664 _m
267 664 229 639 203 589 _c
177 539 165 464 165 364 _c
165 264 177 189 203 139 _c
229 89 267 64 318 64 _c
369 64 407 89 433 139 _c
458 189 471 264 471 364 _c
471 464 458 539 433 589 _c
407 639 369 664 318 664 _c
318 742 _m
399 742 461 709 505 645 _c
548 580 570 486 570 364 _c
570 241 548 147 505 83 _c
461 19 399 -13 318 -13 _c
236 -13 173 19 130 83 _c
87 147 66 241 66 364 _c
66 486 87 580 130 645 _c
173 709 236 742 318 742 _c
_cl}_d
/one{636 0 110 0 544 729 _sc
124 83 _m
285 83 _l
285 639 _l
110 604 _l
110 694 _l
284 729 _l
383 729 _l
383 83 _l
544 83 _l
544 0 _l
124 0 _l
124 83 _l
_cl}_d
/two{{636 0 73 0 536 742 _sc
192 83 _m
536 83 _l
536 0 _l
73 0 _l
73 83 _l
110 121 161 173 226 239 _c
290 304 331 346 348 365 _c
380 400 402 430 414 455 _c
426 479 433 504 433 528 _c
433 566 419 598 392 622 _c
365 646 330 659 286 659 _c
255 659 222 653 188 643 _c
154 632 117 616 78 594 _c
78 694 _l
118 710 155 722 189 730 _c
223 738 255 742 284 742 _c
}_e{359 742 419 723 464 685 _c
509 647 532 597 532 534 _c
532 504 526 475 515 449 _c
504 422 484 390 454 354 _c
446 344 420 317 376 272 _c
332 227 271 164 192 83 _c
_cl}_e}_d
/three{{636 0 76 -13 556 742 _sc
406 393 _m
453 383 490 362 516 330 _c
542 298 556 258 556 212 _c
556 140 531 84 482 45 _c
432 6 362 -13 271 -13 _c
240 -13 208 -10 176 -4 _c
144 1 110 10 76 22 _c
76 117 _l
103 101 133 89 166 81 _c
198 73 232 69 268 69 _c
330 69 377 81 409 105 _c
441 129 458 165 458 212 _c
458 254 443 288 413 312 _c
383 336 341 349 287 349 _c
}_e{202 349 _l
202 430 _l
291 430 _l
339 430 376 439 402 459 _c
428 478 441 506 441 543 _c
441 580 427 609 401 629 _c
374 649 336 659 287 659 _c
260 659 231 656 200 650 _c
169 644 135 635 98 623 _c
98 711 _l
135 721 170 729 203 734 _c
235 739 266 742 296 742 _c
370 742 429 725 473 691 _c
517 657 539 611 539 553 _c
539 513 527 479 504 451 _c
481 423 448 403 406 393 _c
_cl}_e}_d
/four{636 0 49 0 580 729 _sc
378 643 _m
129 254 _l
378 254 _l
378 643 _l
352 729 _m
476 729 _l
476 254 _l
580 254 _l
580 172 _l
476 172 _l
476 0 _l
378 0 _l
378 172 _l
49 172 _l
49 267 _l
352 729 _l
_cl}_d
/five{{636 0 77 -13 549 729 _sc
108 729 _m
495 729 _l
495 646 _l
198 646 _l
198 467 _l
212 472 227 476 241 478 _c
255 480 270 482 284 482 _c
365 482 429 459 477 415 _c
525 370 549 310 549 234 _c
549 155 524 94 475 51 _c
426 8 357 -13 269 -13 _c
238 -13 207 -10 175 -6 _c
143 -1 111 6 77 17 _c
77 116 _l
106 100 136 88 168 80 _c
199 72 232 69 267 69 _c
}_e{323 69 368 83 401 113 _c
433 143 450 183 450 234 _c
450 284 433 324 401 354 _c
368 384 323 399 267 399 _c
241 399 214 396 188 390 _c
162 384 135 375 108 363 _c
108 729 _l
_cl}_e}_d
/six{{636 0 70 -13 573 742 _sc
330 404 _m
286 404 251 388 225 358 _c
199 328 186 286 186 234 _c
186 181 199 139 225 109 _c
251 79 286 64 330 64 _c
374 64 409 79 435 109 _c
461 139 474 181 474 234 _c
474 286 461 328 435 358 _c
409 388 374 404 330 404 _c
526 713 _m
526 623 _l
501 635 476 644 451 650 _c
425 656 400 659 376 659 _c
310 659 260 637 226 593 _c
}_e{192 549 172 482 168 394 _c
187 422 211 444 240 459 _c
269 474 301 482 336 482 _c
409 482 467 459 509 415 _c
551 371 573 310 573 234 _c
573 159 550 99 506 54 _c
462 9 403 -13 330 -13 _c
246 -13 181 19 137 83 _c
92 147 70 241 70 364 _c
70 479 97 571 152 639 _c
206 707 280 742 372 742 _c
396 742 421 739 447 735 _c
472 730 498 723 526 713 _c
_cl}_e}_d
/seven{636 0 82 0 551 729 _sc
82 729 _m
551 729 _l
551 687 _l
286 0 _l
183 0 _l
432 646 _l
82 646 _l
82 729 _l
_cl}_d
/eight{{636 0 68 -13 568 742 _sc
318 346 _m
271 346 234 333 207 308 _c
180 283 167 249 167 205 _c
167 161 180 126 207 101 _c
234 76 271 64 318 64 _c
364 64 401 76 428 102 _c
455 127 469 161 469 205 _c
469 249 455 283 429 308 _c
402 333 365 346 318 346 _c
219 388 _m
177 398 144 418 120 447 _c
96 476 85 511 85 553 _c
85 611 105 657 147 691 _c
188 725 245 742 318 742 _c
}_e{390 742 447 725 489 691 _c
530 657 551 611 551 553 _c
551 511 539 476 515 447 _c
491 418 459 398 417 388 _c
464 377 501 355 528 323 _c
554 291 568 251 568 205 _c
568 134 546 80 503 43 _c
459 5 398 -13 318 -13 _c
237 -13 175 5 132 43 _c
89 80 68 134 68 205 _c
68 251 81 291 108 323 _c
134 355 171 377 219 388 _c
183 544 _m
183 506 194 476 218 455 _c
}_e{242 434 275 424 318 424 _c
360 424 393 434 417 455 _c
441 476 453 506 453 544 _c
453 582 441 611 417 632 _c
393 653 360 664 318 664 _c
275 664 242 653 218 632 _c
194 611 183 582 183 544 _c
_cl}_e}_d
/nine{{636 0 63 -13 566 742 _sc
110 15 _m
110 105 _l
134 93 159 84 185 78 _c
210 72 235 69 260 69 _c
324 69 374 90 408 134 _c
442 178 462 244 468 334 _c
448 306 424 284 396 269 _c
367 254 335 247 300 247 _c
226 247 168 269 126 313 _c
84 357 63 417 63 494 _c
63 568 85 628 129 674 _c
173 719 232 742 306 742 _c
390 742 455 709 499 645 _c
543 580 566 486 566 364 _c
}_e{566 248 538 157 484 89 _c
429 21 356 -13 264 -13 _c
239 -13 214 -10 189 -6 _c
163 -2 137 5 110 15 _c
306 324 _m
350 324 385 339 411 369 _c
437 399 450 441 450 494 _c
450 546 437 588 411 618 _c
385 648 350 664 306 664 _c
262 664 227 648 201 618 _c
175 588 162 546 162 494 _c
162 441 175 399 201 369 _c
227 339 262 324 306 324 _c
_cl}_e}_d
end readonly def

/BuildGlyph
 {exch begin
 CharStrings exch
 2 copy known not{pop /.notdef}if
 true 3 1 roll get exec
 end}_d

/BuildChar {
 1 index /Encoding get exch get
 1 index /BuildGlyph get exec
}_d

FontName currentdict end definefont pop
end
%%EndProlog
mpldict begin
24.12 172.44 translate
563.76 447.12 0 0 clipbox
gsave
0 0 m
563.76 0 l
563.76 447.12 l
0 447.12 l
cl
1.000 setgray
fill
grestore
gsave
70.47 49.1832 m
507.384 49.1832 l
507.384 393.4656 l
70.47 393.4656 l
cl
1.000 setgray
fill
grestore
gsave
436.9 344.3 70.47 49.18 clipbox
70.47 49.1832 m
114.1614 49.1832 l
114.1614 83.61144 l
70.47 83.61144 l
70.47 49.1832 l
0.011 0.018 0.100 setrgbcolor
fill
grestore
gsave
436.9 344.3 70.47 49.18 clipbox
114.1614 49.1832 m
157.8528 49.1832 l
157.8528 83.61144 l
114.1614 83.61144 l
114.1614 49.1832 l
0.011 0.018 0.100 setrgbcolor
fill
grestore
gsave
436.9 344.3 70.47 49.18 clipbox
157.8528 49.1832 m
201.5442 49.1832 l
201.5442 83.61144 l
157.8528 83.61144 l
157.8528 49.1832 l
0.981 0.921 0.865 setrgbcolor
fill
grestore
gsave
436.9 344.3 70.47 49.18 clipbox
201.5442 49.1832 m
245.2356 49.1832 l
245.2356 83.61144 l
201.5442 83.61144 l
201.5442 49.1832 l
0.981 0.921 0.865 setrgbcolor
fill
grestore
gsave
436.9 344.3 70.47 49.18 clipbox
245.2356 49.1832 m
288.927 49.1832 l
288.927 83.61144 l
245.2356 83.61144 l
245.2356 49.1832 l
0.981 0.921 0.865 setrgbcolor
fill
grestore
gsave
436.9 344.3 70.47 49.18 clipbox
288.927 49.1832 m
332.6184 49.1832 l
332.6184 83.61144 l
288.927 83.61144 l
288.927 49.1832 l
0.011 0.018 0.100 setrgbcolor
fill
grestore
gsave
436.9 344.3 70.47 49.18 clipbox
332.6184 49.1832 m
376.3098 49.1832 l
376.3098 83.61144 l
332.6184 83.61144 l
332.6184 49.1832 l
0.981 0.921 0.865 setrgbcolor
fill
grestore
gsave
436.9 344.3 70.47 49.18 clipbox
376.3098 49.1832 m
420.0012 49.1832 l
420.0012 83.61144 l
376.3098 83.61144 l
376.3098 49.1832 l
0.981 0.921 0.865 setrgbcolor
fill
grestore
gsave
436.9 344.3 70.47 49.18 clipbox
420.0012 49.1832 m
463.6926 49.1832 l
463.6926 83.61144 l
420.0012 83.61144 l
420.0012 49.1832 l
0.981 0.921 0.865 setrgbcolor
fill
grestore
gsave
436.9 344.3 70.47 49.18 clipbox
463.6926 49.1832 m
507.384 49.1832 l
507.384 83.61144 l
463.6926 83.61144 l
463.6926 49.1832 l
0.963 0.613 0.451 setrgbcolor
fill
grestore
gsave
436.9 344.3 70.47 49.18 clipbox
70.47 83.61144 m
114.1614 83.61144 l
114.1614 118.03968 l
70.47 118.03968 l
70.47 83.61144 l
0.981 0.921 0.865 setrgbcolor
fill
grestore
gsave
436.9 344.3 70.47 49.18 clipbox
114.1614 83.61144 m
157.8528 83.61144 l
157.8528 118.03968 l
114.1614 118.03968 l
114.1614 83.61144 l
0.981 0.921 0.865 setrgbcolor
fill
grestore
gsave
436.9 344.3 70.47 49.18 clipbox
157.8528 83.61144 m
201.5442 83.61144 l
201.5442 118.03968 l
157.8528 118.03968 l
157.8528 83.61144 l
0.981 0.921 0.865 setrgbcolor
fill
grestore
gsave
436.9 344.3 70.47 49.18 clipbox
201.5442 83.61144 m
245.2356 83.61144 l
245.2356 118.03968 l
201.5442 118.03968 l
201.5442 83.61144 l
0.981 0.921 0.865 setrgbcolor
fill
grestore
gsave
436.9 344.3 70.47 49.18 clipbox
245.2356 83.61144 m
288.927 83.61144 l
288.927 118.03968 l
245.2356 118.03968 l
245.2356 83.61144 l
0.981 0.921 0.865 setrgbcolor
fill
grestore
gsave
436.9 344.3 70.47 49.18 clipbox
288.927 83.61144 m
332.6184 83.61144 l
332.6184 118.03968 l
288.927 118.03968 l
288.927 83.61144 l
0.981 0.921 0.865 setrgbcolor
fill
grestore
gsave
436.9 344.3 70.47 49.18 clipbox
332.6184 83.61144 m
376.3098 83.61144 l
376.3098 118.03968 l
332.6184 118.03968 l
332.6184 83.61144 l
0.981 0.921 0.865 setrgbcolor
fill
grestore
gsave
436.9 344.3 70.47 49.18 clipbox
376.3098 83.61144 m
420.0012 83.61144 l
420.0012 118.03968 l
376.3098 118.03968 l
376.3098 83.61144 l
0.981 0.921 0.865 setrgbcolor
fill
grestore
gsave
436.9 344.3 70.47 49.18 clipbox
420.0012 83.61144 m
463.6926 83.61144 l
463.6926 118.03968 l
420.0012 118.03968 l
420.0012 83.61144 l
0.981 0.921 0.865 setrgbcolor
fill
grestore
gsave
436.9 344.3 70.47 49.18 clipbox
463.6926 83.61144 m
507.384 83.61144 l
507.384 118.03968 l
463.6926 118.03968 l
463.6926 83.61144 l
0.981 0.921 0.865 setrgbcolor
fill
grestore
gsave
436.9 344.3 70.47 49.18 clipbox
70.47 118.03968 m
114.1614 118.03968 l
114.1614 152.46792 l
70.47 152.46792 l
70.47 118.03968 l
0.981 0.921 0.865 setrgbcolor
fill
grestore
gsave
436.9 344.3 70.47 49.18 clipbox
114.1614 118.03968 m
157.8528 118.03968 l
157.8528 152.46792 l
114.1614 152.46792 l
114.1614 118.03968 l
0.011 0.018 0.100 setrgbcolor
fill
grestore
gsave
436.9 344.3 70.47 49.18 clipbox
157.8528 118.03968 m
201.5442 118.03968 l
201.5442 152.46792 l
157.8528 152.46792 l
157.8528 118.03968 l
0.981 0.921 0.865 setrgbcolor
fill
grestore
gsave
436.9 344.3 70.47 49.18 clipbox
201.5442 118.03968 m
245.2356 118.03968 l
245.2356 152.46792 l
201.5442 152.46792 l
201.5442 118.03968 l
0.981 0.921 0.865 setrgbcolor
fill
grestore
gsave
436.9 344.3 70.47 49.18 clipbox
245.2356 118.03968 m
288.927 118.03968 l
288.927 152.46792 l
245.2356 152.46792 l
245.2356 118.03968 l
0.963 0.613 0.451 setrgbcolor
fill
grestore
gsave
436.9 344.3 70.47 49.18 clipbox
288.927 118.03968 m
332.6184 118.03968 l
332.6184 152.46792 l
288.927 152.46792 l
288.927 118.03968 l
0.981 0.921 0.865 setrgbcolor
fill
grestore
gsave
436.9 344.3 70.47 49.18 clipbox
332.6184 118.03968 m
376.3098 118.03968 l
376.3098 152.46792 l
332.6184 152.46792 l
332.6184 118.03968 l
0.981 0.921 0.865 setrgbcolor
fill
grestore
gsave
436.9 344.3 70.47 49.18 clipbox
376.3098 118.03968 m
420.0012 118.03968 l
420.0012 152.46792 l
376.3098 152.46792 l
376.3098 118.03968 l
0.981 0.921 0.865 setrgbcolor
fill
grestore
gsave
436.9 344.3 70.47 49.18 clipbox
420.0012 118.03968 m
463.6926 118.03968 l
463.6926 152.46792 l
420.0012 152.46792 l
420.0012 118.03968 l
0.981 0.921 0.865 setrgbcolor
fill
grestore
gsave
436.9 344.3 70.47 49.18 clipbox
463.6926 118.03968 m
507.384 118.03968 l
507.384 152.46792 l
463.6926 152.46792 l
463.6926 118.03968 l
0.981 0.921 0.865 setrgbcolor
fill
grestore
gsave
436.9 344.3 70.47 49.18 clipbox
70.47 152.46792 m
114.1614 152.46792 l
114.1614 186.89616 l
70.47 186.89616 l
70.47 152.46792 l
0.981 0.921 0.865 setrgbcolor
fill
grestore
gsave
436.9 344.3 70.47 49.18 clipbox
114.1614 152.46792 m
157.8528 152.46792 l
157.8528 186.89616 l
114.1614 186.89616 l
114.1614 152.46792 l
0.981 0.921 0.865 setrgbcolor
fill
grestore
gsave
436.9 344.3 70.47 49.18 clipbox
157.8528 152.46792 m
201.5442 152.46792 l
201.5442 186.89616 l
157.8528 186.89616 l
157.8528 152.46792 l
0.981 0.921 0.865 setrgbcolor
fill
grestore
gsave
436.9 344.3 70.47 49.18 clipbox
201.5442 152.46792 m
245.2356 152.46792 l
245.2356 186.89616 l
201.5442 186.89616 l
201.5442 152.46792 l
0.981 0.921 0.865 setrgbcolor
fill
grestore
gsave
436.9 344.3 70.47 49.18 clipbox
245.2356 152.46792 m
288.927 152.46792 l
288.927 186.89616 l
245.2356 186.89616 l
245.2356 152.46792 l
0.981 0.921 0.865 setrgbcolor
fill
grestore
gsave
436.9 344.3 70.47 49.18 clipbox
288.927 152.46792 m
332.6184 152.46792 l
332.6184 186.89616 l
288.927 186.89616 l
288.927 152.46792 l
0.981 0.921 0.865 setrgbcolor
fill
grestore
gsave
436.9 344.3 70.47 49.18 clipbox
332.6184 152.46792 m
376.3098 152.46792 l
376.3098 186.89616 l
332.6184 186.89616 l
332.6184 152.46792 l
0.981 0.921 0.865 setrgbcolor
fill
grestore
gsave
436.9 344.3 70.47 49.18 clipbox
376.3098 152.46792 m
420.0012 152.46792 l
420.0012 186.89616 l
376.3098 186.89616 l
376.3098 152.46792 l
0.981 0.921 0.865 setrgbcolor
fill
grestore
gsave
436.9 344.3 70.47 49.18 clipbox
420.0012 152.46792 m
463.6926 152.46792 l
463.6926 186.89616 l
420.0012 186.89616 l
420.0012 152.46792 l
0.981 0.921 0.865 setrgbcolor
fill
grestore
gsave
436.9 344.3 70.47 49.18 clipbox
463.6926 152.46792 m
507.384 152.46792 l
507.384 186.89616 l
463.6926 186.89616 l
463.6926 152.46792 l
0.981 0.921 0.865 setrgbcolor
fill
grestore
gsave
436.9 344.3 70.47 49.18 clipbox
70.47 186.89616 m
114.1614 186.89616 l
114.1614 221.3244 l
70.47 221.3244 l
70.47 186.89616 l
0.981 0.921 0.865 setrgbcolor
fill
grestore
gsave
436.9 344.3 70.47 49.18 clipbox
114.1614 186.89616 m
157.8528 186.89616 l
157.8528 221.3244 l
114.1614 221.3244 l
114.1614 186.89616 l
0.981 0.921 0.865 setrgbcolor
fill
grestore
gsave
436.9 344.3 70.47 49.18 clipbox
157.8528 186.89616 m
201.5442 186.89616 l
201.5442 221.3244 l
157.8528 221.3244 l
157.8528 186.89616 l
0.981 0.921 0.865 setrgbcolor
fill
grestore
gsave
436.9 344.3 70.47 49.18 clipbox
201.5442 186.89616 m
245.2356 186.89616 l
245.2356 221.3244 l
201.5442 221.3244 l
201.5442 186.89616 l
0.981 0.921 0.865 setrgbcolor
fill
grestore
gsave
436.9 344.3 70.47 49.18 clipbox
245.2356 186.89616 m
288.927 186.89616 l
288.927 221.3244 l
245.2356 221.3244 l
245.2356 186.89616 l
0.981 0.921 0.865 setrgbcolor
fill
grestore
gsave
436.9 344.3 70.47 49.18 clipbox
288.927 186.89616 m
332.6184 186.89616 l
332.6184 221.3244 l
288.927 221.3244 l
288.927 186.89616 l
0.981 0.921 0.865 setrgbcolor
fill
grestore
gsave
436.9 344.3 70.47 49.18 clipbox
332.6184 186.89616 m
376.3098 186.89616 l
376.3098 221.3244 l
332.6184 221.3244 l
332.6184 186.89616 l
0.981 0.921 0.865 setrgbcolor
fill
grestore
gsave
436.9 344.3 70.47 49.18 clipbox
376.3098 186.89616 m
420.0012 186.89616 l
420.0012 221.3244 l
376.3098 221.3244 l
376.3098 186.89616 l
0.981 0.921 0.865 setrgbcolor
fill
grestore
gsave
436.9 344.3 70.47 49.18 clipbox
420.0012 186.89616 m
463.6926 186.89616 l
463.6926 221.3244 l
420.0012 221.3244 l
420.0012 186.89616 l
0.981 0.921 0.865 setrgbcolor
fill
grestore
gsave
436.9 344.3 70.47 49.18 clipbox
463.6926 186.89616 m
507.384 186.89616 l
507.384 221.3244 l
463.6926 221.3244 l
463.6926 186.89616 l
0.981 0.921 0.865 setrgbcolor
fill
grestore
gsave
436.9 344.3 70.47 49.18 clipbox
70.47 221.3244 m
114.1614 221.3244 l
114.1614 255.75264 l
70.47 255.75264 l
70.47 221.3244 l
0.981 0.921 0.865 setrgbcolor
fill
grestore
gsave
436.9 344.3 70.47 49.18 clipbox
114.1614 221.3244 m
157.8528 221.3244 l
157.8528 255.75264 l
114.1614 255.75264 l
114.1614 221.3244 l
0.981 0.921 0.865 setrgbcolor
fill
grestore
gsave
436.9 344.3 70.47 49.18 clipbox
157.8528 221.3244 m
201.5442 221.3244 l
201.5442 255.75264 l
157.8528 255.75264 l
157.8528 221.3244 l
0.981 0.921 0.865 setrgbcolor
fill
grestore
gsave
436.9 344.3 70.47 49.18 clipbox
201.5442 221.3244 m
245.2356 221.3244 l
245.2356 255.75264 l
201.5442 255.75264 l
201.5442 221.3244 l
0.981 0.921 0.865 setrgbcolor
fill
grestore
gsave
436.9 344.3 70.47 49.18 clipbox
245.2356 221.3244 m
288.927 221.3244 l
288.927 255.75264 l
245.2356 255.75264 l
245.2356 221.3244 l
0.981 0.921 0.865 setrgbcolor
fill
grestore
gsave
436.9 344.3 70.47 49.18 clipbox
288.927 221.3244 m
332.6184 221.3244 l
332.6184 255.75264 l
288.927 255.75264 l
288.927 221.3244 l
0.981 0.921 0.865 setrgbcolor
fill
grestore
gsave
436.9 344.3 70.47 49.18 clipbox
332.6184 221.3244 m
376.3098 221.3244 l
376.3098 255.75264 l
332.6184 255.75264 l
332.6184 221.3244 l
0.981 0.921 0.865 setrgbcolor
fill
grestore
gsave
436.9 344.3 70.47 49.18 clipbox
376.3098 221.3244 m
420.0012 221.3244 l
420.0012 255.75264 l
376.3098 255.75264 l
376.3098 221.3244 l
0.981 0.921 0.865 setrgbcolor
fill
grestore
gsave
436.9 344.3 70.47 49.18 clipbox
420.0012 221.3244 m
463.6926 221.3244 l
463.6926 255.75264 l
420.0012 255.75264 l
420.0012 221.3244 l
0.981 0.921 0.865 setrgbcolor
fill
grestore
gsave
436.9 344.3 70.47 49.18 clipbox
463.6926 221.3244 m
507.384 221.3244 l
507.384 255.75264 l
463.6926 255.75264 l
463.6926 221.3244 l
0.981 0.921 0.865 setrgbcolor
fill
grestore
gsave
436.9 344.3 70.47 49.18 clipbox
70.47 255.75264 m
114.1614 255.75264 l
114.1614 290.18088 l
70.47 290.18088 l
70.47 255.75264 l
0.981 0.921 0.865 setrgbcolor
fill
grestore
gsave
436.9 344.3 70.47 49.18 clipbox
114.1614 255.75264 m
157.8528 255.75264 l
157.8528 290.18088 l
114.1614 290.18088 l
114.1614 255.75264 l
0.981 0.921 0.865 setrgbcolor
fill
grestore
gsave
436.9 344.3 70.47 49.18 clipbox
157.8528 255.75264 m
201.5442 255.75264 l
201.5442 290.18088 l
157.8528 290.18088 l
157.8528 255.75264 l
0.981 0.921 0.865 setrgbcolor
fill
grestore
gsave
436.9 344.3 70.47 49.18 clipbox
201.5442 255.75264 m
245.2356 255.75264 l
245.2356 290.18088 l
201.5442 290.18088 l
201.5442 255.75264 l
0.011 0.018 0.100 setrgbcolor
fill
grestore
gsave
436.9 344.3 70.47 49.18 clipbox
245.2356 255.75264 m
288.927 255.75264 l
288.927 290.18088 l
245.2356 290.18088 l
245.2356 255.75264 l
0.963 0.613 0.451 setrgbcolor
fill
grestore
gsave
436.9 344.3 70.47 49.18 clipbox
288.927 255.75264 m
332.6184 255.75264 l
332.6184 290.18088 l
288.927 290.18088 l
288.927 255.75264 l
0.981 0.921 0.865 setrgbcolor
fill
grestore
gsave
436.9 344.3 70.47 49.18 clipbox
332.6184 255.75264 m
376.3098 255.75264 l
376.3098 290.18088 l
332.6184 290.18088 l
332.6184 255.75264 l
0.981 0.921 0.865 setrgbcolor
fill
grestore
gsave
436.9 344.3 70.47 49.18 clipbox
376.3098 255.75264 m
420.0012 255.75264 l
420.0012 290.18088 l
376.3098 290.18088 l
376.3098 255.75264 l
0.981 0.921 0.865 setrgbcolor
fill
grestore
gsave
436.9 344.3 70.47 49.18 clipbox
420.0012 255.75264 m
463.6926 255.75264 l
463.6926 290.18088 l
420.0012 290.18088 l
420.0012 255.75264 l
0.981 0.921 0.865 setrgbcolor
fill
grestore
gsave
436.9 344.3 70.47 49.18 clipbox
463.6926 255.75264 m
507.384 255.75264 l
507.384 290.18088 l
463.6926 290.18088 l
463.6926 255.75264 l
0.981 0.921 0.865 setrgbcolor
fill
grestore
gsave
436.9 344.3 70.47 49.18 clipbox
70.47 290.18088 m
114.1614 290.18088 l
114.1614 324.60912 l
70.47 324.60912 l
70.47 290.18088 l
0.981 0.921 0.865 setrgbcolor
fill
grestore
gsave
436.9 344.3 70.47 49.18 clipbox
114.1614 290.18088 m
157.8528 290.18088 l
157.8528 324.60912 l
114.1614 324.60912 l
114.1614 290.18088 l
0.981 0.921 0.865 setrgbcolor
fill
grestore
gsave
436.9 344.3 70.47 49.18 clipbox
157.8528 290.18088 m
201.5442 290.18088 l
201.5442 324.60912 l
157.8528 324.60912 l
157.8528 290.18088 l
0.981 0.921 0.865 setrgbcolor
fill
grestore
gsave
436.9 344.3 70.47 49.18 clipbox
201.5442 290.18088 m
245.2356 290.18088 l
245.2356 324.60912 l
201.5442 324.60912 l
201.5442 290.18088 l
0.981 0.921 0.865 setrgbcolor
fill
grestore
gsave
436.9 344.3 70.47 49.18 clipbox
245.2356 290.18088 m
288.927 290.18088 l
288.927 324.60912 l
245.2356 324.60912 l
245.2356 290.18088 l
0.981 0.921 0.865 setrgbcolor
fill
grestore
gsave
436.9 344.3 70.47 49.18 clipbox
288.927 290.18088 m
332.6184 290.18088 l
332.6184 324.60912 l
288.927 324.60912 l
288.927 290.18088 l
0.981 0.921 0.865 setrgbcolor
fill
grestore
gsave
436.9 344.3 70.47 49.18 clipbox
332.6184 290.18088 m
376.3098 290.18088 l
376.3098 324.60912 l
332.6184 324.60912 l
332.6184 290.18088 l
0.981 0.921 0.865 setrgbcolor
fill
grestore
gsave
436.9 344.3 70.47 49.18 clipbox
376.3098 290.18088 m
420.0012 290.18088 l
420.0012 324.60912 l
376.3098 324.60912 l
376.3098 290.18088 l
0.981 0.921 0.865 setrgbcolor
fill
grestore
gsave
436.9 344.3 70.47 49.18 clipbox
420.0012 290.18088 m
463.6926 290.18088 l
463.6926 324.60912 l
420.0012 324.60912 l
420.0012 290.18088 l
0.981 0.921 0.865 setrgbcolor
fill
grestore
gsave
436.9 344.3 70.47 49.18 clipbox
463.6926 290.18088 m
507.384 290.18088 l
507.384 324.60912 l
463.6926 324.60912 l
463.6926 290.18088 l
0.963 0.613 0.451 setrgbcolor
fill
grestore
gsave
436.9 344.3 70.47 49.18 clipbox
70.47 324.60912 m
114.1614 324.60912 l
114.1614 359.03736 l
70.47 359.03736 l
70.47 324.60912 l
0.981 0.921 0.865 setrgbcolor
fill
grestore
gsave
436.9 344.3 70.47 49.18 clipbox
114.1614 324.60912 m
157.8528 324.60912 l
157.8528 359.03736 l
114.1614 359.03736 l
114.1614 324.60912 l
0.981 0.921 0.865 setrgbcolor
fill
grestore
gsave
436.9 344.3 70.47 49.18 clipbox
157.8528 324.60912 m
201.5442 324.60912 l
201.5442 359.03736 l
157.8528 359.03736 l
157.8528 324.60912 l
0.981 0.921 0.865 setrgbcolor
fill
grestore
gsave
436.9 344.3 70.47 49.18 clipbox
201.5442 324.60912 m
245.2356 324.60912 l
245.2356 359.03736 l
201.5442 359.03736 l
201.5442 324.60912 l
0.981 0.921 0.865 setrgbcolor
fill
grestore
gsave
436.9 344.3 70.47 49.18 clipbox
245.2356 324.60912 m
288.927 324.60912 l
288.927 359.03736 l
245.2356 359.03736 l
245.2356 324.60912 l
0.981 0.921 0.865 setrgbcolor
fill
grestore
gsave
436.9 344.3 70.47 49.18 clipbox
288.927 324.60912 m
332.6184 324.60912 l
332.6184 359.03736 l
288.927 359.03736 l
288.927 324.60912 l
0.981 0.921 0.865 setrgbcolor
fill
grestore
gsave
436.9 344.3 70.47 49.18 clipbox
332.6184 324.60912 m
376.3098 324.60912 l
376.3098 359.03736 l
332.6184 359.03736 l
332.6184 324.60912 l
0.981 0.921 0.865 setrgbcolor
fill
grestore
gsave
436.9 344.3 70.47 49.18 clipbox
376.3098 324.60912 m
420.0012 324.60912 l
420.0012 359.03736 l
376.3098 359.03736 l
376.3098 324.60912 l
0.981 0.921 0.865 setrgbcolor
fill
grestore
gsave
436.9 344.3 70.47 49.18 clipbox
420.0012 324.60912 m
463.6926 324.60912 l
463.6926 359.03736 l
420.0012 359.03736 l
420.0012 324.60912 l
0.981 0.921 0.865 setrgbcolor
fill
grestore
gsave
436.9 344.3 70.47 49.18 clipbox
463.6926 324.60912 m
507.384 324.60912 l
507.384 359.03736 l
463.6926 359.03736 l
463.6926 324.60912 l
0.981 0.921 0.865 setrgbcolor
fill
grestore
gsave
436.9 344.3 70.47 49.18 clipbox
70.47 359.03736 m
114.1614 359.03736 l
114.1614 393.4656 l
70.47 393.4656 l
70.47 359.03736 l
0.011 0.018 0.100 setrgbcolor
fill
grestore
gsave
436.9 344.3 70.47 49.18 clipbox
114.1614 359.03736 m
157.8528 359.03736 l
157.8528 393.4656 l
114.1614 393.4656 l
114.1614 359.03736 l
0.981 0.921 0.865 setrgbcolor
fill
grestore
gsave
436.9 344.3 70.47 49.18 clipbox
157.8528 359.03736 m
201.5442 359.03736 l
201.5442 393.4656 l
157.8528 393.4656 l
157.8528 359.03736 l
0.981 0.921 0.865 setrgbcolor
fill
grestore
gsave
436.9 344.3 70.47 49.18 clipbox
201.5442 359.03736 m
245.2356 359.03736 l
245.2356 393.4656 l
201.5442 393.4656 l
201.5442 359.03736 l
0.011 0.018 0.100 setrgbcolor
fill
grestore
gsave
436.9 344.3 70.47 49.18 clipbox
245.2356 359.03736 m
288.927 359.03736 l
288.927 393.4656 l
245.2356 393.4656 l
245.2356 359.03736 l
0.981 0.921 0.865 setrgbcolor
fill
grestore
gsave
436.9 344.3 70.47 49.18 clipbox
288.927 359.03736 m
332.6184 359.03736 l
332.6184 393.4656 l
288.927 393.4656 l
288.927 359.03736 l
0.981 0.921 0.865 setrgbcolor
fill
grestore
gsave
436.9 344.3 70.47 49.18 clipbox
332.6184 359.03736 m
376.3098 359.03736 l
376.3098 393.4656 l
332.6184 393.4656 l
332.6184 359.03736 l
0.981 0.921 0.865 setrgbcolor
fill
grestore
gsave
436.9 344.3 70.47 49.18 clipbox
376.3098 359.03736 m
420.0012 359.03736 l
420.0012 393.4656 l
376.3098 393.4656 l
376.3098 359.03736 l
0.981 0.921 0.865 setrgbcolor
fill
grestore
gsave
436.9 344.3 70.47 49.18 clipbox
420.0012 359.03736 m
463.6926 359.03736 l
463.6926 393.4656 l
420.0012 393.4656 l
420.0012 359.03736 l
0.981 0.921 0.865 setrgbcolor
fill
grestore
gsave
436.9 344.3 70.47 49.18 clipbox
463.6926 359.03736 m
507.384 359.03736 l
507.384 393.4656 l
463.6926 393.4656 l
463.6926 359.03736 l
0.981 0.921 0.865 setrgbcolor
fill
grestore
1.000 setlinewidth
0 setlinejoin
0 setlinecap
[] 0 setdash
1.000 0.000 0.000 setrgbcolor
gsave
436.9 344.3 70.47 49.18 clipbox
136.0071 100.82556 m
154.703517 107.871551 l
155.245442 104.455313 l
485.267337 136.961919 l
485.809263 133.545681 l
155.787367 101.039075 l
156.329292 97.622837 l
cl
gsave
fill
grestore
stroke
grestore
gsave
436.9 344.3 70.47 49.18 clipbox
485.5383 272.96676 m
469.179251 282.99287 l
472.814595 284.902605 l
396.337828 375.296612 l
399.973172 377.206348 l
476.449939 286.81234 l
480.085284 288.722075 l
cl
gsave
fill
grestore
stroke
grestore
gsave
436.9 344.3 70.47 49.18 clipbox
136.0071 135.2538 m
142.56081 150.746508 l
146.056122 148.680814 l
265.333644 273.999607 l
268.828956 271.933913 l
149.551434 146.615119 l
153.046746 144.549425 l
cl
gsave
fill
grestore
stroke
grestore
gsave
436.9 344.3 70.47 49.18 clipbox
223.3899 272.96676 m
241.706096 280.607717 l
242.424378 277.211736 l
485.179159 309.09299 l
485.897441 305.69701 l
243.14266 273.815755 l
243.860942 270.419774 l
cl
gsave
fill
grestore
stroke
grestore
gsave
436.9 344.3 70.47 49.18 clipbox
92.3157 135.2538 m
106.970241 146.801383 l
108.92418 143.722027 l
266.104331 205.649958 l
268.058269 202.570602 l
110.878119 140.642672 l
112.832057 137.563317 l
cl
gsave
fill
grestore
stroke
grestore
gsave
436.9 344.3 70.47 49.18 clipbox
267.0813 204.11028 m
270.012208 220.276896 l
273.920086 218.737218 l
352.510161 342.593079 l
356.418039 341.053401 l
277.827963 217.19754 l
281.735841 215.657863 l
cl
gsave
fill
grestore
stroke
grestore
gsave
436.9 344.3 70.47 49.18 clipbox
267.0813 100.82556 m
278.877978 114.252574 l
281.499462 111.498314 l
440.536158 205.48741 l
443.157642 202.73315 l
284.120946 108.744055 l
286.74243 105.989796 l
cl
gsave
fill
grestore
stroke
grestore
gsave
436.9 344.3 70.47 49.18 clipbox
92.3157 169.68204 m
105.039405 182.572752 l
107.462968 179.70815 l
484.326519 377.683781 l
486.750081 374.819179 l
109.88653 176.843547 l
112.310093 173.978944 l
cl
gsave
fill
grestore
stroke
grestore
0.000 0.502 0.000 setrgbcolor
gsave
436.9 344.3 70.47 49.18 clipbox
485.5383 307.395 m
492.09201 291.902292 l
487.72287 291.902292 l
487.72287 66.39732 l
483.35373 66.39732 l
483.35373 291.902292 l
478.98459 291.902292 l
cl
gsave
fill
grestore
stroke
grestore
gsave
436.9 344.3 70.47 49.18 clipbox
136.0071 307.395 m
152.767873 297.789716 l
149.212557 295.788615 l
356.241758 67.39787 l
352.686442 65.39677 l
145.657242 293.787515 l
142.101927 291.786414 l
cl
gsave
fill
grestore
stroke
grestore
gsave
436.9 344.3 70.47 49.18 clipbox
398.1555 307.395 m
418.671857 305.085483 l
416.717919 302.006128 l
486.515269 274.506438 l
484.561331 271.427082 l
414.76398 298.926773 l
412.810041 295.847417 l
cl
gsave
fill
grestore
stroke
grestore
gsave
436.9 344.3 70.47 49.18 clipbox
223.3899 376.25148 m
232.658246 361.644815 l
228.333018 361.157926 l
269.243914 135.497244 l
264.918686 135.010356 l
224.00779 360.671037 l
219.682562 360.184148 l
cl
gsave
fill
grestore
stroke
grestore
gsave
436.9 344.3 70.47 49.18 clipbox
441.8469 376.25148 m
448.40061 360.758772 l
444.03147 360.758772 l
444.03147 272.96676 l
439.66233 272.96676 l
439.66233 360.758772 l
435.29319 360.758772 l
cl
gsave
fill
grestore
stroke
grestore
gsave
436.9 344.3 70.47 49.18 clipbox
267.0813 204.11028 m
281.735841 192.562697 l
277.827963 191.02302 l
312.726639 136.023639 l
308.818761 134.483961 l
273.920086 189.483342 l
270.012208 187.943664 l
cl
gsave
fill
grestore
stroke
grestore
gsave
436.9 344.3 70.47 49.18 clipbox
223.3899 307.395 m
241.926591 300.091667 l
238.837143 297.657223 l
487.083024 102.042782 l
483.993576 99.608338 l
235.747694 295.222779 l
232.658246 292.788335 l
cl
gsave
fill
grestore
stroke
grestore
gsave
436.9 344.3 70.47 49.18 clipbox
398.1555 376.25148 m
397.388446 359.931921 l
393.297493 361.140777 l
269.126777 100.221132 l
265.035823 101.429988 l
389.20654 362.349634 l
385.115586 363.55849 l
cl
gsave
fill
grestore
stroke
grestore
1.000 setgray
/DejaVuSans findfont
12.000 scalefont
setfont
gsave
88.495387 63.084820 translate
0.000000 rotate
0.000000 0.000000 m /one glyphshow
grestore
gsave
132.186788 63.084820 translate
0.000000 rotate
0.000000 0.000000 m /two glyphshow
grestore
0.150 setgray
gsave
175.878187 63.084820 translate
0.000000 rotate
0.000000 0.000000 m /three glyphshow
grestore
gsave
219.569588 63.084820 translate
0.000000 rotate
0.000000 0.000000 m /four glyphshow
grestore
gsave
263.260987 63.084820 translate
0.000000 rotate
0.000000 0.000000 m /five glyphshow
grestore
1.000 setgray
gsave
306.952387 63.084820 translate
0.000000 rotate
0.000000 0.000000 m /six glyphshow
grestore
0.150 setgray
gsave
350.643788 63.084820 translate
0.000000 rotate
0.000000 0.000000 m /seven glyphshow
grestore
gsave
394.335187 63.084820 translate
0.000000 rotate
0.000000 0.000000 m /eight glyphshow
grestore
gsave
438.026588 63.084820 translate
0.000000 rotate
0.000000 0.000000 m /nine glyphshow
grestore
gsave
477.897675 63.084820 translate
0.000000 rotate
0.000000 0.000000 m /one glyphshow
7.634766 0.000000 m /zero glyphshow
grestore
gsave
84.675075 97.513060 translate
0.000000 rotate
0.000000 0.000000 m /two glyphshow
7.634766 0.000000 m /zero glyphshow
grestore
gsave
128.366475 97.513060 translate
0.000000 rotate
0.000000 0.000000 m /one glyphshow
7.634766 0.000000 m /nine glyphshow
grestore
gsave
172.057875 97.513060 translate
0.000000 rotate
0.000000 0.000000 m /one glyphshow
7.634766 0.000000 m /eight glyphshow
grestore
gsave
215.749275 97.513060 translate
0.000000 rotate
0.000000 0.000000 m /one glyphshow
7.634766 0.000000 m /seven glyphshow
grestore
gsave
259.440675 97.513060 translate
0.000000 rotate
0.000000 0.000000 m /one glyphshow
7.634766 0.000000 m /six glyphshow
grestore
gsave
303.132075 97.513060 translate
0.000000 rotate
0.000000 0.000000 m /one glyphshow
7.634766 0.000000 m /five glyphshow
grestore
gsave
346.823475 97.513060 translate
0.000000 rotate
0.000000 0.000000 m /one glyphshow
7.634766 0.000000 m /four glyphshow
grestore
gsave
390.514875 97.513060 translate
0.000000 rotate
0.000000 0.000000 m /one glyphshow
7.634766 0.000000 m /three glyphshow
grestore
gsave
434.206275 97.513060 translate
0.000000 rotate
0.000000 0.000000 m /one glyphshow
7.634766 0.000000 m /two glyphshow
grestore
gsave
477.897675 97.513060 translate
0.000000 rotate
0.000000 0.000000 m /one glyphshow
7.634766 0.000000 m /one glyphshow
grestore
gsave
84.675075 131.941300 translate
0.000000 rotate
0.000000 0.000000 m /two glyphshow
7.634766 0.000000 m /one glyphshow
grestore
1.000 setgray
gsave
128.366475 131.941300 translate
0.000000 rotate
0.000000 0.000000 m /two glyphshow
7.634766 0.000000 m /two glyphshow
grestore
0.150 setgray
gsave
172.057875 131.941300 translate
0.000000 rotate
0.000000 0.000000 m /two glyphshow
7.634766 0.000000 m /three glyphshow
grestore
gsave
215.749275 131.941300 translate
0.000000 rotate
0.000000 0.000000 m /two glyphshow
7.634766 0.000000 m /four glyphshow
grestore
gsave
259.440675 131.941300 translate
0.000000 rotate
0.000000 0.000000 m /two glyphshow
7.634766 0.000000 m /five glyphshow
grestore
gsave
303.132075 131.941300 translate
0.000000 rotate
0.000000 0.000000 m /two glyphshow
7.634766 0.000000 m /six glyphshow
grestore
gsave
346.823475 131.941300 translate
0.000000 rotate
0.000000 0.000000 m /two glyphshow
7.634766 0.000000 m /seven glyphshow
grestore
gsave
390.514875 131.941300 translate
0.000000 rotate
0.000000 0.000000 m /two glyphshow
7.634766 0.000000 m /eight glyphshow
grestore
gsave
434.206275 131.941300 translate
0.000000 rotate
0.000000 0.000000 m /two glyphshow
7.634766 0.000000 m /nine glyphshow
grestore
gsave
477.897675 131.941300 translate
0.000000 rotate
0.000000 0.000000 m /three glyphshow
7.634766 0.000000 m /zero glyphshow
grestore
gsave
84.675075 166.369540 translate
0.000000 rotate
0.000000 0.000000 m /four glyphshow
7.634766 0.000000 m /zero glyphshow
grestore
gsave
128.366475 166.369540 translate
0.000000 rotate
0.000000 0.000000 m /three glyphshow
7.634766 0.000000 m /nine glyphshow
grestore
gsave
172.057875 166.369540 translate
0.000000 rotate
0.000000 0.000000 m /three glyphshow
7.634766 0.000000 m /eight glyphshow
grestore
gsave
215.749275 166.369540 translate
0.000000 rotate
0.000000 0.000000 m /three glyphshow
7.634766 0.000000 m /seven glyphshow
grestore
gsave
259.440675 166.369540 translate
0.000000 rotate
0.000000 0.000000 m /three glyphshow
7.634766 0.000000 m /six glyphshow
grestore
gsave
303.132075 166.369540 translate
0.000000 rotate
0.000000 0.000000 m /three glyphshow
7.634766 0.000000 m /five glyphshow
grestore
gsave
346.823475 166.369540 translate
0.000000 rotate
0.000000 0.000000 m /three glyphshow
7.634766 0.000000 m /four glyphshow
grestore
gsave
390.514875 166.369540 translate
0.000000 rotate
0.000000 0.000000 m /three glyphshow
7.634766 0.000000 m /three glyphshow
grestore
gsave
434.206275 166.369540 translate
0.000000 rotate
0.000000 0.000000 m /three glyphshow
7.634766 0.000000 m /two glyphshow
grestore
gsave
477.897675 166.369540 translate
0.000000 rotate
0.000000 0.000000 m /three glyphshow
7.634766 0.000000 m /one glyphshow
grestore
gsave
84.675075 200.797780 translate
0.000000 rotate
0.000000 0.000000 m /four glyphshow
7.634766 0.000000 m /one glyphshow
grestore
gsave
128.366475 200.797780 translate
0.000000 rotate
0.000000 0.000000 m /four glyphshow
7.634766 0.000000 m /two glyphshow
grestore
gsave
172.057875 200.797780 translate
0.000000 rotate
0.000000 0.000000 m /four glyphshow
7.634766 0.000000 m /three glyphshow
grestore
gsave
215.749275 200.797780 translate
0.000000 rotate
0.000000 0.000000 m /four glyphshow
7.634766 0.000000 m /four glyphshow
grestore
gsave
259.440675 200.797780 translate
0.000000 rotate
0.000000 0.000000 m /four glyphshow
7.634766 0.000000 m /five glyphshow
grestore
gsave
303.132075 200.797780 translate
0.000000 rotate
0.000000 0.000000 m /four glyphshow
7.634766 0.000000 m /six glyphshow
grestore
gsave
346.823475 200.797780 translate
0.000000 rotate
0.000000 0.000000 m /four glyphshow
7.634766 0.000000 m /seven glyphshow
grestore
gsave
390.514875 200.797780 translate
0.000000 rotate
0.000000 0.000000 m /four glyphshow
7.634766 0.000000 m /eight glyphshow
grestore
gsave
434.206275 200.797780 translate
0.000000 rotate
0.000000 0.000000 m /four glyphshow
7.634766 0.000000 m /nine glyphshow
grestore
gsave
477.897675 200.797780 translate
0.000000 rotate
0.000000 0.000000 m /five glyphshow
7.634766 0.000000 m /zero glyphshow
grestore
gsave
84.675075 235.226020 translate
0.000000 rotate
0.000000 0.000000 m /six glyphshow
7.634766 0.000000 m /zero glyphshow
grestore
gsave
128.366475 235.226020 translate
0.000000 rotate
0.000000 0.000000 m /five glyphshow
7.634766 0.000000 m /nine glyphshow
grestore
gsave
172.057875 235.226020 translate
0.000000 rotate
0.000000 0.000000 m /five glyphshow
7.634766 0.000000 m /eight glyphshow
grestore
gsave
215.749275 235.226020 translate
0.000000 rotate
0.000000 0.000000 m /five glyphshow
7.634766 0.000000 m /seven glyphshow
grestore
gsave
259.440675 235.226020 translate
0.000000 rotate
0.000000 0.000000 m /five glyphshow
7.634766 0.000000 m /six glyphshow
grestore
gsave
303.132075 235.226020 translate
0.000000 rotate
0.000000 0.000000 m /five glyphshow
7.634766 0.000000 m /five glyphshow
grestore
gsave
346.823475 235.226020 translate
0.000000 rotate
0.000000 0.000000 m /five glyphshow
7.634766 0.000000 m /four glyphshow
grestore
gsave
390.514875 235.226020 translate
0.000000 rotate
0.000000 0.000000 m /five glyphshow
7.634766 0.000000 m /three glyphshow
grestore
gsave
434.206275 235.226020 translate
0.000000 rotate
0.000000 0.000000 m /five glyphshow
7.634766 0.000000 m /two glyphshow
grestore
gsave
477.897675 235.226020 translate
0.000000 rotate
0.000000 0.000000 m /five glyphshow
7.634766 0.000000 m /one glyphshow
grestore
gsave
84.675075 269.654260 translate
0.000000 rotate
0.000000 0.000000 m /six glyphshow
7.634766 0.000000 m /one glyphshow
grestore
gsave
128.366475 269.654260 translate
0.000000 rotate
0.000000 0.000000 m /six glyphshow
7.634766 0.000000 m /two glyphshow
grestore
gsave
172.057875 269.654260 translate
0.000000 rotate
0.000000 0.000000 m /six glyphshow
7.634766 0.000000 m /three glyphshow
grestore
1.000 setgray
gsave
215.749275 269.654260 translate
0.000000 rotate
0.000000 0.000000 m /six glyphshow
7.634766 0.000000 m /four glyphshow
grestore
0.150 setgray
gsave
259.440675 269.654260 translate
0.000000 rotate
0.000000 0.000000 m /six glyphshow
7.634766 0.000000 m /five glyphshow
grestore
gsave
303.132075 269.654260 translate
0.000000 rotate
0.000000 0.000000 m /six glyphshow
7.634766 0.000000 m /six glyphshow
grestore
gsave
346.823475 269.654260 translate
0.000000 rotate
0.000000 0.000000 m /six glyphshow
7.634766 0.000000 m /seven glyphshow
grestore
gsave
390.514875 269.654260 translate
0.000000 rotate
0.000000 0.000000 m /six glyphshow
7.634766 0.000000 m /eight glyphshow
grestore
gsave
434.206275 269.654260 translate
0.000000 rotate
0.000000 0.000000 m /six glyphshow
7.634766 0.000000 m /nine glyphshow
grestore
gsave
477.897675 269.654260 translate
0.000000 rotate
0.000000 0.000000 m /seven glyphshow
7.634766 0.000000 m /zero glyphshow
grestore
gsave
84.675075 304.082500 translate
0.000000 rotate
0.000000 0.000000 m /eight glyphshow
7.634766 0.000000 m /zero glyphshow
grestore
gsave
128.366475 304.082500 translate
0.000000 rotate
0.000000 0.000000 m /seven glyphshow
7.634766 0.000000 m /nine glyphshow
grestore
gsave
172.057875 304.082500 translate
0.000000 rotate
0.000000 0.000000 m /seven glyphshow
7.634766 0.000000 m /eight glyphshow
grestore
gsave
215.749275 304.082500 translate
0.000000 rotate
0.000000 0.000000 m /seven glyphshow
7.634766 0.000000 m /seven glyphshow
grestore
gsave
259.440675 304.082500 translate
0.000000 rotate
0.000000 0.000000 m /seven glyphshow
7.634766 0.000000 m /six glyphshow
grestore
gsave
303.132075 304.082500 translate
0.000000 rotate
0.000000 0.000000 m /seven glyphshow
7.634766 0.000000 m /five glyphshow
grestore
gsave
346.823475 304.082500 translate
0.000000 rotate
0.000000 0.000000 m /seven glyphshow
7.634766 0.000000 m /four glyphshow
grestore
gsave
390.514875 304.082500 translate
0.000000 rotate
0.000000 0.000000 m /seven glyphshow
7.634766 0.000000 m /three glyphshow
grestore
gsave
434.206275 304.082500 translate
0.000000 rotate
0.000000 0.000000 m /seven glyphshow
7.634766 0.000000 m /two glyphshow
grestore
gsave
477.897675 304.082500 translate
0.000000 rotate
0.000000 0.000000 m /seven glyphshow
7.634766 0.000000 m /one glyphshow
grestore
gsave
84.675075 338.510740 translate
0.000000 rotate
0.000000 0.000000 m /eight glyphshow
7.634766 0.000000 m /one glyphshow
grestore
gsave
128.366475 338.510740 translate
0.000000 rotate
0.000000 0.000000 m /eight glyphshow
7.634766 0.000000 m /two glyphshow
grestore
gsave
172.057875 338.510740 translate
0.000000 rotate
0.000000 0.000000 m /eight glyphshow
7.634766 0.000000 m /three glyphshow
grestore
gsave
215.749275 338.510740 translate
0.000000 rotate
0.000000 0.000000 m /eight glyphshow
7.634766 0.000000 m /four glyphshow
grestore
gsave
259.440675 338.510740 translate
0.000000 rotate
0.000000 0.000000 m /eight glyphshow
7.634766 0.000000 m /five glyphshow
grestore
gsave
303.132075 338.510740 translate
0.000000 rotate
0.000000 0.000000 m /eight glyphshow
7.634766 0.000000 m /six glyphshow
grestore
gsave
346.823475 338.510740 translate
0.000000 rotate
0.000000 0.000000 m /eight glyphshow
7.634766 0.000000 m /seven glyphshow
grestore
gsave
390.514875 338.510740 translate
0.000000 rotate
0.000000 0.000000 m /eight glyphshow
7.634766 0.000000 m /eight glyphshow
grestore
gsave
434.206275 338.510740 translate
0.000000 rotate
0.000000 0.000000 m /eight glyphshow
7.634766 0.000000 m /nine glyphshow
grestore
gsave
477.897675 338.510740 translate
0.000000 rotate
0.000000 0.000000 m /nine glyphshow
7.634766 0.000000 m /zero glyphshow
grestore
1.000 setgray
gsave
80.854762 372.938980 translate
0.000000 rotate
0.000000 0.000000 m /one glyphshow
7.634766 0.000000 m /zero glyphshow
15.269531 0.000000 m /zero glyphshow
grestore
0.150 setgray
gsave
128.366475 372.938980 translate
0.000000 rotate
0.000000 0.000000 m /nine glyphshow
7.634766 0.000000 m /nine glyphshow
grestore
gsave
172.057875 372.938980 translate
0.000000 rotate
0.000000 0.000000 m /nine glyphshow
7.634766 0.000000 m /eight glyphshow
grestore
1.000 setgray
gsave
215.749275 372.938980 translate
0.000000 rotate
0.000000 0.000000 m /nine glyphshow
7.634766 0.000000 m /seven glyphshow
grestore
0.150 setgray
gsave
259.440675 372.938980 translate
0.000000 rotate
0.000000 0.000000 m /nine glyphshow
7.634766 0.000000 m /six glyphshow
grestore
gsave
303.132075 372.938980 translate
0.000000 rotate
0.000000 0.000000 m /nine glyphshow
7.634766 0.000000 m /five glyphshow
grestore
gsave
346.823475 372.938980 translate
0.000000 rotate
0.000000 0.000000 m /nine glyphshow
7.634766 0.000000 m /four glyphshow
grestore
gsave
390.514875 372.938980 translate
0.000000 rotate
0.000000 0.000000 m /nine glyphshow
7.634766 0.000000 m /three glyphshow
grestore
gsave
434.206275 372.938980 translate
0.000000 rotate
0.000000 0.000000 m /nine glyphshow
7.634766 0.000000 m /two glyphshow
grestore
gsave
477.897675 372.938980 translate
0.000000 rotate
0.000000 0.000000 m /nine glyphshow
7.634766 0.000000 m /one glyphshow
grestore

end
showpage
